Experiment 1 finished in .478580482
Experiment 2 finished in .483289879
Experiment 3 finished in .478744050
Experiment 4 finished in .478881218
Experiment 5 finished in .484522648
Experiment 6 finished in .486386013
Experiment 7 finished in .484067492
Experiment 8 finished in .491540021
Experiment 9 finished in .495805786
Experiment 10 finished in .482968260
