Experiment 1 finished in .980209075
Experiment 2 finished in 2.164871106
Experiment 3 finished in 11.393141055
Experiment 4 finished in 11.982178600
Experiment 5 finished in 2.714282242
Experiment 6 finished in 12.832490640
Experiment 7 finished in 11.889123400
Experiment 8 finished in 12.037943582
Experiment 9 finished in 1.554357575
Experiment 10 finished in .973956535
