Experiment 1 finished in 6.881554806 (exit code : 0)
Experiment 2 finished in 8.315254516 (exit code : 0)
Experiment 3 finished in 6.670128379 (exit code : 0)
Experiment 4 finished in 7.002471625 (exit code : 0)
Experiment 5 finished in 6.820750615 (exit code : 0)
Experiment 6 finished in 6.763409852 (exit code : 0)
Experiment 7 finished in 7.106893111 (exit code : 0)
Experiment 8 finished in 7.387114531 (exit code : 0)
Experiment 9 finished in 6.254439482 (exit code : 0)
Experiment 10 finished in 6.844004289 (exit code : 0)
