Experiment 1 finished in .007491525
Experiment 2 finished in .007081069
Experiment 3 finished in .007448643
Experiment 4 finished in .007576383
Experiment 5 finished in .007464427
Experiment 6 finished in .007564649
Experiment 7 finished in .007144973
Experiment 8 finished in .007304281
Experiment 9 finished in .007187716
Experiment 10 finished in .007437468
