Experiment 1 finished in 134.661557959
Experiment 2 finished in 135.965843448
Experiment 3 finished in 124.465114294
Experiment 4 finished in 144.557219565
Experiment 5 finished in 132.482814652
Experiment 6 finished in 129.506185278
Experiment 7 finished in 127.680413315
Experiment 8 finished in 129.723597563
Experiment 9 finished in 125.627499702
Experiment 10 finished in 135.317409510
