Experiment 1 finished in .487739685
Experiment 2 finished in .494136216
Experiment 3 finished in .491889657
Experiment 4 finished in .502403214
Experiment 5 finished in .520209832
Experiment 6 finished in .610359768
Experiment 7 finished in .488467475
Experiment 8 finished in .490648503
Experiment 9 finished in .490177429
Experiment 10 finished in .489065956
