Experiment 1 finished in 39.504211185
Experiment 2 finished in 97.838543227
Experiment 3 finished in 10.517236655
Experiment 4 finished in 3.342906316
Experiment 5 finished in 15.967239479
Experiment 6 finished in 1.760337191
Experiment 7 finished in 122.476072973
Experiment 8 finished in 1.554462547
Experiment 9 finished in 16.052982576
Experiment 10 finished in 22.947217521
