Experiment 1 finished in .501796981
Experiment 2 finished in .496836574
Experiment 3 finished in .497513964
Experiment 4 finished in .502903966
Experiment 5 finished in .498018637
Experiment 6 finished in .496580326
Experiment 7 finished in .502148842
Experiment 8 finished in .503326087
Experiment 9 finished in .499796517
Experiment 10 finished in .495534104
