Experiment 1 finished in .480482469
Experiment 2 finished in .480965072
Experiment 3 finished in .479739987
Experiment 4 finished in .479431148
Experiment 5 finished in .492835367
Experiment 6 finished in .481182837
Experiment 7 finished in .483441435
Experiment 8 finished in .479890285
Experiment 9 finished in .482543346
Experiment 10 finished in .482682400
