../../tests/exhaustive/6.in
../../tests/exhaustive/11.in
../../tests/exhaustive/16.in
../../tests/exhaustive/21.in
../../tests/exhaustive/27.in
../../tests/exhaustive/28.in
../../tests/exhaustive/29.in
../../tests/exhaustive/30.in
../../tests/exhaustive/36.in
../../tests/exhaustive/37.in
../../tests/exhaustive/41.in
../../tests/exhaustive/42.in
../../tests/exhaustive/46.in
../../tests/exhaustive/47.in
../../tests/exhaustive/53.in
../../tests/exhaustive/54.in
../../tests/exhaustive/55.in
../../tests/exhaustive/58.in
../../tests/exhaustive/59.in
../../tests/exhaustive/60.in
../../tests/exhaustive/66.in
../../tests/exhaustive/67.in
../../tests/exhaustive/68.in
../../tests/exhaustive/71.in
../../tests/exhaustive/72.in
../../tests/exhaustive/73.in
../../tests/exhaustive/79.in
../../tests/exhaustive/80.in
../../tests/exhaustive/84.in
../../tests/exhaustive/85.in
../../tests/exhaustive/89.in
../../tests/exhaustive/90.in
../../tests/exhaustive/96.in
../../tests/exhaustive/97.in
../../tests/exhaustive/98.in
../../tests/exhaustive/99.in
../../tests/exhaustive/105.in
../../tests/exhaustive/110.in
../../tests/exhaustive/115.in
../../tests/exhaustive/120.in
