Experiment 1 finished in 569.041541788 (exit code : 0)
Experiment 2 finished in 701.572648194 (exit code : 0)
Experiment 3 finished in 577.490065607 (exit code : 0)
Experiment 4 finished in 655.519370694 (exit code : 0)
Experiment 5 finished in 524.498773173 (exit code : 0)
Experiment 6 finished in 533.309443940 (exit code : 0)
Experiment 7 finished in 606.916074457 (exit code : 0)
Experiment 8 finished in 561.821773796 (exit code : 0)
Experiment 9 finished in 605.791516803 (exit code : 0)
Experiment 10 finished in 637.579298066 (exit code : 0)
