Experiment 1 finished in 10800.687462280 (TO)
Experiment 2 finished in 10800.027611423 (TO)
Experiment 3 finished in 10802.842584355 (TO)
Experiment 4 finished in 10802.225594102 (TO)
Experiment 5 finished in 10800.022760825 (TO)
Experiment 6 finished in 10800.045779733 (TO)
Experiment 7 finished in 10803.376423055 (TO)
Experiment 8 finished in 10800.120647029 (TO)
Experiment 9 finished in 10804.072233229 (TO)
Experiment 10 finished in 10803.990205939 (TO)
