Experiment 1 finished in 239.316912029
Experiment 2 finished in 228.209421869
Experiment 3 finished in 270.846866841
Experiment 4 finished in 247.986873039
Experiment 5 finished in 254.676247118
Experiment 6 finished in 235.973315403
Experiment 7 finished in 246.858956951
Experiment 8 finished in 259.149380080
Experiment 9 finished in 249.932143624
Experiment 10 finished in 251.956063629
