Experiment 1 finished in .008045785
Experiment 2 finished in .007312941
Experiment 3 finished in .007520021
Experiment 4 finished in .007333335
Experiment 5 finished in .007309658
Experiment 6 finished in .007299951
Experiment 7 finished in .007402967
Experiment 8 finished in .007372166
Experiment 9 finished in .007490827
Experiment 10 finished in .007554732
