Experiment 1 finished in 15.134735360
Experiment 2 finished in 1.408516614
Experiment 3 finished in 6.139500980
Experiment 4 finished in .743029264
Experiment 5 finished in 6.793053362
Experiment 6 finished in 3.886229317
Experiment 7 finished in 2.539866627
Experiment 8 finished in 4.336113832
Experiment 9 finished in 1.932223504
Experiment 10 finished in 11.527395837
