../../tests/blackbox/1.in
../../tests/blackbox/3.in
../../tests/blackbox/5.in
../../tests/blackbox/6.in
../../tests/whitebox/5.in
../../tests/whitebox/7.in
../../tests/whitebox/8.in
../../tests/whitebox/10.in
