Experiment 1 finished in 330.434788084
Experiment 2 finished in 244.073124674
Experiment 3 finished in 242.363859123
Experiment 4 finished in 243.850450720
Experiment 5 finished in 288.508353454
Experiment 6 finished in 237.107457524
Experiment 7 finished in 224.714783024
Experiment 8 finished in 265.764334227
Experiment 9 finished in 425.159828939
Experiment 10 finished in 229.804560864
