Experiment 1 finished in 1635.693268079 (exit code : 0)
Experiment 2 finished in 1870.644896502 (exit code : 0)
Experiment 3 finished in 1558.346879510 (exit code : 0)
Experiment 4 finished in 1577.298822424 (exit code : 0)
Experiment 5 finished in 1633.380319783 (exit code : 0)
Experiment 6 finished in 2015.519015857 (exit code : 0)
Experiment 7 finished in 1992.285841294 (exit code : 0)
Experiment 8 finished in 1763.225284621 (exit code : 0)
Experiment 9 finished in 1937.857455466 (exit code : 0)
Experiment 10 finished in 1598.436339080 (exit code : 0)
