../../tests/exhaustive/12.in
../../tests/exhaustive/17.in
../../tests/exhaustive/22.in
../../tests/exhaustive/24.in
../../tests/exhaustive/49.in
../../tests/exhaustive/52.in
../../tests/exhaustive/74.in
../../tests/exhaustive/77.in
../../tests/exhaustive/102.in
../../tests/exhaustive/104.in
../../tests/exhaustive/109.in
../../tests/exhaustive/114.in
