Experiment 1 finished in 398.850363040
Experiment 2 finished in 383.068757111
Experiment 3 finished in 637.048322562
Experiment 4 finished in 370.904960914
Experiment 5 finished in 235.798762035
Experiment 6 finished in 342.715367081
Experiment 7 finished in 382.255299985
Experiment 8 finished in 238.037903786
Experiment 9 finished in 364.238171165
Experiment 10 finished in 369.243446182
