Experiment 1 finished in 215.896279456
Experiment 2 finished in 201.170939204
Experiment 3 finished in 219.078810242
Experiment 4 finished in 208.491696266
Experiment 5 finished in 194.535018898
Experiment 6 finished in 223.480827186
Experiment 7 finished in 214.522679851
Experiment 8 finished in 220.544667882
Experiment 9 finished in 234.762148425
Experiment 10 finished in 243.453065298
