Experiment 1 finished in 41.976417044
Experiment 2 finished in 276.055122799
Experiment 3 finished in 242.459239341
Experiment 4 finished in 46.526573527
Experiment 5 finished in 53.590281279
Experiment 6 finished in 2.715118452
Experiment 7 finished in 55.088840349
Experiment 8 finished in 31.766925320
Experiment 9 finished in 123.394058564
Experiment 10 finished in 6.632091134
