Experiment 1 finished in 10800.006051393 (TO)
Experiment 2 finished in 10800.010827013 (TO)
Experiment 3 finished in 10800.006262751 (TO)
Experiment 4 finished in 10800.007491366 (TO)
Experiment 5 finished in 10800.028138524 (TO)
Experiment 6 finished in 10800.004096341 (TO)
Experiment 7 finished in 10800.003359058 (TO)
Experiment 8 finished in 5676.474509626 (exit code : 0)
Experiment 9 finished in 10800.025635073 (TO)
Experiment 10 finished in 10800.010084130 (TO)
