Experiment 1 finished in 10800.007737444 (TO)
Experiment 2 finished in 10800.009334738 (TO)
Experiment 3 finished in 10800.006824041 (TO)
Experiment 4 finished in 7115.757661487 (exit code : 0)
Experiment 5 finished in 3361.867179105 (exit code : 0)
Experiment 6 finished in 10800.009285870 (TO)
Experiment 7 finished in 10800.003528890 (TO)
Experiment 8 finished in 10800.004895394 (TO)
Experiment 9 finished in 10800.006253144 (TO)
Experiment 10 finished in 10800.008503943 (TO)
