Experiment 1 finished in 1666.154866481 (exit code : 0)
Experiment 2 finished in 1975.948475366 (exit code : 0)
Experiment 3 finished in 1951.097060438 (exit code : 0)
Experiment 4 finished in 1697.225033614 (exit code : 0)
Experiment 5 finished in 1922.994379848 (exit code : 0)
Experiment 6 finished in 1853.258470301 (exit code : 0)
Experiment 7 finished in 1739.730195583 (exit code : 0)
Experiment 8 finished in 1807.968385986 (exit code : 0)
Experiment 9 finished in 1890.259323079 (exit code : 0)
Experiment 10 finished in 2017.721420472 (exit code : 0)
