Experiment 1 finished in .115330937
Experiment 2 finished in .115654232
Experiment 3 finished in .114976493
Experiment 4 finished in .113937533
Experiment 5 finished in .114897572
Experiment 6 finished in .115600036
Experiment 7 finished in .114662765
Experiment 8 finished in .114779261
Experiment 9 finished in .113578549
Experiment 10 finished in .118132061
