../../tests/exhaustive/1.in
../../tests/exhaustive/5.in
../../tests/exhaustive/9.in
../../tests/exhaustive/13.in
../../tests/exhaustive/17.in
../../tests/exhaustive/21.in
../../tests/exhaustive/25.in
../../tests/exhaustive/29.in
../../tests/exhaustive/33.in
../../tests/exhaustive/37.in
../../tests/exhaustive/41.in
../../tests/exhaustive/45.in
../../tests/exhaustive/49.in
../../tests/exhaustive/53.in
../../tests/exhaustive/57.in
../../tests/exhaustive/61.in
../../tests/exhaustive/65.in
../../tests/exhaustive/69.in
../../tests/exhaustive/73.in
../../tests/exhaustive/77.in
../../tests/exhaustive/81.in
../../tests/exhaustive/85.in
../../tests/exhaustive/86.in
../../tests/exhaustive/89.in
../../tests/exhaustive/90.in
../../tests/exhaustive/93.in
../../tests/exhaustive/94.in
../../tests/exhaustive/97.in
../../tests/exhaustive/101.in
../../tests/exhaustive/102.in
../../tests/exhaustive/105.in
../../tests/exhaustive/106.in
../../tests/exhaustive/109.in
../../tests/exhaustive/110.in
../../tests/exhaustive/113.in
../../tests/exhaustive/117.in
../../tests/exhaustive/118.in
../../tests/exhaustive/121.in
../../tests/exhaustive/122.in
../../tests/exhaustive/125.in
../../tests/exhaustive/126.in
../../tests/exhaustive/129.in
../../tests/exhaustive/133.in
../../tests/exhaustive/137.in
../../tests/exhaustive/141.in
../../tests/exhaustive/145.in
../../tests/exhaustive/149.in
../../tests/exhaustive/150.in
../../tests/exhaustive/153.in
../../tests/exhaustive/154.in
../../tests/exhaustive/157.in
../../tests/exhaustive/158.in
../../tests/exhaustive/161.in
../../tests/exhaustive/165.in
../../tests/exhaustive/166.in
../../tests/exhaustive/169.in
../../tests/exhaustive/170.in
../../tests/exhaustive/171.in
../../tests/exhaustive/173.in
../../tests/exhaustive/174.in
../../tests/exhaustive/175.in
../../tests/exhaustive/177.in
../../tests/exhaustive/181.in
../../tests/exhaustive/182.in
../../tests/exhaustive/185.in
../../tests/exhaustive/186.in
../../tests/exhaustive/187.in
../../tests/exhaustive/189.in
../../tests/exhaustive/190.in
../../tests/exhaustive/191.in
../../tests/exhaustive/193.in
../../tests/exhaustive/197.in
../../tests/exhaustive/201.in
../../tests/exhaustive/205.in
../../tests/exhaustive/209.in
../../tests/exhaustive/213.in
../../tests/exhaustive/214.in
../../tests/exhaustive/217.in
../../tests/exhaustive/218.in
../../tests/exhaustive/221.in
../../tests/exhaustive/222.in
../../tests/exhaustive/225.in
../../tests/exhaustive/229.in
../../tests/exhaustive/230.in
../../tests/exhaustive/233.in
../../tests/exhaustive/234.in
../../tests/exhaustive/235.in
../../tests/exhaustive/237.in
../../tests/exhaustive/238.in
../../tests/exhaustive/239.in
../../tests/exhaustive/241.in
../../tests/exhaustive/245.in
../../tests/exhaustive/246.in
../../tests/exhaustive/249.in
../../tests/exhaustive/250.in
../../tests/exhaustive/251.in
../../tests/exhaustive/253.in
../../tests/exhaustive/254.in
../../tests/exhaustive/255.in
../../tests/exhaustive/256.in
