Experiment 1 finished in 63.376616014
Experiment 2 finished in 157.814425548
Experiment 3 finished in 40.908831359
Experiment 4 finished in 152.111761423
Experiment 5 finished in 118.534224774
Experiment 6 finished in 52.574630962
Experiment 7 finished in 145.869732212
Experiment 8 finished in 106.951473356
Experiment 9 finished in 149.264424188
Experiment 10 finished in 23.147201878
