Experiment 1 finished in .007970217
Experiment 2 finished in .007851836
Experiment 3 finished in .007821455
Experiment 4 finished in .007814611
Experiment 5 finished in .007828021
Experiment 6 finished in .007807208
Experiment 7 finished in .007785906
Experiment 8 finished in .007714389
Experiment 9 finished in .007748122
Experiment 10 finished in .007738694
