Experiment 1 finished in 179.127817899
Experiment 2 finished in 194.240404675
Experiment 3 finished in 200.784699230
Experiment 4 finished in 183.721075249
Experiment 5 finished in 186.119752881
Experiment 6 finished in 194.320762725
Experiment 7 finished in 191.905776252
Experiment 8 finished in 188.922592024
Experiment 9 finished in 183.107325174
Experiment 10 finished in 197.929862931
