Experiment 1 finished in .008646002
Experiment 2 finished in .007924052
Experiment 3 finished in .007831373
Experiment 4 finished in .007956529
Experiment 5 finished in .007808256
Experiment 6 finished in .007834656
Experiment 7 finished in .007857284
Experiment 8 finished in .007791494
Experiment 9 finished in .007741976
Experiment 10 finished in .007822014
