Experiment 1 finished in .498341933
Experiment 2 finished in .495664427
Experiment 3 finished in .500638664
Experiment 4 finished in .490994839
Experiment 5 finished in .494153132
Experiment 6 finished in .493839056
Experiment 7 finished in .490734401
Experiment 8 finished in .488018693
Experiment 9 finished in .490225608
