Experiment 1 finished in 2150.600124797 (exit code : 0)
Experiment 2 finished in 1796.345858147 (exit code : 0)
Experiment 3 finished in 1944.730647442 (exit code : 0)
Experiment 4 finished in 2317.083811587 (exit code : 0)
Experiment 5 finished in 2137.473288674 (exit code : 0)
Experiment 6 finished in 2152.214913033 (exit code : 0)
Experiment 7 finished in 2161.533935201 (exit code : 0)
Experiment 8 finished in 2023.275736348 (exit code : 0)
Experiment 9 finished in 2069.055539214 (exit code : 0)
Experiment 10 finished in 2071.977430313 (exit code : 0)
