Experiment 1 finished in 10800.045343572 (TO)
Experiment 2 finished in 1999.977295694 (exit code : 0)
Experiment 3 finished in 1946.255207674 (exit code : 0)
Experiment 4 finished in 3328.281865783 (exit code : 0)
Experiment 5 finished in 1420.446639540 (exit code : 0)
Experiment 6 finished in 3518.254451885 (exit code : 0)
Experiment 7 finished in 5633.998314343 (exit code : 0)
Experiment 8 finished in 4819.011296359 (exit code : 0)
Experiment 9 finished in 3697.971567013 (exit code : 0)
Experiment 10 finished in 2099.188836268 (exit code : 0)
