Experiment 1 finished in 188.661648531
Experiment 2 finished in 181.305841604
Experiment 3 finished in 187.747867428
Experiment 4 finished in 194.057032686
Experiment 5 finished in 182.655669298
Experiment 6 finished in 172.613165525
Experiment 7 finished in 187.322875326
Experiment 8 finished in 186.747222462
Experiment 9 finished in 194.929136063
Experiment 10 finished in 177.380876631
