Experiment 1 finished in 190.810203739
Experiment 2 finished in 198.699273739
Experiment 3 finished in 188.501051256
Experiment 4 finished in 156.331309052
Experiment 5 finished in 165.405078580
Experiment 6 finished in 196.211624284
Experiment 7 finished in 181.182790677
Experiment 8 finished in 202.216055468
Experiment 9 finished in 193.199813269
Experiment 10 finished in 186.482956214
