Experiment 1 finished in 77.192320128
Experiment 2 finished in 54.114056754
Experiment 3 finished in 19.830665897
Experiment 4 finished in 59.589828359
Experiment 5 finished in 39.535210728
Experiment 6 finished in 43.392046014
Experiment 7 finished in 142.848743269
Experiment 8 finished in 64.247287663
Experiment 9 finished in 15.150381134
Experiment 10 finished in 1.789244638
