Experiment 1 finished in 285.040078680
Experiment 2 finished in 420.147343026
Experiment 3 finished in 306.751464291
Experiment 4 finished in 411.070193806
Experiment 5 finished in 357.157514510
Experiment 6 finished in 392.479064232
Experiment 7 finished in 306.030575738
Experiment 8 finished in 337.919424859
Experiment 9 finished in 676.354386342
Experiment 10 finished in 365.281866776
