Experiment 1 finished in 1816.350394199 (exit code : 0)
Experiment 2 finished in 1839.789412996 (exit code : 0)
Experiment 3 finished in 1988.112028605 (exit code : 0)
Experiment 4 finished in 1848.603104256 (exit code : 0)
Experiment 5 finished in 1980.923225765 (exit code : 0)
Experiment 6 finished in 2106.917485960 (exit code : 0)
Experiment 7 finished in 1802.853668184 (exit code : 0)
Experiment 8 finished in 1869.729880684 (exit code : 0)
Experiment 9 finished in 2077.479155480 (exit code : 0)
Experiment 10 finished in 2210.121294061 (exit code : 0)
