Experiment 1 finished in 1.263656313
Experiment 2 finished in 102.756290606
Experiment 3 finished in 1.554003585
Experiment 4 finished in 37.268400575
Experiment 5 finished in 2.979080814
Experiment 6 finished in 29.452181164
Experiment 7 finished in 33.322059456
Experiment 8 finished in 16.399206157
Experiment 9 finished in 4.135407214
Experiment 10 finished in 2.672113390
