Experiment 1 finished in 1758.015189235 (exit code : 0)
Experiment 2 finished in 1751.468659939 (exit code : 0)
Experiment 3 finished in 1904.214785543 (exit code : 0)
Experiment 4 finished in 1789.986364094 (exit code : 0)
Experiment 5 finished in 1784.630574492 (exit code : 0)
Experiment 6 finished in 1776.297218203 (exit code : 0)
Experiment 7 finished in 1863.299023992 (exit code : 0)
Experiment 8 finished in 1907.187666674 (exit code : 0)
Experiment 9 finished in 1863.744939680 (exit code : 0)
Experiment 10 finished in 1964.707890470 (exit code : 0)
