Experiment 1 finished in 201.525346842
Experiment 2 finished in 200.335935577
Experiment 3 finished in 218.127478337
Experiment 4 finished in 225.623990232
Experiment 5 finished in 209.858235507
Experiment 6 finished in 203.430198359
Experiment 7 finished in 199.577935822
Experiment 8 finished in 206.486573439
Experiment 9 finished in 202.127555178
Experiment 10 finished in 218.761218078
