../../tests/blackbox/1.in
../../tests/blackbox/2.in
../../tests/blackbox/3.in
../../tests/blackbox/4.in
../../tests/whitebox/1.in
../../tests/whitebox/2.in
../../tests/whitebox/3.in
../../tests/whitebox/4.in
