Experiment 1 finished in 2.011091773
Experiment 2 finished in 1.586997830
Experiment 3 finished in 3.662750480
Experiment 4 finished in 1.883565850
Experiment 5 finished in .972309677
Experiment 6 finished in 2.130307562
Experiment 7 finished in 3.068388236
Experiment 8 finished in 11.089128932
Experiment 9 finished in 2.171104790
Experiment 10 finished in 2.518961524
