../../tests/exhaustive/2.in
../../tests/exhaustive/3.in
../../tests/exhaustive/4.in
../../tests/exhaustive/6.in
../../tests/exhaustive/7.in
../../tests/exhaustive/8.in
../../tests/exhaustive/10.in
../../tests/exhaustive/11.in
../../tests/exhaustive/12.in
../../tests/exhaustive/14.in
../../tests/exhaustive/15.in
../../tests/exhaustive/16.in
../../tests/exhaustive/18.in
../../tests/exhaustive/19.in
../../tests/exhaustive/20.in
../../tests/exhaustive/34.in
../../tests/exhaustive/35.in
../../tests/exhaustive/36.in
../../tests/exhaustive/50.in
../../tests/exhaustive/51.in
../../tests/exhaustive/52.in
../../tests/exhaustive/66.in
../../tests/exhaustive/67.in
../../tests/exhaustive/68.in
../../tests/exhaustive/87.in
../../tests/exhaustive/88.in
../../tests/exhaustive/91.in
../../tests/exhaustive/92.in
../../tests/exhaustive/95.in
../../tests/exhaustive/96.in
../../tests/exhaustive/103.in
../../tests/exhaustive/104.in
../../tests/exhaustive/119.in
../../tests/exhaustive/120.in
../../tests/exhaustive/130.in
../../tests/exhaustive/131.in
../../tests/exhaustive/132.in
../../tests/exhaustive/151.in
../../tests/exhaustive/152.in
../../tests/exhaustive/172.in
../../tests/exhaustive/176.in
../../tests/exhaustive/188.in
../../tests/exhaustive/194.in
../../tests/exhaustive/195.in
../../tests/exhaustive/196.in
../../tests/exhaustive/215.in
../../tests/exhaustive/216.in
../../tests/exhaustive/236.in
