Experiment 1 finished in 286.107251076
Experiment 2 finished in 190.257192347
Experiment 3 finished in 241.296531709
Experiment 4 finished in 380.155022726
Experiment 5 finished in 321.077438767
Experiment 6 finished in 240.475784462
Experiment 7 finished in 125.845963376
Experiment 8 finished in 300.342137230
Experiment 9 finished in 3.022805903
Experiment 10 finished in 328.953388704
