../../tests/exhaustive/28.in
../../tests/exhaustive/29.in
../../tests/exhaustive/30.in
../../tests/exhaustive/54.in
../../tests/exhaustive/55.in
../../tests/exhaustive/59.in
../../tests/exhaustive/60.in
../../tests/exhaustive/80.in
../../tests/exhaustive/85.in
../../tests/exhaustive/90.in
