Experiment 1 finished in .633578264
Experiment 2 finished in .632668861
Experiment 3 finished in .645296165
Experiment 4 finished in .635153115
Experiment 5 finished in .627391095
Experiment 6 finished in .633101109
Experiment 7 finished in .629359083
Experiment 8 finished in .630425140
Experiment 9 finished in .631495178
Experiment 10 finished in .629949730
