Experiment 1 finished in 382.643351933
Experiment 2 finished in 26.905676413
Experiment 3 finished in 4.748584230
Experiment 4 finished in 18.599223756
Experiment 5 finished in 726.844456706
Experiment 6 finished in 89.757749294
Experiment 7 finished in 82.228157996
Experiment 8 finished in 51.051958424
Experiment 9 finished in .937790483
Experiment 10 finished in 211.818968395
