Experiment 1 finished in 12.345732652
Experiment 2 finished in 2.923633236
Experiment 3 finished in 17.178424295
Experiment 4 finished in 12.280979236
Experiment 5 finished in .951090359
Experiment 6 finished in 11.269430002
Experiment 7 finished in 28.588035183
Experiment 8 finished in .936690832
Experiment 9 finished in 1.526707133
Experiment 10 finished in 1.831436246
