Experiment 1 finished in 15.625424086
Experiment 2 finished in 92.734202445
Experiment 3 finished in 148.965385546
Experiment 4 finished in 174.475939647
Experiment 5 finished in 178.711628278
Experiment 6 finished in 177.067135916
Experiment 7 finished in 131.449972797
Experiment 8 finished in 197.266408114
Experiment 9 finished in 83.767517017
Experiment 10 finished in 12.912469596
