Experiment 1 finished in 1741.491741211 (exit code : 0)
Experiment 2 finished in 1796.235265653 (exit code : 0)
Experiment 3 finished in 922.367190771 (exit code : 0)
Experiment 4 finished in 1551.097962149 (exit code : 0)
Experiment 5 finished in 2705.379137396 (exit code : 0)
Experiment 6 finished in 3485.425528294 (exit code : 0)
Experiment 7 finished in 3418.049880528 (exit code : 0)
Experiment 8 finished in 4833.746828469 (exit code : 0)
Experiment 9 finished in 672.330755667 (exit code : 0)
Experiment 10 finished in 3178.527744608 (exit code : 0)
