Experiment 1 finished in .007329354
Experiment 2 finished in .007442776
Experiment 3 finished in .007395075
Experiment 4 finished in .007595589
Experiment 5 finished in .007567303
Experiment 6 finished in .007181080
Experiment 7 finished in .007211532
Experiment 8 finished in .007493132
Experiment 9 finished in .007495925
Experiment 10 finished in .007405132
