Experiment 1 finished in 1586.295021712 (exit code : 0)
Experiment 2 finished in 1626.863901022 (exit code : 0)
Experiment 3 finished in 1617.085663372 (exit code : 0)
Experiment 4 finished in 1768.353693537 (exit code : 0)
Experiment 5 finished in 1729.223614104 (exit code : 0)
Experiment 6 finished in 1798.435978570 (exit code : 0)
Experiment 7 finished in 1656.289188056 (exit code : 0)
Experiment 8 finished in 1816.996219140 (exit code : 0)
Experiment 9 finished in 1628.683757487 (exit code : 0)
Experiment 10 finished in 1657.583079030 (exit code : 0)
