Experiment 1 finished in 1872.502923617 (exit code : 0)
Experiment 2 finished in 10802.389781257 (TO)
Experiment 3 finished in 4031.921094902 (exit code : 0)
Experiment 4 finished in 5501.004647827 (exit code : 0)
Experiment 5 finished in 1917.216707673 (exit code : 0)
Experiment 6 finished in 10800.104947999 (TO)
Experiment 7 finished in 8106.875691842 (exit code : 0)
Experiment 8 finished in 2675.764225579 (exit code : 0)
Experiment 9 finished in 1738.107222499 (exit code : 0)
Experiment 10 finished in 10801.438273331 (TO)
