Experiment 1 finished in 10800.007881443 (TO)
Experiment 2 finished in 10800.174788132 (TO)
Experiment 3 finished in 10800.240589164 (TO)
Experiment 4 finished in 10800.026847558 (TO)
Experiment 5 finished in 10801.250321779 (TO)
Experiment 6 finished in 10800.232306998 (TO)
Experiment 7 finished in 10801.200638339 (TO)
Experiment 8 finished in 10800.002736087 (TO)
Experiment 9 finished in 10800.003705844 (TO)
Experiment 10 finished in 10800.123865818 (TO)
