Experiment 1 finished in .552243131
Experiment 2 finished in .550397925
Experiment 3 finished in .553227614
Experiment 4 finished in .550373969
Experiment 5 finished in .550259918
Experiment 6 finished in .554397874
Experiment 7 finished in .558136268
Experiment 8 finished in .550273118
Experiment 9 finished in .562471736
Experiment 10 finished in .553912547
