Experiment 1 finished in 170.451955662
Experiment 2 finished in 53.430771191
Experiment 3 finished in 19.638156291
Experiment 4 finished in 8.507478500
Experiment 5 finished in 33.765813098
Experiment 6 finished in 82.389815215
Experiment 7 finished in .957149090
Experiment 8 finished in 151.767835705
Experiment 9 finished in 26.209150061
Experiment 10 finished in 205.204252096
