Experiment 1 finished in 519.161648223
Experiment 2 finished in 647.626933162
Experiment 3 finished in 321.064879069
Experiment 4 finished in 413.041169352
Experiment 5 finished in 424.044531861
Experiment 6 finished in 507.221401491
Experiment 7 finished in 369.152031005
Experiment 8 finished in 407.237065352
Experiment 9 finished in 402.123665806
Experiment 10 finished in 893.950569435
