Experiment 1 finished in 168.659516074
Experiment 2 finished in 161.020095850
Experiment 3 finished in 155.815397554
Experiment 4 finished in 157.354038024
Experiment 5 finished in 166.376998090
Experiment 6 finished in 144.068191921
Experiment 7 finished in 144.537198179
Experiment 8 finished in 159.699236656
Experiment 9 finished in 143.660887923
Experiment 10 finished in 167.253093653
