Experiment 1 finished in 44.159771435
Experiment 2 finished in 15.042038936
Experiment 3 finished in 134.007976996
Experiment 4 finished in 197.361392679
Experiment 5 finished in 554.798797822
Experiment 6 finished in 31.995156229
Experiment 7 finished in 12.713875348
Experiment 8 finished in 17.605338291
Experiment 9 finished in 321.413129569
Experiment 10 finished in 86.102223476
