../../tests/exhaustive/10.in
../../tests/exhaustive/11.in
../../tests/exhaustive/29.in
../../tests/exhaustive/30.in
../../tests/exhaustive/31.in
../../tests/exhaustive/32.in
../../tests/exhaustive/50.in
../../tests/exhaustive/51.in
../../tests/exhaustive/69.in
../../tests/exhaustive/70.in
../../tests/exhaustive/88.in
../../tests/exhaustive/89.in
../../tests/exhaustive/105.in
../../tests/exhaustive/106.in
../../tests/exhaustive/107.in
../../tests/exhaustive/108.in
../../tests/exhaustive/109.in
../../tests/exhaustive/110.in
../../tests/exhaustive/126.in
../../tests/exhaustive/127.in
../../tests/exhaustive/128.in
../../tests/exhaustive/129.in
../../tests/exhaustive/145.in
../../tests/exhaustive/146.in
../../tests/exhaustive/147.in
../../tests/exhaustive/148.in
../../tests/exhaustive/164.in
../../tests/exhaustive/165.in
../../tests/exhaustive/166.in
../../tests/exhaustive/167.in
../../tests/exhaustive/185.in
../../tests/exhaustive/186.in
../../tests/exhaustive/204.in
../../tests/exhaustive/205.in
../../tests/exhaustive/223.in
../../tests/exhaustive/224.in
../../tests/exhaustive/242.in
../../tests/exhaustive/243.in
../../tests/exhaustive/261.in
../../tests/exhaustive/262.in
../../tests/exhaustive/280.in
../../tests/exhaustive/281.in
