Experiment 1 finished in 108.600809575
Experiment 2 finished in 108.477440116
Experiment 3 finished in 125.852927739
Experiment 4 finished in 113.734770954
Experiment 5 finished in 103.669451544
Experiment 6 finished in 97.225863501
Experiment 7 finished in 92.128367024
Experiment 8 finished in 95.063760345
Experiment 9 finished in 109.486678861
Experiment 10 finished in 130.671690377
