Experiment 1 finished in 1594.204679055 (exit code : 0)
Experiment 2 finished in 1957.641701454 (exit code : 0)
Experiment 3 finished in 1676.942501268 (exit code : 0)
Experiment 4 finished in 1798.494525488 (exit code : 0)
Experiment 5 finished in 1543.927187612 (exit code : 0)
Experiment 6 finished in 1847.433057836 (exit code : 0)
Experiment 7 finished in 1540.480529568 (exit code : 0)
Experiment 8 finished in 1774.247817344 (exit code : 0)
Experiment 9 finished in 1751.888055261 (exit code : 0)
Experiment 10 finished in 1615.366931646 (exit code : 0)
