Experiment 1 finished in 383.529022799
Experiment 2 finished in 434.764305653
Experiment 3 finished in 442.652488990
Experiment 4 finished in .137264802
Experiment 5 finished in 375.826071747
Experiment 6 finished in 336.806817133
Experiment 7 finished in .136922928
Experiment 8 finished in 368.892243150
Experiment 9 finished in .069864471
Experiment 10 finished in .069488725
