Experiment 1 finished in 10800.010741636 (TO)
Experiment 2 finished in 10800.004259527 (TO)
Experiment 3 finished in 10800.008279023 (TO)
Experiment 4 finished in 10800.003333755 (TO)
Experiment 5 finished in 10800.003774607 (TO)
Experiment 6 finished in 10800.005448876 (TO)
Experiment 7 finished in 10800.006558343 (TO)
Experiment 8 finished in 10800.005301821 (TO)
Experiment 9 finished in 10800.004818966 (TO)
Experiment 10 finished in 10800.005119091 (TO)
