Experiment 1 finished in 2140.018920925 (exit code : 0)
Experiment 2 finished in 2179.434880170 (exit code : 0)
Experiment 3 finished in 2268.979541651 (exit code : 0)
Experiment 4 finished in 2223.372537074 (exit code : 0)
Experiment 5 finished in 2101.443541308 (exit code : 0)
Experiment 6 finished in 2226.908433854 (exit code : 0)
Experiment 7 finished in 1764.082782150 (exit code : 0)
Experiment 8 finished in 2117.906826617 (exit code : 0)
Experiment 9 finished in 1897.868041927 (exit code : 0)
Experiment 10 finished in 2169.887460289 (exit code : 0)
