Experiment 1 finished in .513667365
Experiment 2 finished in .515035224
Experiment 3 finished in .513071146
Experiment 4 finished in .517248748
Experiment 5 finished in .518548162
Experiment 6 finished in .626044314
Experiment 7 finished in .521325212
Experiment 8 finished in .518881358
Experiment 9 finished in .519673661
Experiment 10 finished in .520588484
