Experiment 1 finished in .566506328
Experiment 2 finished in .569559369
Experiment 3 finished in .566528887
Experiment 4 finished in .567263686
Experiment 5 finished in .560035951
Experiment 6 finished in .566560314
Experiment 7 finished in .566541108
Experiment 8 finished in .566830810
Experiment 9 finished in .568553934
Experiment 10 finished in .572960290
