Experiment 1 finished in 244.676145765
Experiment 2 finished in 170.551272132
Experiment 3 finished in 331.894507194
Experiment 4 finished in 390.108827257
Experiment 5 finished in 418.187928937
Experiment 6 finished in 348.416334167
Experiment 7 finished in 315.394239946
Experiment 8 finished in 618.602240077
Experiment 9 finished in 293.648589399
Experiment 10 finished in 218.007085823
