Experiment 1 finished in .007501862
Experiment 2 finished in .007426643
Experiment 3 finished in .007685125
Experiment 4 finished in .007499278
Experiment 5 finished in .007547538
Experiment 6 finished in .007904008
Experiment 7 finished in .007296319
Experiment 8 finished in .007507589
Experiment 9 finished in .007408415
Experiment 10 finished in .007490897
