Experiment 1 finished in 228.754943215
Experiment 2 finished in 119.948028590
Experiment 3 finished in 184.623008210
Experiment 4 finished in 182.100484011
Experiment 5 finished in 33.818439343
Experiment 6 finished in 249.597808988
Experiment 7 finished in 26.817819502
Experiment 8 finished in 22.616278858
Experiment 9 finished in 25.954231890
Experiment 10 finished in 361.194591375
