Experiment 1 finished in 10800.003535638 (TO)
Experiment 2 finished in 3410.434925783 (exit code : 0)
Experiment 3 finished in 5431.912475321 (exit code : 0)
Experiment 4 finished in 7398.874226459 (exit code : 0)
Experiment 5 finished in 5534.575910990 (exit code : 0)
Experiment 6 finished in 4163.479551856 (exit code : 0)
Experiment 7 finished in 1360.292923216 (exit code : 0)
Experiment 8 finished in 3029.866428092 (exit code : 0)
Experiment 9 finished in 502.795195794 (exit code : 0)
Experiment 10 finished in 4524.687193972 (exit code : 0)
