Experiment 1 finished in 1176.274458856 (exit code : 0)
Experiment 2 finished in 2181.025728623 (exit code : 0)
Experiment 3 finished in 3658.819263049 (exit code : 0)
Experiment 4 finished in 1313.576257596 (exit code : 0)
Experiment 5 finished in 1761.709119913 (exit code : 0)
Experiment 6 finished in 4536.692982416 (exit code : 0)
Experiment 7 finished in 999.656290474 (exit code : 0)
Experiment 8 finished in 10800.010029099 (TO)
Experiment 9 finished in 1555.001578935 (exit code : 0)
Experiment 10 finished in 1892.367448379 (exit code : 0)
