Experiment 1 finished in 1029.373093840
Experiment 2 finished in 4.771747371
Experiment 3 finished in 19.124867905
Experiment 4 finished in 105.195317228
Experiment 5 finished in 433.811554400
Experiment 6 finished in 23.585893151
Experiment 7 finished in 86.255945748
Experiment 8 finished in 45.459174594
Experiment 9 finished in 87.734343804
Experiment 10 finished in 92.868755240
