Experiment 1 finished in 2386.619852135 (exit code : 0)
Experiment 2 finished in 2175.784972546 (exit code : 0)
Experiment 3 finished in 2339.591687484 (exit code : 0)
Experiment 4 finished in 2321.167580194 (exit code : 0)
Experiment 5 finished in 2284.366030665 (exit code : 0)
Experiment 6 finished in 2334.333583832 (exit code : 0)
Experiment 7 finished in 2392.802123074 (exit code : 0)
Experiment 8 finished in 2326.819992941 (exit code : 0)
Experiment 9 finished in 2323.506676925 (exit code : 0)
Experiment 10 finished in 2331.608033592 (exit code : 0)
