Experiment 1 finished in 40.442907860
Experiment 2 finished in 1.910850605
Experiment 3 finished in 4.503765877
Experiment 4 finished in 3.944963183
Experiment 5 finished in 81.607036483
Experiment 6 finished in 2.453904857
Experiment 7 finished in 2.709087098
Experiment 8 finished in 5.271413425
Experiment 9 finished in 6.596503858
Experiment 10 finished in 16.489908319
