Experiment 1 finished in 417.378338974
Experiment 2 finished in 354.924338781
Experiment 3 finished in 276.088263605
Experiment 4 finished in 282.290832521
Experiment 5 finished in 162.956904370
Experiment 6 finished in 133.248426916
Experiment 7 finished in 158.773472873
Experiment 8 finished in 224.265199023
Experiment 9 finished in 115.322042002
Experiment 10 finished in 378.370367568
