Experiment 1 finished in 10805.432600148 (TO)
Experiment 2 finished in 10800.146504947 (TO)
Experiment 3 finished in 10800.964783453 (TO)
Experiment 4 finished in 10805.387981452 (TO)
Experiment 5 finished in 10800.056616019 (TO)
Experiment 6 finished in 10800.065465753 (TO)
Experiment 7 finished in 10800.031149307 (TO)
Experiment 8 finished in 10800.842174606 (TO)
Experiment 9 finished in 10800.299908868 (TO)
Experiment 10 finished in 10800.074755171 (TO)
