Experiment 1 finished in 10800.002795199 (TO)
Experiment 2 finished in 10063.221210651 (exit code : 0)
Experiment 3 finished in 10800.005553788 (TO)
Experiment 4 finished in 10800.017165463 (TO)
Experiment 5 finished in 10800.003404120 (TO)
Experiment 6 finished in 6532.268656242 (exit code : 0)
Experiment 7 finished in 10800.006370904 (TO)
Experiment 8 finished in 10800.012069619 (TO)
Experiment 9 finished in 10800.009850515 (TO)
Experiment 10 finished in 10800.011791672 (TO)
