Experiment 1 finished in .481230363
Experiment 2 finished in .483737882
Experiment 3 finished in .480976446
Experiment 4 finished in .481156872
Experiment 5 finished in .479813563
Experiment 6 finished in .480693753
Experiment 7 finished in .489636003
Experiment 8 finished in .482651696
Experiment 9 finished in .482825438
Experiment 10 finished in .481999995
