Experiment 1 finished in 487.908170667
Experiment 2 finished in 424.388636303
Experiment 3 finished in 427.902001655
Experiment 4 finished in 505.241914785
Experiment 5 finished in 532.330169444
Experiment 6 finished in 400.534344496
Experiment 7 finished in 382.371880750
Experiment 8 finished in 316.261428644
Experiment 9 finished in 325.823986634
Experiment 10 finished in 378.339105701
