Experiment 1 finished in 156.637808554
Experiment 2 finished in 158.443069612
Experiment 3 finished in 158.276035748
Experiment 4 finished in 162.917073028
Experiment 5 finished in 164.143312790
Experiment 6 finished in 163.302996002
Experiment 7 finished in 172.335401399
Experiment 8 finished in 152.829184860
Experiment 9 finished in 155.204512600
Experiment 10 finished in 156.913657671
