../../tests/exhaustive/1.in
../../tests/exhaustive/2.in
../../tests/exhaustive/3.in
../../tests/exhaustive/4.in
../../tests/exhaustive/5.in
../../tests/exhaustive/6.in
../../tests/exhaustive/7.in
../../tests/exhaustive/8.in
../../tests/exhaustive/9.in
../../tests/exhaustive/10.in
../../tests/exhaustive/11.in
../../tests/exhaustive/12.in
../../tests/exhaustive/13.in
../../tests/exhaustive/14.in
../../tests/exhaustive/15.in
../../tests/exhaustive/16.in
../../tests/exhaustive/17.in
../../tests/exhaustive/18.in
../../tests/exhaustive/19.in
../../tests/exhaustive/20.in
../../tests/exhaustive/21.in
../../tests/exhaustive/22.in
../../tests/exhaustive/23.in
../../tests/exhaustive/24.in
../../tests/exhaustive/25.in
../../tests/exhaustive/26.in
../../tests/exhaustive/27.in
../../tests/exhaustive/28.in
../../tests/exhaustive/29.in
../../tests/exhaustive/30.in
../../tests/exhaustive/31.in
../../tests/exhaustive/32.in
../../tests/exhaustive/33.in
../../tests/exhaustive/34.in
../../tests/exhaustive/35.in
../../tests/exhaustive/36.in
../../tests/exhaustive/37.in
../../tests/exhaustive/38.in
../../tests/exhaustive/39.in
../../tests/exhaustive/40.in
../../tests/exhaustive/41.in
../../tests/exhaustive/42.in
../../tests/exhaustive/43.in
../../tests/exhaustive/44.in
../../tests/exhaustive/45.in
../../tests/exhaustive/46.in
../../tests/exhaustive/47.in
../../tests/exhaustive/48.in
../../tests/exhaustive/49.in
../../tests/exhaustive/50.in
../../tests/exhaustive/51.in
../../tests/exhaustive/52.in
../../tests/exhaustive/53.in
../../tests/exhaustive/54.in
../../tests/exhaustive/55.in
../../tests/exhaustive/56.in
../../tests/exhaustive/57.in
../../tests/exhaustive/58.in
../../tests/exhaustive/59.in
../../tests/exhaustive/60.in
../../tests/exhaustive/61.in
../../tests/exhaustive/62.in
../../tests/exhaustive/63.in
../../tests/exhaustive/64.in
../../tests/exhaustive/65.in
../../tests/exhaustive/66.in
../../tests/exhaustive/67.in
../../tests/exhaustive/68.in
../../tests/exhaustive/69.in
../../tests/exhaustive/70.in
../../tests/exhaustive/71.in
../../tests/exhaustive/72.in
../../tests/exhaustive/73.in
../../tests/exhaustive/74.in
../../tests/exhaustive/75.in
../../tests/exhaustive/76.in
../../tests/exhaustive/77.in
../../tests/exhaustive/78.in
../../tests/exhaustive/79.in
../../tests/exhaustive/80.in
../../tests/exhaustive/81.in
../../tests/exhaustive/82.in
../../tests/exhaustive/83.in
../../tests/exhaustive/84.in
../../tests/exhaustive/85.in
../../tests/exhaustive/86.in
../../tests/exhaustive/87.in
../../tests/exhaustive/88.in
../../tests/exhaustive/89.in
../../tests/exhaustive/90.in
../../tests/exhaustive/91.in
../../tests/exhaustive/92.in
../../tests/exhaustive/93.in
../../tests/exhaustive/94.in
../../tests/exhaustive/95.in
../../tests/exhaustive/96.in
../../tests/exhaustive/97.in
../../tests/exhaustive/98.in
../../tests/exhaustive/99.in
../../tests/exhaustive/100.in
../../tests/exhaustive/101.in
../../tests/exhaustive/102.in
../../tests/exhaustive/103.in
../../tests/exhaustive/104.in
../../tests/exhaustive/105.in
../../tests/exhaustive/106.in
../../tests/exhaustive/107.in
../../tests/exhaustive/108.in
../../tests/exhaustive/109.in
../../tests/exhaustive/110.in
../../tests/exhaustive/111.in
../../tests/exhaustive/112.in
../../tests/exhaustive/113.in
../../tests/exhaustive/114.in
../../tests/exhaustive/115.in
../../tests/exhaustive/116.in
../../tests/exhaustive/117.in
../../tests/exhaustive/118.in
../../tests/exhaustive/119.in
../../tests/exhaustive/120.in
../../tests/exhaustive/121.in
../../tests/exhaustive/122.in
../../tests/exhaustive/123.in
../../tests/exhaustive/124.in
../../tests/exhaustive/125.in
../../tests/exhaustive/126.in
../../tests/exhaustive/127.in
../../tests/exhaustive/128.in
../../tests/exhaustive/129.in
../../tests/exhaustive/130.in
../../tests/exhaustive/131.in
../../tests/exhaustive/132.in
../../tests/exhaustive/133.in
../../tests/exhaustive/134.in
../../tests/exhaustive/135.in
../../tests/exhaustive/136.in
../../tests/exhaustive/137.in
../../tests/exhaustive/138.in
../../tests/exhaustive/139.in
../../tests/exhaustive/140.in
../../tests/exhaustive/141.in
../../tests/exhaustive/142.in
../../tests/exhaustive/143.in
../../tests/exhaustive/144.in
../../tests/exhaustive/145.in
../../tests/exhaustive/146.in
../../tests/exhaustive/147.in
../../tests/exhaustive/148.in
../../tests/exhaustive/149.in
../../tests/exhaustive/150.in
../../tests/exhaustive/151.in
../../tests/exhaustive/152.in
../../tests/exhaustive/153.in
../../tests/exhaustive/154.in
../../tests/exhaustive/155.in
../../tests/exhaustive/156.in
../../tests/exhaustive/157.in
../../tests/exhaustive/158.in
../../tests/exhaustive/159.in
../../tests/exhaustive/160.in
../../tests/exhaustive/161.in
../../tests/exhaustive/162.in
../../tests/exhaustive/163.in
../../tests/exhaustive/164.in
../../tests/exhaustive/165.in
../../tests/exhaustive/166.in
../../tests/exhaustive/167.in
../../tests/exhaustive/168.in
../../tests/exhaustive/169.in
../../tests/exhaustive/170.in
../../tests/exhaustive/171.in
../../tests/exhaustive/172.in
../../tests/exhaustive/173.in
../../tests/exhaustive/174.in
../../tests/exhaustive/175.in
../../tests/exhaustive/176.in
../../tests/exhaustive/177.in
../../tests/exhaustive/178.in
../../tests/exhaustive/179.in
../../tests/exhaustive/180.in
../../tests/exhaustive/181.in
../../tests/exhaustive/182.in
../../tests/exhaustive/183.in
../../tests/exhaustive/184.in
../../tests/exhaustive/185.in
../../tests/exhaustive/186.in
../../tests/exhaustive/187.in
../../tests/exhaustive/188.in
../../tests/exhaustive/189.in
../../tests/exhaustive/190.in
../../tests/exhaustive/191.in
../../tests/exhaustive/192.in
../../tests/exhaustive/193.in
../../tests/exhaustive/194.in
../../tests/exhaustive/195.in
../../tests/exhaustive/196.in
../../tests/exhaustive/197.in
../../tests/exhaustive/198.in
../../tests/exhaustive/199.in
../../tests/exhaustive/200.in
../../tests/exhaustive/201.in
../../tests/exhaustive/202.in
../../tests/exhaustive/203.in
../../tests/exhaustive/204.in
../../tests/exhaustive/205.in
../../tests/exhaustive/206.in
../../tests/exhaustive/207.in
../../tests/exhaustive/208.in
../../tests/exhaustive/209.in
../../tests/exhaustive/210.in
../../tests/exhaustive/211.in
../../tests/exhaustive/212.in
../../tests/exhaustive/213.in
../../tests/exhaustive/214.in
../../tests/exhaustive/215.in
../../tests/exhaustive/216.in
../../tests/exhaustive/217.in
../../tests/exhaustive/218.in
../../tests/exhaustive/219.in
../../tests/exhaustive/220.in
../../tests/exhaustive/221.in
../../tests/exhaustive/222.in
../../tests/exhaustive/223.in
../../tests/exhaustive/224.in
../../tests/exhaustive/225.in
../../tests/exhaustive/226.in
../../tests/exhaustive/227.in
../../tests/exhaustive/228.in
../../tests/exhaustive/229.in
../../tests/exhaustive/230.in
../../tests/exhaustive/231.in
../../tests/exhaustive/232.in
../../tests/exhaustive/233.in
../../tests/exhaustive/234.in
../../tests/exhaustive/235.in
../../tests/exhaustive/236.in
../../tests/exhaustive/237.in
../../tests/exhaustive/238.in
../../tests/exhaustive/239.in
../../tests/exhaustive/240.in
../../tests/exhaustive/241.in
../../tests/exhaustive/242.in
../../tests/exhaustive/243.in
../../tests/exhaustive/244.in
../../tests/exhaustive/245.in
../../tests/exhaustive/246.in
../../tests/exhaustive/247.in
../../tests/exhaustive/248.in
../../tests/exhaustive/249.in
../../tests/exhaustive/250.in
../../tests/exhaustive/251.in
../../tests/exhaustive/252.in
../../tests/exhaustive/253.in
../../tests/exhaustive/254.in
../../tests/exhaustive/255.in
../../tests/exhaustive/256.in
