Experiment 1 finished in 10800.020512530 (TO)
Experiment 2 finished in 10800.004099145 (TO)
Experiment 3 finished in 10800.008448409 (TO)
Experiment 4 finished in 10800.008239174 (TO)
Experiment 5 finished in 10800.005928186 (TO)
Experiment 6 finished in 10800.027599646 (TO)
Experiment 7 finished in 10800.076499324 (TO)
Experiment 8 finished in 10800.003660052 (TO)
Experiment 9 finished in 10800.006535342 (TO)
Experiment 10 finished in 10800.003461223 (TO)
