Experiment 1 finished in 10800.003640964 (TO)
Experiment 2 finished in 10800.003810027 (TO)
Experiment 3 finished in 10800.002183980 (TO)
Experiment 4 finished in 10800.006385220 (TO)
Experiment 5 finished in 10800.002796841 (TO)
Experiment 6 finished in 10800.005360659 (TO)
Experiment 7 finished in 10800.002860787 (TO)
Experiment 8 finished in 10800.003356622 (TO)
Experiment 9 finished in 10800.003403708 (TO)
Experiment 10 finished in 10800.002724030 (TO)
