Experiment 1 finished in 7029.192886053 (exit code : 0)
Experiment 2 finished in 3301.563355456 (exit code : 0)
Experiment 3 finished in 7154.263142998 (exit code : 0)
Experiment 4 finished in 7188.522405848 (exit code : 0)
Experiment 5 finished in 10800.006495941 (TO)
Experiment 6 finished in 2061.221699128 (exit code : 0)
Experiment 7 finished in 9218.119824850 (exit code : 0)
Experiment 8 finished in 10800.007133864 (TO)
Experiment 9 finished in 1569.686190629 (exit code : 0)
Experiment 10 finished in 9835.207168599 (exit code : 0)
