../../tests/exhaustive/1.in
../../tests/exhaustive/2.in
../../tests/exhaustive/3.in
../../tests/exhaustive/4.in
../../tests/exhaustive/5.in
../../tests/exhaustive/18.in
../../tests/exhaustive/19.in
../../tests/exhaustive/20.in
../../tests/exhaustive/21.in
../../tests/exhaustive/22.in
../../tests/exhaustive/23.in
../../tests/exhaustive/24.in
../../tests/exhaustive/37.in
../../tests/exhaustive/38.in
../../tests/exhaustive/39.in
../../tests/exhaustive/40.in
../../tests/exhaustive/41.in
../../tests/exhaustive/42.in
../../tests/exhaustive/43.in
../../tests/exhaustive/56.in
../../tests/exhaustive/57.in
../../tests/exhaustive/58.in
../../tests/exhaustive/59.in
../../tests/exhaustive/60.in
../../tests/exhaustive/61.in
../../tests/exhaustive/62.in
../../tests/exhaustive/75.in
../../tests/exhaustive/76.in
../../tests/exhaustive/77.in
../../tests/exhaustive/78.in
../../tests/exhaustive/79.in
../../tests/exhaustive/80.in
../../tests/exhaustive/81.in
../../tests/exhaustive/82.in
../../tests/exhaustive/83.in
../../tests/exhaustive/94.in
../../tests/exhaustive/95.in
../../tests/exhaustive/96.in
../../tests/exhaustive/97.in
../../tests/exhaustive/98.in
../../tests/exhaustive/99.in
../../tests/exhaustive/100.in
../../tests/exhaustive/113.in
../../tests/exhaustive/114.in
../../tests/exhaustive/115.in
../../tests/exhaustive/116.in
../../tests/exhaustive/117.in
../../tests/exhaustive/118.in
../../tests/exhaustive/119.in
../../tests/exhaustive/132.in
../../tests/exhaustive/133.in
../../tests/exhaustive/134.in
../../tests/exhaustive/135.in
../../tests/exhaustive/136.in
../../tests/exhaustive/137.in
../../tests/exhaustive/138.in
../../tests/exhaustive/151.in
../../tests/exhaustive/152.in
../../tests/exhaustive/153.in
../../tests/exhaustive/154.in
../../tests/exhaustive/155.in
../../tests/exhaustive/156.in
../../tests/exhaustive/157.in
../../tests/exhaustive/158.in
../../tests/exhaustive/159.in
../../tests/exhaustive/170.in
../../tests/exhaustive/171.in
../../tests/exhaustive/172.in
../../tests/exhaustive/173.in
../../tests/exhaustive/174.in
../../tests/exhaustive/175.in
../../tests/exhaustive/176.in
../../tests/exhaustive/189.in
../../tests/exhaustive/190.in
../../tests/exhaustive/191.in
../../tests/exhaustive/192.in
../../tests/exhaustive/193.in
../../tests/exhaustive/194.in
../../tests/exhaustive/195.in
../../tests/exhaustive/208.in
../../tests/exhaustive/209.in
../../tests/exhaustive/210.in
../../tests/exhaustive/211.in
../../tests/exhaustive/212.in
../../tests/exhaustive/213.in
../../tests/exhaustive/214.in
../../tests/exhaustive/215.in
../../tests/exhaustive/216.in
../../tests/exhaustive/227.in
../../tests/exhaustive/228.in
../../tests/exhaustive/229.in
../../tests/exhaustive/230.in
../../tests/exhaustive/231.in
../../tests/exhaustive/232.in
../../tests/exhaustive/233.in
../../tests/exhaustive/246.in
../../tests/exhaustive/247.in
../../tests/exhaustive/248.in
../../tests/exhaustive/249.in
../../tests/exhaustive/250.in
../../tests/exhaustive/251.in
../../tests/exhaustive/252.in
../../tests/exhaustive/253.in
../../tests/exhaustive/254.in
../../tests/exhaustive/265.in
../../tests/exhaustive/266.in
../../tests/exhaustive/267.in
../../tests/exhaustive/268.in
../../tests/exhaustive/269.in
../../tests/exhaustive/270.in
../../tests/exhaustive/271.in
../../tests/exhaustive/272.in
../../tests/exhaustive/273.in
../../tests/exhaustive/274.in
../../tests/exhaustive/275.in
../../tests/exhaustive/284.in
../../tests/exhaustive/285.in
