Experiment 1 finished in 369.023322877
Experiment 2 finished in 229.716085480
Experiment 3 finished in 365.635028318
Experiment 4 finished in 259.578275638
Experiment 5 finished in 357.607975507
Experiment 6 finished in 260.746598719
Experiment 7 finished in 316.291854929
Experiment 8 finished in 343.571384470
Experiment 9 finished in 361.126971462
Experiment 10 finished in 344.234789922
