Experiment 1 finished in .007474344
Experiment 2 finished in .007321392
Experiment 3 finished in .007328236
Experiment 4 finished in .007431671
Experiment 5 finished in .008500312
Experiment 6 finished in .007402897
Experiment 7 finished in .007343811
Experiment 8 finished in .007193303
Experiment 9 finished in .007556478
Experiment 10 finished in .007324185
