Experiment 1 finished in 10800.004666407 (TO)
Experiment 2 finished in 10800.002090499 (TO)
Experiment 3 finished in 10800.006290646 (TO)
Experiment 4 finished in 10800.004538357 (TO)
Experiment 5 finished in 10800.002121096 (TO)
Experiment 6 finished in 10800.006476411 (TO)
Experiment 7 finished in 10800.002146519 (TO)
Experiment 8 finished in 10800.004295328 (TO)
Experiment 9 finished in 10800.001327568 (TO)
Experiment 10 finished in 10800.006242340 (TO)
