Experiment 1 finished in 233.374366187
Experiment 2 finished in 391.251984498
Experiment 3 finished in 294.905445525
Experiment 4 finished in 308.670586470
Experiment 5 finished in 292.808938630
Experiment 6 finished in 445.570014537
Experiment 7 finished in 287.359780535
Experiment 8 finished in 233.099921232
Experiment 9 finished in 294.176598094
Experiment 10 finished in 473.959356715
