Experiment 1 finished in 35.990374416 (exit code : 0)
Experiment 2 finished in 195.316467201 (exit code : 0)
Experiment 3 finished in 18.223647003 (exit code : 0)
Experiment 4 finished in 179.939766282 (exit code : 0)
Experiment 5 finished in 270.829311576 (exit code : 0)
Experiment 6 finished in 162.888285782 (exit code : 0)
Experiment 7 finished in 23.314519569 (exit code : 0)
Experiment 8 finished in 173.020707327 (exit code : 0)
Experiment 9 finished in 81.818552272 (exit code : 0)
Experiment 10 finished in 150.203360782 (exit code : 0)
