Experiment 1 finished in 10800.005247429 (TO)
Experiment 2 finished in 10800.008219534 (TO)
Experiment 3 finished in 10800.024850913 (TO)
Experiment 4 finished in 10800.008811268 (TO)
Experiment 5 finished in 10800.009972226 (TO)
Experiment 6 finished in 10800.006651716 (TO)
Experiment 7 finished in 6018.339694853 (exit code : 0)
Experiment 8 finished in 10800.004472515 (TO)
Experiment 9 finished in 10800.007108876 (TO)
Experiment 10 finished in 10800.006694794 (TO)
