Experiment 1 finished in 1589.998724176 (exit code : 0)
Experiment 2 finished in 1731.761666911 (exit code : 0)
Experiment 3 finished in 1623.476271812 (exit code : 0)
Experiment 4 finished in 1719.213537064 (exit code : 0)
Experiment 5 finished in 1602.442707689 (exit code : 0)
Experiment 6 finished in 1576.802533550 (exit code : 0)
Experiment 7 finished in 1714.815753718 (exit code : 0)
Experiment 8 finished in 2014.923760164 (exit code : 0)
Experiment 9 finished in 1691.823053615 (exit code : 0)
Experiment 10 finished in 1461.116241276 (exit code : 0)
