Experiment 1 finished in 941.803248189
Experiment 2 finished in 320.843118467
Experiment 3 finished in 618.879771389
Experiment 4 finished in 138.907454017
Experiment 5 finished in 417.434120229
Experiment 6 finished in 1443.345203432
Experiment 7 finished in 872.338615428
Experiment 8 finished in 216.459942223
Experiment 9 finished in 981.620076572
Experiment 10 finished in 268.920237908
