Experiment 1 finished in 19.139327355
Experiment 2 finished in 12.706005072
Experiment 3 finished in 39.396093666
Experiment 4 finished in 1.178892232
Experiment 5 finished in 38.956014030
Experiment 6 finished in 1.656297284
Experiment 7 finished in 3.125996609
Experiment 8 finished in 45.038600790
Experiment 9 finished in 23.109123654
Experiment 10 finished in 36.723133928
