Experiment 1 finished in 285.040479876
Experiment 2 finished in 255.213665375
Experiment 3 finished in 337.351998612
Experiment 4 finished in 380.992378440
Experiment 5 finished in 255.437133737
Experiment 6 finished in 291.229899844
Experiment 7 finished in 263.479237415
Experiment 8 finished in 384.986009264
Experiment 9 finished in 191.802969363
Experiment 10 finished in 230.578489631
