Experiment 1 finished in .007227805
Experiment 2 finished in .007507869
Experiment 3 finished in .007543417
Experiment 4 finished in .007405272
Experiment 5 finished in .007588465
Experiment 6 finished in .007432719
Experiment 7 finished in .007715646
Experiment 8 finished in .007581551
Experiment 9 finished in .007319576
Experiment 10 finished in .007426364
