Experiment 1 finished in .007655722
Experiment 2 finished in .007469176
Experiment 3 finished in .007280884
Experiment 4 finished in .007568001
Experiment 5 finished in .007294783
Experiment 6 finished in .007578478
Experiment 7 finished in .007797081
Experiment 8 finished in .007538529
Experiment 9 finished in .007302744
Experiment 10 finished in .007514084
