../../tests/blackbox/1.in
../../tests/blackbox/3.in
../../tests/blackbox/5.in
../../tests/blackbox/7.in
../../tests/whitebox/1.in
../../tests/whitebox/3.in
../../tests/whitebox/5.in
../../tests/whitebox/7.in
