Experiment 1 finished in 10.146722289
Experiment 2 finished in 126.192932429
Experiment 3 finished in 6.833034495
Experiment 4 finished in 64.192540268
Experiment 5 finished in 3.379573687
Experiment 6 finished in 71.519126002
Experiment 7 finished in 109.489750619
Experiment 8 finished in 62.606724991
Experiment 9 finished in 6.286812730
Experiment 10 finished in 112.843258702
