Experiment 1 finished in .696990800
Experiment 2 finished in .697419299
Experiment 3 finished in .696993878
Experiment 4 finished in .696693776
Experiment 5 finished in .700992258
Experiment 6 finished in .704726189
Experiment 7 finished in .695126094
Experiment 8 finished in .697893214
Experiment 9 finished in .697415953
Experiment 10 finished in .701070431
