Experiment 1 finished in 150.110080575
Experiment 2 finished in 160.283921947
Experiment 3 finished in 172.777173889
Experiment 4 finished in 171.739162706
Experiment 5 finished in 160.354983641
Experiment 6 finished in 146.254810573
Experiment 7 finished in 150.313783892
Experiment 8 finished in 165.718561174
Experiment 9 finished in 162.108197374
Experiment 10 finished in 148.666032873
