Experiment 1 finished in .114475381
Experiment 2 finished in .115186366
Experiment 3 finished in .114124010
Experiment 4 finished in .113199032
Experiment 5 finished in .113555153
Experiment 6 finished in .114420626
Experiment 7 finished in .114254124
Experiment 8 finished in .113344302
Experiment 9 finished in .115198518
Experiment 10 finished in .114267045
