Experiment 1 finished in 137.324647438
Experiment 2 finished in 140.559378571
Experiment 3 finished in 149.545851986
Experiment 4 finished in 149.518029868
Experiment 5 finished in 158.523662747
Experiment 6 finished in 158.617622905
Experiment 7 finished in 135.056548781
Experiment 8 finished in 155.581738199
Experiment 9 finished in 150.714821202
Experiment 10 finished in 140.270941570
