Experiment 1 finished in .503534257
Experiment 2 finished in .495139788
Experiment 3 finished in .492501584
Experiment 4 finished in .492575366
Experiment 5 finished in .492068129
Experiment 6 finished in .491681444
Experiment 7 finished in .491118138
Experiment 8 finished in .490734529
Experiment 9 finished in .491379982
Experiment 10 finished in .490904151
