Experiment 1 finished in 138.146893962
Experiment 2 finished in 138.585427313
Experiment 3 finished in 149.787264850
Experiment 4 finished in 143.967955146
Experiment 5 finished in 146.146294655
Experiment 6 finished in 155.016111550
Experiment 7 finished in 147.738923717
Experiment 8 finished in 145.058028751
Experiment 9 finished in 147.774494162
Experiment 10 finished in 130.971313465
