Experiment 1 finished in 13.353798298 (exit code : 0)
Experiment 2 finished in 18.517385333 (exit code : 0)
Experiment 3 finished in 14.060977602 (exit code : 0)
Experiment 4 finished in 13.358144736 (exit code : 0)
Experiment 5 finished in 13.719257908 (exit code : 0)
Experiment 6 finished in 62.623413209 (exit code : 0)
Experiment 7 finished in 13.466816622 (exit code : 0)
Experiment 8 finished in 14.193840160 (exit code : 0)
Experiment 9 finished in 13.760738996 (exit code : 0)
Experiment 10 finished in 13.885753153 (exit code : 0)
