Experiment 1 finished in 181.364378166
Experiment 2 finished in 187.495228826
Experiment 3 finished in 174.887029605
Experiment 4 finished in 164.367473020
Experiment 5 finished in 169.291268148
Experiment 6 finished in 177.140101669
Experiment 7 finished in 187.532100819
Experiment 8 finished in 176.112552483
Experiment 9 finished in 196.837256447
Experiment 10 finished in 177.212448866
