Experiment 1 finished in .710480845
Experiment 2 finished in .705862312
Experiment 3 finished in .705281943
Experiment 4 finished in .681079444
Experiment 5 finished in .682129789
Experiment 6 finished in .679905949
Experiment 7 finished in .681196733
Experiment 8 finished in .686402067
Experiment 9 finished in .690006324
Experiment 10 finished in .688753419
