Experiment 1 finished in 17.626271540
Experiment 2 finished in 6.270719273
Experiment 3 finished in 19.710087156
Experiment 4 finished in 7.018303375
Experiment 5 finished in 16.252789409
Experiment 6 finished in 47.327802510
Experiment 7 finished in 4.925079369
Experiment 8 finished in .967006419
Experiment 9 finished in 5.638864272
Experiment 10 finished in 32.740983124
