Experiment 1 finished in 10626.984826107 (exit code : 0)
Experiment 2 finished in 2552.749763669 (exit code : 0)
Experiment 3 finished in 10800.004869152 (TO)
Experiment 4 finished in 8600.775692659 (exit code : 0)
Experiment 5 finished in 7179.367945004 (exit code : 0)
Experiment 6 finished in 10800.007759961 (TO)
Experiment 7 finished in 1953.747011718 (exit code : 0)
Experiment 8 finished in 10800.041537833 (TO)
Experiment 9 finished in 4818.900336205 (exit code : 0)
Experiment 10 finished in 8817.844178804 (exit code : 0)
