Experiment 1 finished in 161.844019469
Experiment 2 finished in 162.182736321
Experiment 3 finished in 232.083792104
Experiment 4 finished in 330.902949679
Experiment 5 finished in 248.880414376
Experiment 6 finished in 245.041322889
Experiment 7 finished in 179.459644393
Experiment 8 finished in 227.021310075
Experiment 9 finished in 275.048097888
Experiment 10 finished in 246.251882952
