Experiment 1 finished in 190.143437865
Experiment 2 finished in 238.803646417
Experiment 3 finished in 279.820747336
Experiment 4 finished in 249.947136106
Experiment 5 finished in 173.450005557
Experiment 6 finished in 247.027867034
Experiment 7 finished in 270.909361359
Experiment 8 finished in 176.900698760
Experiment 9 finished in 220.168426215
Experiment 10 finished in 265.535347575
