Experiment 1 finished in 841.096473466 (exit code : 0)
Experiment 2 finished in 819.113208235 (exit code : 0)
Experiment 3 finished in 904.668021793 (exit code : 0)
Experiment 4 finished in 774.048644840 (exit code : 0)
Experiment 5 finished in 801.407349481 (exit code : 0)
Experiment 6 finished in 841.418099875 (exit code : 0)
Experiment 7 finished in 922.550067105 (exit code : 0)
Experiment 8 finished in 785.524002765 (exit code : 0)
Experiment 9 finished in 773.142342416 (exit code : 0)
Experiment 10 finished in 811.181433230 (exit code : 0)
