Experiment 1 finished in 10800.925634912 (TO)
Experiment 2 finished in 9459.048822122 (exit code : 0)
Experiment 3 finished in 10800.040666001 (TO)
Experiment 4 finished in 10800.021338319 (TO)
Experiment 5 finished in 10800.053231247 (TO)
Experiment 6 finished in 10801.832116933 (TO)
Experiment 7 finished in 10800.059653901 (TO)
Experiment 8 finished in 10801.357575965 (TO)
Experiment 9 finished in 10800.029729362 (TO)
Experiment 10 finished in 7902.343316450 (exit code : 0)
