Experiment 1 finished in 10800.004735779 (TO)
Experiment 2 finished in 10800.002904448 (TO)
Experiment 3 finished in 10800.003787216 (TO)
Experiment 4 finished in 10800.003918923 (TO)
Experiment 5 finished in 10800.004061044 (TO)
Experiment 6 finished in 10800.004492956 (TO)
Experiment 7 finished in 10800.004233693 (TO)
Experiment 8 finished in 10800.003658655 (TO)
Experiment 9 finished in 10800.005662319 (TO)
Experiment 10 finished in 10800.003934158 (TO)
