../../tests/exhaustive/2.in
../../tests/exhaustive/3.in
../../tests/exhaustive/4.in
../../tests/exhaustive/5.in
../../tests/exhaustive/31.in
../../tests/exhaustive/33.in
../../tests/exhaustive/34.in
../../tests/exhaustive/35.in
../../tests/exhaustive/61.in
../../tests/exhaustive/62.in
../../tests/exhaustive/64.in
../../tests/exhaustive/65.in
../../tests/exhaustive/91.in
../../tests/exhaustive/92.in
../../tests/exhaustive/93.in
../../tests/exhaustive/95.in
../../tests/exhaustive/121.in
../../tests/exhaustive/122.in
../../tests/exhaustive/123.in
../../tests/exhaustive/124.in
