Experiment 1 finished in .007375658
Experiment 2 finished in .007511919
Experiment 3 finished in .007293315
Experiment 4 finished in .007219005
Experiment 5 finished in .007514783
Experiment 6 finished in .007468547
Experiment 7 finished in .007514294
Experiment 8 finished in .007552986
Experiment 9 finished in .007309798
Experiment 10 finished in .007641195
