Experiment 1 finished in 10800.490248235 (TO)
Experiment 2 finished in 10803.590534992 (TO)
Experiment 3 finished in 10801.561055012 (TO)
Experiment 4 finished in 10800.014676934 (TO)
Experiment 5 finished in 10804.950430586 (TO)
Experiment 6 finished in 10802.162467773 (TO)
Experiment 7 finished in 10805.082529918 (TO)
Experiment 8 finished in 10798.513632038 (TO)
Experiment 9 finished in 10799.205956532 (TO)
Experiment 10 finished in 10799.209917036 (TO)
