../../tests/exhaustive/1.in
../../tests/exhaustive/2.in
../../tests/exhaustive/3.in
../../tests/exhaustive/4.in
../../tests/exhaustive/5.in
../../tests/exhaustive/6.in
../../tests/exhaustive/11.in
../../tests/exhaustive/16.in
../../tests/exhaustive/21.in
../../tests/exhaustive/26.in
../../tests/exhaustive/32.in
../../tests/exhaustive/33.in
../../tests/exhaustive/34.in
../../tests/exhaustive/35.in
../../tests/exhaustive/37.in
../../tests/exhaustive/42.in
../../tests/exhaustive/47.in
../../tests/exhaustive/51.in
../../tests/exhaustive/57.in
../../tests/exhaustive/63.in
../../tests/exhaustive/64.in
../../tests/exhaustive/65.in
../../tests/exhaustive/68.in
../../tests/exhaustive/73.in
../../tests/exhaustive/76.in
../../tests/exhaustive/82.in
../../tests/exhaustive/88.in
../../tests/exhaustive/94.in
../../tests/exhaustive/95.in
../../tests/exhaustive/99.in
../../tests/exhaustive/101.in
../../tests/exhaustive/107.in
../../tests/exhaustive/113.in
../../tests/exhaustive/119.in
../../tests/exhaustive/125.in
