Experiment 1 finished in 10800.004712307 (TO)
Experiment 2 finished in 10800.001391050 (TO)
Experiment 3 finished in 10800.001700331 (TO)
Experiment 4 finished in 10800.001613634 (TO)
Experiment 5 finished in 10800.001875560 (TO)
Experiment 6 finished in 10800.002375214 (TO)
Experiment 7 finished in 10800.002451864 (TO)
Experiment 8 finished in 10800.001836812 (TO)
Experiment 9 finished in 10800.001575033 (TO)
Experiment 10 finished in 10800.001917925 (TO)
