Experiment 1 finished in 212.451999899
Experiment 2 finished in 198.958600447
Experiment 3 finished in 191.121568849
Experiment 4 finished in 201.744964672
Experiment 5 finished in 204.281608512
Experiment 6 finished in 194.310597475
Experiment 7 finished in 186.241399856
Experiment 8 finished in 190.653483214
Experiment 9 finished in 202.772871847
Experiment 10 finished in 210.013146824
