Experiment 1 finished in 10800.024361828 (TO)
Experiment 2 finished in 10800.014881585 (TO)
Experiment 3 finished in 10800.011330880 (TO)
Experiment 4 finished in 10800.010341737 (TO)
Experiment 5 finished in 10800.006125628 (TO)
Experiment 6 finished in 5527.551076456 (exit code : 0)
Experiment 7 finished in 10800.005314342 (TO)
Experiment 8 finished in 10800.007734883 (TO)
Experiment 9 finished in 10800.004780589 (TO)
Experiment 10 finished in 10800.004601015 (TO)
