Experiment 1 finished in .492962055
Experiment 2 finished in .488574357
Experiment 3 finished in .509742601
Experiment 4 finished in .491965258
Experiment 5 finished in .488774996
Experiment 6 finished in .491239258
Experiment 7 finished in .495283782
Experiment 8 finished in .505393789
Experiment 9 finished in .491163392
Experiment 10 finished in .488506394
