Experiment 1 finished in 737.102417833
Experiment 2 finished in 291.076407364
Experiment 3 finished in 344.025011154
Experiment 4 finished in 562.454439835
Experiment 5 finished in 274.066378521
Experiment 6 finished in 472.510762556
Experiment 7 finished in 422.157388449
Experiment 8 finished in 890.191783112
Experiment 9 finished in 880.466079177
Experiment 10 finished in 748.549072457
