Experiment 1 finished in 2135.715912858 (exit code : 0)
Experiment 2 finished in 10176.405921187 (exit code : 0)
Experiment 3 finished in 7407.310569717 (exit code : 0)
Experiment 4 finished in 6271.352846451 (exit code : 0)
Experiment 5 finished in 4254.492020872 (exit code : 0)
Experiment 6 finished in 5840.357809180 (exit code : 0)
Experiment 7 finished in 1680.238316045 (exit code : 0)
Experiment 8 finished in 10800.051501184 (TO)
Experiment 9 finished in 3781.766723256 (exit code : 0)
Experiment 10 finished in 5815.820664261 (exit code : 0)
