Experiment 1 finished in 1.299041450
Experiment 2 finished in 11.156652812
Experiment 3 finished in 5.707772895
Experiment 4 finished in 10.721451799
Experiment 5 finished in 3.055506431
Experiment 6 finished in 10.267603583
Experiment 7 finished in 10.043480320
Experiment 8 finished in 1.554029042
Experiment 9 finished in 1.583696711
Experiment 10 finished in 4.775412082
