Experiment 1 finished in .500181483
Experiment 2 finished in .508744163
Experiment 3 finished in .499019952
Experiment 4 finished in .495658980
Experiment 5 finished in .496337348
Experiment 6 finished in .494835900
Experiment 7 finished in .493822434
Experiment 8 finished in .490826522
Experiment 9 finished in .495300276
