Experiment 1 finished in 256.353796210
Experiment 2 finished in 262.433380507
Experiment 3 finished in 248.764687887
Experiment 4 finished in 250.619531634
Experiment 5 finished in 251.925941228
Experiment 6 finished in 256.298872948
Experiment 7 finished in 249.584089070
Experiment 8 finished in 257.876029363
Experiment 9 finished in 242.345151375
Experiment 10 finished in 256.938196262
