Experiment 1 finished in 10801.689203671 (TO)
Experiment 2 finished in 10801.292563328 (TO)
Experiment 3 finished in 10800.028524962 (TO)
Experiment 4 finished in 10800.025229697 (TO)
Experiment 5 finished in 10800.033286794 (TO)
Experiment 6 finished in 10800.040530008 (TO)
Experiment 7 finished in 10800.024391123 (TO)
Experiment 8 finished in 10801.216187220 (TO)
Experiment 9 finished in 10800.055445782 (TO)
Experiment 10 finished in 10800.026840085 (TO)
