../../tests/blackbox/3.in
../../tests/whitebox/3.in
../../tests/whitebox/4.in
../../tests/whitebox/6.in
../../tests/whitebox/7.in
../../tests/whitebox/8.in
../../tests/whitebox/9.in
../../tests/whitebox/10.in
