Experiment 1 finished in 741.054875807 (exit code : 0)
Experiment 2 finished in 762.023568520 (exit code : 0)
Experiment 3 finished in 648.209747846 (exit code : 0)
Experiment 4 finished in 676.296216374 (exit code : 0)
Experiment 5 finished in 670.753109572 (exit code : 0)
Experiment 6 finished in 676.196990780 (exit code : 0)
Experiment 7 finished in 793.992618468 (exit code : 0)
Experiment 8 finished in 769.123038045 (exit code : 0)
Experiment 9 finished in 727.986227376 (exit code : 0)
Experiment 10 finished in 776.276274131 (exit code : 0)
