Experiment 1 finished in 272.858271748
Experiment 2 finished in 475.092847526
Experiment 3 finished in 265.597979954
Experiment 4 finished in 253.680417031
Experiment 5 finished in 618.301054941
Experiment 6 finished in 592.743035271
Experiment 7 finished in 356.148413520
Experiment 8 finished in 293.043420130
Experiment 9 finished in 220.322974560
Experiment 10 finished in 233.439870871
