Experiment 1 finished in 171.083543170
Experiment 2 finished in 179.225154264
Experiment 3 finished in 11.820819045
Experiment 4 finished in 155.004446449
Experiment 5 finished in 170.554769085
Experiment 6 finished in 161.180188840
Experiment 7 finished in 173.963965674
Experiment 8 finished in 174.918522534
Experiment 9 finished in 86.821890342
Experiment 10 finished in 156.081278007
