Experiment 1 finished in 27.693209037 (exit code : 0) [REPAIR FOUND]
Experiment 2 finished in 5.643597378 (exit code : 0) [REPAIR FOUND]
Experiment 3 finished in 5.410809562 (exit code : 0) [REPAIR FOUND]
Experiment 4 finished in 6.297169610 (exit code : 0) [REPAIR FOUND]
Experiment 5 finished in 5.658350696 (exit code : 0) [REPAIR FOUND]
Experiment 6 finished in 5.400006830 (exit code : 0) [REPAIR FOUND]
Experiment 7 finished in 600.847969011 (exit code : 0) [REPAIR FOUND]
Experiment 8 finished in 6.434966367 (exit code : 0) [REPAIR FOUND]
Experiment 9 finished in 5.512833353 (exit code : 0) [REPAIR FOUND]
Experiment 10 finished in 5.542956416 (exit code : 0) [REPAIR FOUND]
