Experiment 1 finished in .007627576
Experiment 2 finished in .007532312
Experiment 3 finished in .007514852
Experiment 4 finished in .007443265
Experiment 5 finished in .007485100
Experiment 6 finished in .007681912
Experiment 7 finished in .007511430
Experiment 8 finished in .007251271
Experiment 9 finished in .007577849
Experiment 10 finished in .007344649
