../../tests/exhaustive/1.in
../../tests/exhaustive/8.in
../../tests/exhaustive/9.in
../../tests/exhaustive/10.in
../../tests/exhaustive/12.in
../../tests/exhaustive/14.in
../../tests/exhaustive/15.in
../../tests/exhaustive/17.in
../../tests/exhaustive/18.in
../../tests/exhaustive/20.in
../../tests/exhaustive/22.in
../../tests/exhaustive/23.in
../../tests/exhaustive/24.in
../../tests/exhaustive/28.in
../../tests/exhaustive/29.in
../../tests/exhaustive/30.in
../../tests/exhaustive/32.in
../../tests/exhaustive/36.in
../../tests/exhaustive/39.in
../../tests/exhaustive/40.in
../../tests/exhaustive/41.in
../../tests/exhaustive/43.in
../../tests/exhaustive/45.in
../../tests/exhaustive/46.in
../../tests/exhaustive/48.in
../../tests/exhaustive/49.in
../../tests/exhaustive/52.in
../../tests/exhaustive/54.in
../../tests/exhaustive/55.in
../../tests/exhaustive/56.in
../../tests/exhaustive/59.in
../../tests/exhaustive/60.in
../../tests/exhaustive/63.in
../../tests/exhaustive/66.in
../../tests/exhaustive/67.in
../../tests/exhaustive/70.in
../../tests/exhaustive/71.in
../../tests/exhaustive/72.in
../../tests/exhaustive/74.in
../../tests/exhaustive/77.in
../../tests/exhaustive/78.in
../../tests/exhaustive/80.in
../../tests/exhaustive/81.in
../../tests/exhaustive/83.in
../../tests/exhaustive/85.in
../../tests/exhaustive/86.in
../../tests/exhaustive/87.in
../../tests/exhaustive/90.in
../../tests/exhaustive/94.in
../../tests/exhaustive/96.in
../../tests/exhaustive/97.in
../../tests/exhaustive/98.in
../../tests/exhaustive/102.in
../../tests/exhaustive/103.in
../../tests/exhaustive/104.in
../../tests/exhaustive/106.in
../../tests/exhaustive/108.in
../../tests/exhaustive/109.in
../../tests/exhaustive/111.in
../../tests/exhaustive/112.in
../../tests/exhaustive/114.in
../../tests/exhaustive/116.in
../../tests/exhaustive/117.in
../../tests/exhaustive/118.in
../../tests/exhaustive/125.in
