Experiment 1 finished in 6.156542520 (exit code : 0)
Experiment 2 finished in 9.569895463 (exit code : 0)
Experiment 3 finished in 43.217680435 (exit code : 0)
Experiment 4 finished in 6.725973116 (exit code : 0)
Experiment 5 finished in 5.981219300 (exit code : 0)
Experiment 6 finished in 5.907230960 (exit code : 0)
Experiment 7 finished in 6.477659752 (exit code : 0)
Experiment 8 finished in 6.003087618 (exit code : 0)
Experiment 9 finished in 5.628462732 (exit code : 0)
Experiment 10 finished in 5.712259627 (exit code : 0)
