Experiment 1 finished in 347.897896592
Experiment 2 finished in 177.611618354
Experiment 3 finished in 257.650574007
Experiment 4 finished in 192.632165730
Experiment 5 finished in 249.302438047
Experiment 6 finished in 242.757810130
Experiment 7 finished in 480.327822426
Experiment 8 finished in 355.862695118
Experiment 9 finished in 425.173608680
Experiment 10 finished in 283.753159680
