Experiment 1 finished in 1215.289355474
Experiment 2 finished in 2000.527187771
Experiment 3 finished in 1623.301101826
Experiment 4 finished in 1317.889736334
Experiment 5 finished in 1403.959981204
Experiment 6 finished in 1199.766529253
Experiment 7 finished in 1151.041817010
Experiment 8 finished in 1709.399169988
Experiment 9 finished in 1054.886206002
Experiment 10 finished in 1418.075504606
