Experiment 1 finished in 396.082459518
Experiment 2 finished in 364.372885136
Experiment 3 finished in .138438624
Experiment 4 finished in 431.078252700
Experiment 5 finished in 306.449155728
Experiment 6 finished in 279.390438344
Experiment 7 finished in .136966300
Experiment 8 finished in 336.861671524
Experiment 9 finished in 377.022650865
Experiment 10 finished in .069714103
