Experiment 1 finished in .007768655
Experiment 2 finished in .007493620
Experiment 3 finished in .007544675
Experiment 4 finished in .007417214
Experiment 5 finished in .007487824
Experiment 6 finished in .007187506
Experiment 7 finished in .007513875
Experiment 8 finished in .007438446
Experiment 9 finished in .007621710
Experiment 10 finished in .007276973
