Experiment 1 finished in .557409570
Experiment 2 finished in .564500346
Experiment 3 finished in .565727458
Experiment 4 finished in .558827767
Experiment 5 finished in .555142592
Experiment 6 finished in .561644536
Experiment 7 finished in .565265178
Experiment 8 finished in .565080657
Experiment 9 finished in .564138289
Experiment 10 finished in .564705121
