Experiment 1 finished in 164.537977285
Experiment 2 finished in 151.314865183
Experiment 3 finished in 156.238262425
Experiment 4 finished in 152.033742633
Experiment 5 finished in 160.277883665
Experiment 6 finished in 158.256842163
Experiment 7 finished in 158.620904870
Experiment 8 finished in 168.873928804
Experiment 9 finished in 144.934172429
Experiment 10 finished in 162.068977211
