Experiment 1 finished in .479959909
Experiment 2 finished in .481912279
Experiment 3 finished in .479840994
Experiment 4 finished in .479615764
Experiment 5 finished in .481939289
Experiment 6 finished in .480343622
Experiment 7 finished in .487500236
Experiment 8 finished in .479867304
Experiment 9 finished in .480102240
Experiment 10 finished in .479865740
