Experiment 1 finished in 143.869432004
Experiment 2 finished in 148.434204242
Experiment 3 finished in 150.720880571
Experiment 4 finished in 149.669779101
Experiment 5 finished in 140.447934759
Experiment 6 finished in 145.422129242
Experiment 7 finished in 141.244561760
Experiment 8 finished in 137.626238158
Experiment 9 finished in 153.373612667
Experiment 10 finished in 146.086021837
