Experiment 1 finished in .551379404
Experiment 2 finished in .545329053
Experiment 3 finished in .543571008
Experiment 4 finished in .547048685
Experiment 5 finished in .548284527
Experiment 6 finished in .549156914
Experiment 7 finished in .546468723
Experiment 8 finished in .550676381
Experiment 9 finished in .544727161
Experiment 10 finished in .544069885
