Experiment 1 finished in 1503.853428956
Experiment 2 finished in 1711.737338919
Experiment 3 finished in 1896.678931217
Experiment 4 finished in 1611.117560871
Experiment 5 finished in 1742.361085627
Experiment 6 finished in 1596.427822532
Experiment 7 finished in 1677.445884956
Experiment 8 finished in 986.430162268
Experiment 9 finished in 1346.610033266
