Experiment 1 finished in 4177.547122803 (exit code : 0)
Experiment 2 finished in 7327.845241375 (exit code : 0)
Experiment 3 finished in 8373.055575236 (exit code : 0)
Experiment 4 finished in 10800.003859564 (TO)
Experiment 5 finished in 10461.193612787 (exit code : 0)
Experiment 6 finished in 10800.002601628 (TO)
Experiment 7 finished in 10800.009832294 (TO)
Experiment 8 finished in 6925.461065641 (exit code : 0)
Experiment 9 finished in 6901.116179958 (exit code : 0)
Experiment 10 finished in 5040.333730427 (exit code : 0)
