Experiment 1 finished in .496743366
Experiment 2 finished in .496238695
Experiment 3 finished in .496084608
Experiment 4 finished in .495414373
Experiment 5 finished in .491851745
Experiment 6 finished in .496581634
Experiment 7 finished in .516563429
Experiment 8 finished in .494136052
Experiment 9 finished in .494098194
Experiment 10 finished in .495449571
