../../tests/exhaustive/5.in
../../tests/exhaustive/15.in
../../tests/exhaustive/25.in
../../tests/exhaustive/35.in
../../tests/exhaustive/45.in
../../tests/exhaustive/55.in
../../tests/exhaustive/56.in
../../tests/exhaustive/57.in
../../tests/exhaustive/58.in
../../tests/exhaustive/59.in
../../tests/exhaustive/60.in
../../tests/exhaustive/61.in
../../tests/exhaustive/62.in
../../tests/exhaustive/63.in
../../tests/exhaustive/64.in
../../tests/exhaustive/66.in
../../tests/exhaustive/67.in
../../tests/exhaustive/68.in
../../tests/exhaustive/69.in
../../tests/exhaustive/70.in
../../tests/exhaustive/71.in
../../tests/exhaustive/72.in
../../tests/exhaustive/73.in
../../tests/exhaustive/74.in
../../tests/exhaustive/75.in
../../tests/exhaustive/76.in
../../tests/exhaustive/77.in
../../tests/exhaustive/78.in
../../tests/exhaustive/79.in
../../tests/exhaustive/80.in
../../tests/exhaustive/81.in
../../tests/exhaustive/82.in
../../tests/exhaustive/83.in
../../tests/exhaustive/84.in
../../tests/exhaustive/85.in
../../tests/exhaustive/86.in
../../tests/exhaustive/87.in
../../tests/exhaustive/88.in
../../tests/exhaustive/89.in
../../tests/exhaustive/90.in
../../tests/exhaustive/91.in
../../tests/exhaustive/92.in
../../tests/exhaustive/93.in
../../tests/exhaustive/94.in
../../tests/exhaustive/95.in
../../tests/exhaustive/96.in
../../tests/exhaustive/97.in
../../tests/exhaustive/98.in
../../tests/exhaustive/99.in
../../tests/exhaustive/100.in
../../tests/exhaustive/101.in
../../tests/exhaustive/102.in
../../tests/exhaustive/103.in
../../tests/exhaustive/104.in
../../tests/exhaustive/105.in
../../tests/exhaustive/106.in
../../tests/exhaustive/107.in
../../tests/exhaustive/108.in
../../tests/exhaustive/109.in
../../tests/exhaustive/110.in
../../tests/exhaustive/111.in
../../tests/exhaustive/112.in
../../tests/exhaustive/113.in
../../tests/exhaustive/114.in
../../tests/exhaustive/115.in
../../tests/exhaustive/116.in
../../tests/exhaustive/117.in
../../tests/exhaustive/118.in
../../tests/exhaustive/119.in
../../tests/exhaustive/120.in
../../tests/exhaustive/121.in
../../tests/exhaustive/122.in
../../tests/exhaustive/123.in
../../tests/exhaustive/124.in
../../tests/exhaustive/125.in
../../tests/exhaustive/126.in
../../tests/exhaustive/127.in
../../tests/exhaustive/128.in
