Experiment 1 finished in 1.685482281
Experiment 2 finished in 9.660656848
Experiment 3 finished in 2.110710587
Experiment 4 finished in 5.190262114
Experiment 5 finished in 13.976508745
Experiment 6 finished in .988284963
Experiment 7 finished in 8.896842120
Experiment 8 finished in 1.409632189
Experiment 9 finished in 4.063773264
Experiment 10 finished in 8.085070944
