Experiment 1 finished in 10136.968299654 (exit code : 0)
Experiment 2 finished in 9435.091317389 (exit code : 0)
Experiment 3 finished in 7544.682745956 (exit code : 0)
Experiment 4 finished in 10704.672940673 (exit code : 0)
Experiment 5 finished in 1837.776378370 (exit code : 0)
Experiment 6 finished in 6179.105215150 (exit code : 0)
Experiment 7 finished in 10800.002199941 (TO)
Experiment 8 finished in 10800.005357197 (TO)
Experiment 9 finished in 10800.154972238 (TO)
Experiment 10 finished in 10800.019391954 (TO)
