Experiment 1 finished in .007541113
Experiment 2 finished in .007613678
Experiment 3 finished in .007420706
Experiment 4 finished in .007458281
Experiment 5 finished in .007479652
Experiment 6 finished in .007540275
Experiment 7 finished in .007297855
Experiment 8 finished in .007371119
Experiment 9 finished in .008515469
Experiment 10 finished in .007773055
