../../tests/exhaustive/41.in
../../tests/exhaustive/55.in
../../tests/exhaustive/60.in
../../tests/exhaustive/62.in
../../tests/exhaustive/63.in
../../tests/exhaustive/64.in
../../tests/exhaustive/66.in
../../tests/exhaustive/67.in
../../tests/exhaustive/68.in
../../tests/exhaustive/73.in
../../tests/exhaustive/75.in
../../tests/exhaustive/76.in
../../tests/exhaustive/77.in
../../tests/exhaustive/79.in
../../tests/exhaustive/80.in
../../tests/exhaustive/81.in
../../tests/exhaustive/95.in
../../tests/exhaustive/100.in
../../tests/exhaustive/102.in
../../tests/exhaustive/103.in
../../tests/exhaustive/104.in
../../tests/exhaustive/106.in
../../tests/exhaustive/107.in
../../tests/exhaustive/108.in
../../tests/exhaustive/113.in
../../tests/exhaustive/115.in
../../tests/exhaustive/116.in
../../tests/exhaustive/117.in
../../tests/exhaustive/119.in
../../tests/exhaustive/120.in
