Experiment 1 finished in 174.035176248
Experiment 2 finished in 176.344945751
Experiment 3 finished in 176.436286158
Experiment 4 finished in 156.224995887
Experiment 5 finished in 172.157051228
Experiment 6 finished in 161.929928578
Experiment 7 finished in 171.604082540
Experiment 8 finished in 168.772086649
Experiment 9 finished in 155.631506414
Experiment 10 finished in 167.257707898
