Experiment 1 finished in 2040.713118627 (exit code : 0)
Experiment 2 finished in 1958.335625673 (exit code : 0)
Experiment 3 finished in 10800.527539382 (TO)
Experiment 4 finished in 10800.015858556 (TO)
Experiment 5 finished in 1569.522953966 (exit code : 0)
Experiment 6 finished in 2546.107414101 (exit code : 0)
Experiment 7 finished in 2131.934653651 (exit code : 0)
Experiment 8 finished in 2333.314608484 (exit code : 0)
Experiment 9 finished in 10804.075281042 (TO)
Experiment 10 finished in 2614.981262937 (exit code : 0)
