Experiment 1 finished in 10800.003052961 (TO)
Experiment 2 finished in 10800.003383876 (TO)
Experiment 3 finished in 10800.013171897 (TO)
Experiment 4 finished in 10800.008183900 (TO)
Experiment 5 finished in 10800.005764659 (TO)
Experiment 6 finished in 10800.005296023 (TO)
Experiment 7 finished in 10800.004721856 (TO)
Experiment 8 finished in 10800.008584963 (TO)
Experiment 9 finished in 10800.002951943 (TO)
Experiment 10 finished in 10800.002684418 (TO)
