Experiment 1 finished in 219.354136036
Experiment 2 finished in 207.987429201
Experiment 3 finished in 210.430837051
Experiment 4 finished in 219.057485485
Experiment 5 finished in 209.936891058
Experiment 6 finished in 205.600699160
Experiment 7 finished in 201.696243334
Experiment 8 finished in 211.629666469
Experiment 9 finished in 178.649578806
Experiment 10 finished in 222.153534285
