../../tests/exhaustive/1.in
../../tests/exhaustive/2.in
../../tests/exhaustive/3.in
../../tests/exhaustive/4.in
../../tests/exhaustive/5.in
../../tests/exhaustive/6.in
../../tests/exhaustive/7.in
../../tests/exhaustive/11.in
../../tests/exhaustive/13.in
../../tests/exhaustive/16.in
../../tests/exhaustive/19.in
../../tests/exhaustive/21.in
../../tests/exhaustive/25.in
../../tests/exhaustive/26.in
../../tests/exhaustive/27.in
../../tests/exhaustive/28.in
../../tests/exhaustive/29.in
../../tests/exhaustive/30.in
../../tests/exhaustive/31.in
../../tests/exhaustive/32.in
../../tests/exhaustive/33.in
../../tests/exhaustive/34.in
../../tests/exhaustive/35.in
../../tests/exhaustive/37.in
../../tests/exhaustive/38.in
../../tests/exhaustive/42.in
../../tests/exhaustive/44.in
../../tests/exhaustive/47.in
../../tests/exhaustive/50.in
../../tests/exhaustive/51.in
../../tests/exhaustive/53.in
../../tests/exhaustive/54.in
../../tests/exhaustive/55.in
../../tests/exhaustive/57.in
../../tests/exhaustive/58.in
../../tests/exhaustive/59.in
../../tests/exhaustive/60.in
../../tests/exhaustive/61.in
../../tests/exhaustive/62.in
../../tests/exhaustive/63.in
../../tests/exhaustive/64.in
../../tests/exhaustive/65.in
../../tests/exhaustive/68.in
../../tests/exhaustive/69.in
../../tests/exhaustive/73.in
../../tests/exhaustive/75.in
../../tests/exhaustive/76.in
../../tests/exhaustive/79.in
../../tests/exhaustive/80.in
../../tests/exhaustive/82.in
../../tests/exhaustive/84.in
../../tests/exhaustive/85.in
../../tests/exhaustive/88.in
../../tests/exhaustive/89.in
../../tests/exhaustive/90.in
../../tests/exhaustive/91.in
../../tests/exhaustive/92.in
../../tests/exhaustive/93.in
../../tests/exhaustive/94.in
../../tests/exhaustive/95.in
../../tests/exhaustive/99.in
../../tests/exhaustive/100.in
../../tests/exhaustive/101.in
../../tests/exhaustive/105.in
../../tests/exhaustive/107.in
../../tests/exhaustive/110.in
../../tests/exhaustive/113.in
../../tests/exhaustive/115.in
../../tests/exhaustive/119.in
../../tests/exhaustive/120.in
../../tests/exhaustive/121.in
../../tests/exhaustive/122.in
../../tests/exhaustive/123.in
../../tests/exhaustive/124.in
../../tests/exhaustive/125.in
