../../tests/exhaustive/1.in
../../tests/exhaustive/2.in
../../tests/exhaustive/3.in
../../tests/exhaustive/4.in
../../tests/exhaustive/5.in
../../tests/exhaustive/6.in
../../tests/exhaustive/7.in
../../tests/exhaustive/8.in
../../tests/exhaustive/9.in
../../tests/exhaustive/10.in
../../tests/exhaustive/11.in
../../tests/exhaustive/12.in
../../tests/exhaustive/13.in
../../tests/exhaustive/14.in
../../tests/exhaustive/15.in
../../tests/exhaustive/16.in
../../tests/exhaustive/17.in
../../tests/exhaustive/18.in
../../tests/exhaustive/19.in
../../tests/exhaustive/20.in
../../tests/exhaustive/21.in
../../tests/exhaustive/22.in
../../tests/exhaustive/23.in
../../tests/exhaustive/24.in
../../tests/exhaustive/25.in
../../tests/exhaustive/26.in
../../tests/exhaustive/27.in
../../tests/exhaustive/28.in
../../tests/exhaustive/29.in
../../tests/exhaustive/30.in
../../tests/exhaustive/31.in
../../tests/exhaustive/32.in
../../tests/exhaustive/33.in
../../tests/exhaustive/34.in
../../tests/exhaustive/35.in
../../tests/exhaustive/36.in
../../tests/exhaustive/37.in
../../tests/exhaustive/38.in
../../tests/exhaustive/39.in
../../tests/exhaustive/40.in
../../tests/exhaustive/41.in
../../tests/exhaustive/42.in
../../tests/exhaustive/43.in
../../tests/exhaustive/44.in
../../tests/exhaustive/45.in
../../tests/exhaustive/46.in
../../tests/exhaustive/47.in
../../tests/exhaustive/48.in
../../tests/exhaustive/49.in
../../tests/exhaustive/50.in
../../tests/exhaustive/51.in
../../tests/exhaustive/52.in
../../tests/exhaustive/53.in
../../tests/exhaustive/54.in
../../tests/exhaustive/55.in
../../tests/exhaustive/65.in
../../tests/exhaustive/75.in
../../tests/exhaustive/85.in
../../tests/exhaustive/95.in
../../tests/exhaustive/105.in
../../tests/exhaustive/115.in
../../tests/exhaustive/125.in
