Experiment 1 finished in 2698.002980109 (exit code : 0)
Experiment 2 finished in 10800.020699452 (TO)
Experiment 3 finished in 10800.084701636 (TO)
Experiment 4 finished in 10800.008683422 (TO)
Experiment 5 finished in 10800.007083231 (TO)
Experiment 6 finished in 10800.020022751 (TO)
Experiment 7 finished in 10800.717595460 (TO)
Experiment 8 finished in 10800.009478149 (TO)
Experiment 9 finished in 10627.090538661 (exit code : 0)
Experiment 10 finished in 10800.004112191 (TO)
