Experiment 1 finished in .639221440
Experiment 2 finished in .634426976
Experiment 3 finished in .634561420
Experiment 4 finished in .639027421
Experiment 5 finished in .642105327
Experiment 6 finished in .817616402
Experiment 7 finished in .633550886
Experiment 8 finished in .632672004
Experiment 9 finished in .632598322
Experiment 10 finished in .633437046
