Experiment 1 finished in .623447647
Experiment 2 finished in .625548542
Experiment 3 finished in .629108143
Experiment 4 finished in .626422676
Experiment 5 finished in .628160606
Experiment 6 finished in .632375388
Experiment 7 finished in .633820334
Experiment 8 finished in .627284378
Experiment 9 finished in .627646225
Experiment 10 finished in .649238636
