Experiment 1 finished in .489184443
Experiment 2 finished in .488522412
Experiment 3 finished in .504375584
Experiment 4 finished in .489764012
Experiment 5 finished in .490469750
Experiment 6 finished in .488857966
Experiment 7 finished in .489109037
Experiment 8 finished in .489641034
Experiment 9 finished in .495501890
Experiment 10 finished in .497457876
