Experiment 1 finished in 563.885745891
Experiment 2 finished in 752.113174467
Experiment 3 finished in 727.293873004
Experiment 4 finished in 593.633000971
Experiment 5 finished in 509.634337522
Experiment 6 finished in 863.897758110
Experiment 7 finished in 779.005160733
Experiment 8 finished in 552.759412995
Experiment 9 finished in 1061.389663336
