Experiment 1 finished in .630593597
Experiment 2 finished in .631263375
Experiment 3 finished in .626935730
Experiment 4 finished in .634907763
Experiment 5 finished in .632534207
Experiment 6 finished in .637993979
Experiment 7 finished in .642140945
Experiment 8 finished in .631952918
Experiment 9 finished in .628504365
Experiment 10 finished in .632044969
