Experiment 1 finished in 2697.120100383 (exit code : 0)
Experiment 2 finished in 2583.890956844 (exit code : 0)
Experiment 3 finished in 2728.188102758 (exit code : 0)
Experiment 4 finished in 2555.300385673 (exit code : 0)
Experiment 5 finished in 2568.220458235 (exit code : 0)
Experiment 6 finished in 2634.468767886 (exit code : 0)
Experiment 7 finished in 2526.026257385 (exit code : 0)
Experiment 8 finished in 2566.770617577 (exit code : 0)
Experiment 9 finished in 2623.354521534 (exit code : 0)
Experiment 10 finished in 2570.396270647 (exit code : 0)
