Experiment 1 finished in .481879714
Experiment 2 finished in .497166155
Experiment 3 finished in .486062299
Experiment 4 finished in .482513383
Experiment 5 finished in .478542976
Experiment 6 finished in .491800947
Experiment 7 finished in .484289518
Experiment 8 finished in .480525770
Experiment 9 finished in .479656107
Experiment 10 finished in .482340596
