Experiment 1 finished in 10800.022500299 (TO)
Experiment 2 finished in 10800.006124376 (TO)
Experiment 3 finished in 10800.005746284 (TO)
Experiment 4 finished in 10800.004846256 (TO)
Experiment 5 finished in 10800.002827963 (TO)
Experiment 6 finished in 10800.004495514 (TO)
Experiment 7 finished in 10800.006824717 (TO)
Experiment 8 finished in 10800.005038557 (TO)
Experiment 9 finished in 10800.008339756 (TO)
Experiment 10 finished in 10800.003480562 (TO)
