Experiment 1 finished in 10800.032654441 (TO)
Experiment 2 finished in 10802.258573751 (TO)
Experiment 3 finished in 10800.009969978 (TO)
Experiment 4 finished in 10801.120453549 (TO)
Experiment 5 finished in 10801.370563895 (TO)
Experiment 6 finished in 10800.026410026 (TO)
Experiment 7 finished in 10801.775418140 (TO)
Experiment 8 finished in 10800.021638997 (TO)
Experiment 9 finished in 3594.269620045 (exit code : 0)
Experiment 10 finished in 10800.892067202 (TO)
