Experiment 1 finished in 792.417383712
Experiment 2 finished in 588.956470517
Experiment 3 finished in 1170.846456187
Experiment 4 finished in 796.197655687
Experiment 5 finished in 460.617196396
Experiment 6 finished in 604.088552905
Experiment 7 finished in 47.089299946
Experiment 8 finished in 832.711639768
Experiment 9 finished in 981.127058587
Experiment 10 finished in 100.437148781
