Experiment 1 finished in 204.700155914
Experiment 2 finished in 216.641197472
Experiment 3 finished in 202.448744308
Experiment 4 finished in 203.433175058
Experiment 5 finished in 210.850189666
Experiment 6 finished in 205.548240395
Experiment 7 finished in 209.056444747
Experiment 8 finished in 207.153199208
Experiment 9 finished in 210.766142337
Experiment 10 finished in 220.912036241
