Experiment 1 finished in 2107.934234707 (exit code : 0)
Experiment 2 finished in 1986.114413200 (exit code : 0)
Experiment 3 finished in 8586.926362503 (exit code : 0)
Experiment 4 finished in 4709.312219140 (exit code : 0)
Experiment 5 finished in 4498.834898650 (exit code : 0)
Experiment 6 finished in 4284.281397408 (exit code : 0)
Experiment 7 finished in 10296.126854535 (exit code : 0)
Experiment 8 finished in 5775.128207282 (exit code : 0)
Experiment 9 finished in 10800.401809895 (TO)
Experiment 10 finished in 10800.034640715 (TO)
