Experiment 1 finished in 245.413292297
Experiment 2 finished in 715.274940637
Experiment 3 finished in 175.996852817
Experiment 4 finished in 265.034540223
Experiment 5 finished in 270.597882601
Experiment 6 finished in 320.404336412
Experiment 7 finished in 227.947405329
Experiment 8 finished in 264.433970556
Experiment 9 finished in 270.133101150
Experiment 10 finished in 304.585562739
