Experiment 1 finished in 10800.003874574 (TO)
Experiment 2 finished in 10800.461270663 (TO)
Experiment 3 finished in 10800.004891917 (TO)
Experiment 4 finished in 3149.491226119 (exit code : 0)
Experiment 5 finished in 10800.038367339 (TO)
Experiment 6 finished in 9193.302965701 (exit code : 0)
Experiment 7 finished in 10800.012971446 (TO)
Experiment 8 finished in 10800.011606176 (TO)
Experiment 9 finished in 9670.775339736 (exit code : 0)
Experiment 10 finished in 10800.013966458 (TO)
