Experiment 1 finished in 5.688736321 (exit code : 0) [REPAIR FOUND]
Experiment 2 finished in 5.871769890 (exit code : 0) [REPAIR FOUND]
Experiment 3 finished in 25.895647751 (exit code : 0) [REPAIR FOUND]
Experiment 4 finished in 5.904944107 (exit code : 0) [REPAIR FOUND]
Experiment 5 finished in 5.601172715 (exit code : 0) [REPAIR FOUND]
Experiment 6 finished in 6.658624755 (exit code : 0) [REPAIR FOUND]
Experiment 7 finished in 5.975938269 (exit code : 0) [REPAIR FOUND]
Experiment 8 finished in 5.606714115 (exit code : 0) [REPAIR FOUND]
Experiment 9 finished in 5.891189378 (exit code : 0) [REPAIR FOUND]
Experiment 10 finished in 6.041712606 (exit code : 0) [REPAIR FOUND]
