Experiment 1 finished in 147.206876661
Experiment 2 finished in 24.781166307
Experiment 3 finished in 1.963923485
Experiment 4 finished in 211.728537552
Experiment 5 finished in 5.437214746
Experiment 6 finished in 196.204817810
Experiment 7 finished in 47.489827374
Experiment 8 finished in 258.564191864
Experiment 9 finished in 176.354627503
Experiment 10 finished in 56.194940363
