Experiment 1 finished in 10800.131648336 (TO)
Experiment 2 finished in 10800.063502105 (TO)
Experiment 3 finished in 10803.607430023 (TO)
Experiment 4 finished in 10800.023576612 (TO)
Experiment 5 finished in 10802.639759500 (TO)
Experiment 6 finished in 8712.715249263 (exit code : 0)
Experiment 7 finished in 10802.060873412 (TO)
Experiment 8 finished in 8614.673576771 (exit code : 0)
Experiment 9 finished in 10801.491999261 (TO)
Experiment 10 finished in 10800.238539472 (TO)
