Experiment 1 finished in 187.902584491
Experiment 2 finished in 219.333272834
Experiment 3 finished in 197.231698828
Experiment 4 finished in 224.643889306
Experiment 5 finished in 201.713277575
Experiment 6 finished in 198.177555582
Experiment 7 finished in 182.787617696
Experiment 8 finished in 186.253734523
Experiment 9 finished in 193.340544768
Experiment 10 finished in 205.461278040
