Experiment 1 finished in .515218776
Experiment 2 finished in .517078905
Experiment 3 finished in .519043720
Experiment 4 finished in .576856309
Experiment 5 finished in .519885285
Experiment 6 finished in .519145140
Experiment 7 finished in .517106188
Experiment 8 finished in .514919888
Experiment 9 finished in .516279574
Experiment 10 finished in .518448839
