Experiment 1 finished in 177.473766742
Experiment 2 finished in 167.540213825
Experiment 3 finished in 162.530992254
Experiment 4 finished in 163.964596294
Experiment 5 finished in 181.720977365
Experiment 6 finished in 166.938967905
Experiment 7 finished in 166.221479528
Experiment 8 finished in 189.076592213
Experiment 9 finished in 171.710549067
Experiment 10 finished in 173.147255714
