Experiment 1 finished in 202.024300721
Experiment 2 finished in 289.242155871
Experiment 3 finished in 273.505421471
Experiment 4 finished in 160.114954427
Experiment 5 finished in 310.447813449
Experiment 6 finished in 297.440714850
Experiment 7 finished in 432.072994908
Experiment 8 finished in 206.413306125
Experiment 9 finished in 338.364497059
Experiment 10 finished in 216.233350490
