Experiment 1 finished in 4477.238826202 (exit code : 0)
Experiment 2 finished in 10800.004393596 (TO)
Experiment 3 finished in 10800.032518902 (TO)
Experiment 4 finished in 4574.668807791 (exit code : 0)
Experiment 5 finished in 10800.006996051 (TO)
Experiment 6 finished in 6549.469591499 (exit code : 0)
Experiment 7 finished in 10800.031129276 (TO)
Experiment 8 finished in 10800.116903606 (TO)
Experiment 9 finished in 10800.036052519 (TO)
Experiment 10 finished in 10800.003697166 (TO)
