Experiment 1 finished in 10800.038212303 (TO)
Experiment 2 finished in 10800.002677520 (TO)
Experiment 3 finished in 10800.005181111 (TO)
Experiment 4 finished in 10800.004754205 (TO)
Experiment 5 finished in 10800.004114926 (TO)
Experiment 6 finished in 10800.005747838 (TO)
Experiment 7 finished in 9974.760220264 (exit code : 0)
Experiment 8 finished in 5255.931006634 (exit code : 0)
Experiment 9 finished in 10800.002930187 (TO)
Experiment 10 finished in 9440.247835246 (exit code : 0)
