Experiment 1 finished in 10802.798626097 (TO)
Experiment 2 finished in 10800.194795159 (TO)
Experiment 3 finished in 10800.414294603 (TO)
Experiment 4 finished in 10800.225235632 (TO)
Experiment 5 finished in 10801.096791936 (TO)
Experiment 6 finished in 10800.042569369 (TO)
Experiment 7 finished in 10801.158092595 (TO)
Experiment 8 finished in 10800.027493586 (TO)
Experiment 9 finished in 10800.153972466 (TO)
Experiment 10 finished in 10800.221603574 (TO)
