Experiment 1 finished in 504.536958100
Experiment 2 finished in 403.317146416
Experiment 3 finished in 816.574212496
Experiment 4 finished in 950.622585690
Experiment 5 finished in 315.267530676
Experiment 6 finished in 245.306181749
Experiment 7 finished in 565.452804802
Experiment 8 finished in 311.330099737
Experiment 9 finished in 476.223566989
Experiment 10 finished in 534.076911540
