Experiment 1 finished in 13.541007583 (exit code : 0)
Experiment 2 finished in 13.500262209 (exit code : 0)
Experiment 3 finished in 13.625815510 (exit code : 0)
Experiment 4 finished in 13.699699611 (exit code : 0)
Experiment 5 finished in 13.664898372 (exit code : 0)
Experiment 6 finished in 13.843583239 (exit code : 0)
Experiment 7 finished in 14.678367351 (exit code : 0)
Experiment 8 finished in 14.311600401 (exit code : 0)
Experiment 9 finished in 14.341673127 (exit code : 0)
Experiment 10 finished in 14.576092823 (exit code : 0)
