Experiment 1 finished in 269.530010004
Experiment 2 finished in 230.620248572
Experiment 3 finished in 174.864153121
Experiment 4 finished in 218.291371695
Experiment 5 finished in 142.850431542
Experiment 6 finished in 221.421062628
Experiment 7 finished in 229.145256466
Experiment 8 finished in 240.070943874
Experiment 9 finished in 187.397924210
Experiment 10 finished in 796.456957501
