Experiment 1 finished in 237.211274452
Experiment 2 finished in 231.654234914
Experiment 3 finished in 247.123934103
Experiment 4 finished in 239.258947210
Experiment 5 finished in 234.922846369
Experiment 6 finished in 241.941988528
Experiment 7 finished in 228.544680373
Experiment 8 finished in 249.071889607
Experiment 9 finished in 241.073709460
Experiment 10 finished in 243.995371736
