Experiment 1 finished in .489447185
Experiment 2 finished in .490222989
Experiment 3 finished in .489175376
Experiment 4 finished in .492766131
Experiment 5 finished in .500239614
Experiment 6 finished in .487091333
Experiment 7 finished in .487976789
Experiment 8 finished in .488698205
Experiment 9 finished in .487385117
Experiment 10 finished in .489202256
