Experiment 1 finished in .007440192
Experiment 2 finished in .007365601
Experiment 3 finished in .007653277
Experiment 4 finished in .007270827
Experiment 5 finished in .007138548
Experiment 6 finished in .007158033
Experiment 7 finished in .007170814
Experiment 8 finished in .007101881
Experiment 9 finished in .008549341
Experiment 10 finished in .007400312
