Experiment 1 finished in .505162149
Experiment 2 finished in .482422481
Experiment 3 finished in .487161075
Experiment 4 finished in .491191041
Experiment 5 finished in .485099838
Experiment 6 finished in .485379945
Experiment 7 finished in .486946571
Experiment 8 finished in .485882025
Experiment 9 finished in .485191683
Experiment 10 finished in .480932491
