Experiment 1 finished in 2065.959716491 (exit code : 0)
Experiment 2 finished in 2139.402061321 (exit code : 0)
Experiment 3 finished in 2074.175873381 (exit code : 0)
Experiment 4 finished in 2073.757819704 (exit code : 0)
Experiment 5 finished in 2054.818840127 (exit code : 0)
Experiment 6 finished in 2055.085165059 (exit code : 0)
Experiment 7 finished in 2228.069540338 (exit code : 0)
Experiment 8 finished in 2230.977274152 (exit code : 0)
Experiment 9 finished in 2032.493123504 (exit code : 0)
Experiment 10 finished in 2038.193990245 (exit code : 0)
