Experiment 1 finished in 2317.274352956 (exit code : 0)
Experiment 2 finished in 3411.411873817 (exit code : 0)
Experiment 3 finished in 3713.757501266 (exit code : 0)
Experiment 4 finished in 3270.091925819 (exit code : 0)
Experiment 5 finished in 4037.411209064 (exit code : 0)
Experiment 6 finished in 2659.618652689 (exit code : 0)
Experiment 7 finished in 2390.026416682 (exit code : 0)
Experiment 8 finished in 2900.824238577 (exit code : 0)
Experiment 9 finished in 3871.164226991 (exit code : 0)
Experiment 10 finished in 2791.137966187 (exit code : 0)
