Experiment 1 finished in 223.986940664
Experiment 2 finished in 295.329827425
Experiment 3 finished in 288.232874523
Experiment 4 finished in 200.400356853
Experiment 5 finished in 506.597546111
Experiment 6 finished in 426.339953577
Experiment 7 finished in 320.701628198
Experiment 8 finished in 92.050700864
Experiment 9 finished in 243.527479024
Experiment 10 finished in 263.164263283
