Experiment 1 finished in 284.129105950
Experiment 2 finished in 476.038953639
Experiment 3 finished in 519.494065425
Experiment 4 finished in 398.421421896
Experiment 5 finished in 716.436122866
Experiment 6 finished in 508.241497204
Experiment 7 finished in 414.719270248
Experiment 8 finished in 404.570275742
Experiment 9 finished in 460.176250637
Experiment 10 finished in 347.266855801
