../../tests/exhaustive/28.in
../../tests/exhaustive/29.in
../../tests/exhaustive/30.in
../../tests/exhaustive/36.in
../../tests/exhaustive/41.in
../../tests/exhaustive/46.in
../../tests/exhaustive/54.in
../../tests/exhaustive/55.in
../../tests/exhaustive/59.in
../../tests/exhaustive/60.in
../../tests/exhaustive/66.in
../../tests/exhaustive/67.in
../../tests/exhaustive/71.in
../../tests/exhaustive/72.in
../../tests/exhaustive/80.in
../../tests/exhaustive/85.in
../../tests/exhaustive/90.in
../../tests/exhaustive/96.in
../../tests/exhaustive/97.in
../../tests/exhaustive/98.in
