Experiment 1 finished in 192.924753145
Experiment 2 finished in 244.164325651
Experiment 3 finished in 359.419709667
Experiment 4 finished in 327.045248500
Experiment 5 finished in 281.162493645
Experiment 6 finished in 250.100666230
Experiment 7 finished in 201.609783972
Experiment 8 finished in 144.739640079
Experiment 9 finished in 195.265349460
Experiment 10 finished in 222.778562629
