Experiment 1 finished in 10800.006888199 (TO)
Experiment 2 finished in 10800.001682480 (TO)
Experiment 3 finished in 10800.005928301 (TO)
Experiment 4 finished in 10800.007091867 (TO)
Experiment 5 finished in 10800.002544808 (TO)
Experiment 6 finished in 10800.002296200 (TO)
Experiment 7 finished in 10800.004584927 (TO)
Experiment 8 finished in 10800.001316228 (TO)
Experiment 9 finished in 10800.001441016 (TO)
Experiment 10 finished in 10800.002949114 (TO)
