Experiment 1 finished in 1084.838566608 (exit code : 0)
Experiment 2 finished in 865.179305335 (exit code : 0)
Experiment 3 finished in 865.323724444 (exit code : 0)
Experiment 4 finished in 868.357960520 (exit code : 0)
Experiment 5 finished in 962.104552868 (exit code : 0)
Experiment 6 finished in 1025.865219736 (exit code : 0)
Experiment 7 finished in 895.931310887 (exit code : 0)
Experiment 8 finished in 883.126625435 (exit code : 0)
Experiment 9 finished in 970.147552936 (exit code : 0)
Experiment 10 finished in 973.823061930 (exit code : 0)
