Experiment 1 finished in 10800.003872950 (TO)
Experiment 2 finished in 36.160612508 (exit code : 0)
Experiment 3 finished in 8692.683057357 (exit code : 0)
Experiment 4 finished in 10800.010814208 (TO)
Experiment 5 finished in 8165.847677781 (exit code : 0)
Experiment 6 finished in 10302.983424196 (exit code : 0)
Experiment 7 finished in 10800.004323345 (TO)
Experiment 8 finished in 1904.028998793 (exit code : 0)
Experiment 9 finished in 2086.371796896 (exit code : 0)
Experiment 10 finished in 6498.791049410 (exit code : 0)
