Experiment 1 finished in 10800.009060761 (TO)
Experiment 2 finished in 10800.001603895 (TO)
Experiment 3 finished in 10800.002445937 (TO)
Experiment 4 finished in 10800.002663454 (TO)
Experiment 5 finished in 10800.001831102 (TO)
Experiment 6 finished in 10800.002266986 (TO)
Experiment 7 finished in 10800.002094351 (TO)
Experiment 8 finished in 10800.002304127 (TO)
Experiment 9 finished in 10800.001901592 (TO)
Experiment 10 finished in 10800.002506264 (TO)
