Experiment 1 finished in 146.637522144
Experiment 2 finished in 161.724217992
Experiment 3 finished in 155.978596047
Experiment 4 finished in 163.182052547
Experiment 5 finished in 161.539636124
Experiment 6 finished in 166.128784638
Experiment 7 finished in 176.718186362
Experiment 8 finished in 168.866075351
Experiment 9 finished in 171.490767823
Experiment 10 finished in 157.809101803
