Experiment 1 finished in 14.916670906 (exit code : 0)
Experiment 2 finished in 14.696431428 (exit code : 0)
Experiment 3 finished in 14.742875243 (exit code : 0)
Experiment 4 finished in 14.730063663 (exit code : 0)
Experiment 5 finished in 14.932053799 (exit code : 0)
Experiment 6 finished in 12.142837045 (exit code : 0)
Experiment 7 finished in 14.764774148 (exit code : 0)
Experiment 8 finished in 16.412785466 (exit code : 0)
Experiment 9 finished in 14.708260576 (exit code : 0)
Experiment 10 finished in 14.653900184 (exit code : 0)
