../../tests/exhaustive/2.in
../../tests/exhaustive/3.in
../../tests/exhaustive/4.in
../../tests/exhaustive/5.in
../../tests/exhaustive/26.in
../../tests/exhaustive/28.in
../../tests/exhaustive/29.in
../../tests/exhaustive/30.in
../../tests/exhaustive/33.in
../../tests/exhaustive/34.in
../../tests/exhaustive/35.in
../../tests/exhaustive/51.in
../../tests/exhaustive/52.in
../../tests/exhaustive/54.in
../../tests/exhaustive/55.in
../../tests/exhaustive/57.in
../../tests/exhaustive/59.in
../../tests/exhaustive/60.in
../../tests/exhaustive/64.in
../../tests/exhaustive/65.in
../../tests/exhaustive/76.in
../../tests/exhaustive/77.in
../../tests/exhaustive/78.in
../../tests/exhaustive/80.in
../../tests/exhaustive/82.in
../../tests/exhaustive/83.in
../../tests/exhaustive/85.in
../../tests/exhaustive/88.in
../../tests/exhaustive/90.in
../../tests/exhaustive/95.in
../../tests/exhaustive/101.in
../../tests/exhaustive/102.in
../../tests/exhaustive/103.in
../../tests/exhaustive/104.in
../../tests/exhaustive/107.in
../../tests/exhaustive/108.in
../../tests/exhaustive/109.in
../../tests/exhaustive/113.in
../../tests/exhaustive/114.in
../../tests/exhaustive/119.in
