Experiment 1 finished in 2029.894977793 (exit code : 0)
Experiment 2 finished in 1934.335466204 (exit code : 0)
Experiment 3 finished in 1896.335291282 (exit code : 0)
Experiment 4 finished in 2054.755850953 (exit code : 0)
Experiment 5 finished in 1951.010705458 (exit code : 0)
Experiment 6 finished in 2007.740851753 (exit code : 0)
Experiment 7 finished in 2038.184204845 (exit code : 0)
Experiment 8 finished in 1760.294277617 (exit code : 0)
Experiment 9 finished in 1899.494491900 (exit code : 0)
Experiment 10 finished in 2035.401841488 (exit code : 0)
