Experiment 1 finished in .007286052
Experiment 2 finished in .007492573
Experiment 3 finished in .007540274
Experiment 4 finished in .007372655
Experiment 5 finished in .007749310
Experiment 6 finished in .007373703
Experiment 7 finished in .007551100
Experiment 8 finished in .007543836
Experiment 9 finished in .007257766
Experiment 10 finished in .007307144
