Experiment 1 finished in 141.920857746
Experiment 2 finished in 119.022990357
Experiment 3 finished in 131.500950299
Experiment 4 finished in 133.234773085
Experiment 5 finished in 154.997063317
Experiment 6 finished in 140.663635372
Experiment 7 finished in 132.134752753
Experiment 8 finished in 137.644588467
Experiment 9 finished in 140.885546413
Experiment 10 finished in 129.440500363
