Experiment 1 finished in 10800.754483252 (TO)
Experiment 2 finished in 10800.002964811 (TO)
Experiment 3 finished in 10800.025631388 (TO)
Experiment 4 finished in 10800.612811208 (TO)
Experiment 5 finished in 9354.623873649 (exit code : 0)
Experiment 6 finished in 10800.005237898 (TO)
Experiment 7 finished in 10800.005731807 (TO)
Experiment 8 finished in 10800.003951571 (TO)
Experiment 9 finished in 10800.002866155 (TO)
Experiment 10 finished in 10800.004888024 (TO)
