Experiment 1 finished in 6.854558966 (exit code : 0)
Experiment 2 finished in 6.641776426 (exit code : 0)
Experiment 3 finished in 6.754029689 (exit code : 0)
Experiment 4 finished in 6.699703785 (exit code : 0)
Experiment 5 finished in 6.640959412 (exit code : 0)
Experiment 6 finished in 6.658146657 (exit code : 0)
Experiment 7 finished in 6.696077025 (exit code : 0)
Experiment 8 finished in 6.704009949 (exit code : 0)
Experiment 9 finished in 6.895894321 (exit code : 0)
Experiment 10 finished in 6.778714918 (exit code : 0)
