Experiment 1 finished in .007299462
Experiment 2 finished in .007273342
Experiment 3 finished in .007176890
Experiment 4 finished in .007057881
Experiment 5 finished in .007484471
Experiment 6 finished in .007401221
Experiment 7 finished in .007518623
Experiment 8 finished in .007543696
Experiment 9 finished in .007330331
Experiment 10 finished in .007373912
