../../tests/exhaustive/1.in
../../tests/exhaustive/2.in
../../tests/exhaustive/3.in
../../tests/exhaustive/4.in
../../tests/exhaustive/5.in
../../tests/exhaustive/6.in
../../tests/exhaustive/7.in
../../tests/exhaustive/8.in
../../tests/exhaustive/9.in
../../tests/exhaustive/10.in
../../tests/exhaustive/11.in
../../tests/exhaustive/12.in
../../tests/exhaustive/13.in
../../tests/exhaustive/14.in
../../tests/exhaustive/15.in
../../tests/exhaustive/16.in
../../tests/exhaustive/17.in
../../tests/exhaustive/18.in
../../tests/exhaustive/19.in
../../tests/exhaustive/20.in
../../tests/exhaustive/21.in
../../tests/exhaustive/25.in
../../tests/exhaustive/29.in
../../tests/exhaustive/33.in
../../tests/exhaustive/34.in
../../tests/exhaustive/35.in
../../tests/exhaustive/36.in
../../tests/exhaustive/37.in
../../tests/exhaustive/41.in
../../tests/exhaustive/45.in
../../tests/exhaustive/49.in
../../tests/exhaustive/50.in
../../tests/exhaustive/51.in
../../tests/exhaustive/52.in
../../tests/exhaustive/53.in
../../tests/exhaustive/57.in
../../tests/exhaustive/61.in
../../tests/exhaustive/65.in
../../tests/exhaustive/66.in
../../tests/exhaustive/67.in
../../tests/exhaustive/68.in
../../tests/exhaustive/69.in
../../tests/exhaustive/73.in
../../tests/exhaustive/77.in
../../tests/exhaustive/81.in
../../tests/exhaustive/86.in
../../tests/exhaustive/87.in
../../tests/exhaustive/88.in
../../tests/exhaustive/90.in
../../tests/exhaustive/91.in
../../tests/exhaustive/92.in
../../tests/exhaustive/94.in
../../tests/exhaustive/95.in
../../tests/exhaustive/96.in
../../tests/exhaustive/97.in
../../tests/exhaustive/102.in
../../tests/exhaustive/103.in
../../tests/exhaustive/104.in
../../tests/exhaustive/106.in
../../tests/exhaustive/110.in
../../tests/exhaustive/113.in
../../tests/exhaustive/118.in
../../tests/exhaustive/119.in
../../tests/exhaustive/120.in
../../tests/exhaustive/122.in
../../tests/exhaustive/126.in
../../tests/exhaustive/129.in
../../tests/exhaustive/130.in
../../tests/exhaustive/131.in
../../tests/exhaustive/132.in
../../tests/exhaustive/133.in
../../tests/exhaustive/137.in
../../tests/exhaustive/141.in
../../tests/exhaustive/145.in
../../tests/exhaustive/150.in
../../tests/exhaustive/151.in
../../tests/exhaustive/152.in
../../tests/exhaustive/154.in
../../tests/exhaustive/158.in
../../tests/exhaustive/161.in
../../tests/exhaustive/166.in
../../tests/exhaustive/177.in
../../tests/exhaustive/182.in
../../tests/exhaustive/193.in
../../tests/exhaustive/194.in
../../tests/exhaustive/195.in
../../tests/exhaustive/196.in
../../tests/exhaustive/197.in
../../tests/exhaustive/201.in
../../tests/exhaustive/205.in
../../tests/exhaustive/209.in
../../tests/exhaustive/214.in
../../tests/exhaustive/215.in
../../tests/exhaustive/216.in
../../tests/exhaustive/218.in
../../tests/exhaustive/222.in
../../tests/exhaustive/225.in
../../tests/exhaustive/230.in
../../tests/exhaustive/241.in
../../tests/exhaustive/246.in
../../tests/exhaustive/256.in
