Experiment 1 finished in .492907119
Experiment 2 finished in .492565047
Experiment 3 finished in .491880275
Experiment 4 finished in .492535387
Experiment 5 finished in .489421136
Experiment 6 finished in .492361837
Experiment 7 finished in .493551852
Experiment 8 finished in .505910015
Experiment 9 finished in .493104652
Experiment 10 finished in .488153273
