Experiment 1 finished in 10800.026631953 (TO)
Experiment 2 finished in 10800.047301467 (TO)
Experiment 3 finished in 10800.033051227 (TO)
Experiment 4 finished in 10800.008741732 (TO)
Experiment 5 finished in 10800.015325756 (TO)
Experiment 6 finished in 10800.010734273 (TO)
Experiment 7 finished in 10800.041224605 (TO)
Experiment 8 finished in 10800.012344923 (TO)
Experiment 9 finished in 10800.004737680 (TO)
Experiment 10 finished in 9323.348247801 (exit code : 0)
