Experiment 1 finished in 198.554274495
Experiment 2 finished in 202.554082259
Experiment 3 finished in 170.944634631
Experiment 4 finished in 189.136729059
Experiment 5 finished in 166.176310500
Experiment 6 finished in 190.328326925
Experiment 7 finished in 191.696172716
Experiment 8 finished in 194.660194037
Experiment 9 finished in 198.401357123
Experiment 10 finished in 181.765772611
