Experiment 1 finished in .479929320
Experiment 2 finished in .480273251
Experiment 3 finished in .474501043
Experiment 4 finished in .475481753
Experiment 5 finished in .496551342
Experiment 6 finished in .473578787
Experiment 7 finished in .477778851
Experiment 8 finished in .478608318
Experiment 9 finished in .481896302
Experiment 10 finished in .481594282
