Experiment 1 finished in 1602.399992876 (exit code : 0)
Experiment 2 finished in 1671.009581852 (exit code : 0)
Experiment 3 finished in 1926.911645181 (exit code : 0)
Experiment 4 finished in 1598.099308127 (exit code : 0)
Experiment 5 finished in 1584.516429502 (exit code : 0)
Experiment 6 finished in 1666.669561258 (exit code : 0)
Experiment 7 finished in 1634.952472898 (exit code : 0)
Experiment 8 finished in 1567.632588031 (exit code : 0)
Experiment 9 finished in 1710.223777573 (exit code : 0)
Experiment 10 finished in 1479.832000487 (exit code : 0)
