Experiment 1 finished in .480517459
Experiment 2 finished in .484109187
Experiment 3 finished in .482477485
Experiment 4 finished in .485457264
Experiment 5 finished in .487858686
Experiment 6 finished in .490334979
Experiment 7 finished in .482818032
Experiment 8 finished in .484121201
Experiment 9 finished in .482939556
Experiment 10 finished in .483370686
