Experiment 1 finished in 3.608798018
Experiment 2 finished in 2.212931128
Experiment 3 finished in 13.891518538
Experiment 4 finished in 1.594901349
Experiment 5 finished in 10.405920753
Experiment 6 finished in 3.671405631
Experiment 7 finished in 10.601971591
Experiment 8 finished in 9.730185731
Experiment 9 finished in 2.508895160
Experiment 10 finished in 19.121902025
