Experiment 1 finished in 153.188486643
Experiment 2 finished in 147.920874013
Experiment 3 finished in 142.918491028
Experiment 4 finished in 144.377511128
Experiment 5 finished in 141.949706468
Experiment 6 finished in 134.107980213
Experiment 7 finished in 156.072457523
Experiment 8 finished in 131.579666462
Experiment 9 finished in 144.876996847
Experiment 10 finished in 134.436026957
