Experiment 1 finished in 10802.386163790 (TO)
Experiment 2 finished in 5007.443395233 (exit code : 0)
Experiment 3 finished in 10804.304848788 (TO)
Experiment 4 finished in 10800.306756737 (TO)
Experiment 5 finished in 10800.267986127 (TO)
Experiment 6 finished in 10800.114521371 (TO)
Experiment 7 finished in 10800.068759701 (TO)
Experiment 8 finished in 10800.139181820 (TO)
Experiment 9 finished in 5019.693834942 (exit code : 0)
Experiment 10 finished in 10800.086760911 (TO)
