Experiment 1 finished in 2043.647058008 (exit code : 0)
Experiment 2 finished in 2058.715901888 (exit code : 0)
Experiment 3 finished in 2168.112366793 (exit code : 0)
Experiment 4 finished in 2171.284117139 (exit code : 0)
Experiment 5 finished in 2235.974576912 (exit code : 0)
Experiment 6 finished in 2122.180960194 (exit code : 0)
Experiment 7 finished in 2098.830406146 (exit code : 0)
Experiment 8 finished in 2001.923004354 (exit code : 0)
Experiment 9 finished in 2231.926154168 (exit code : 0)
Experiment 10 finished in 2207.830744822 (exit code : 0)
