Experiment 1 finished in 305.798170568
Experiment 2 finished in 399.702592883
Experiment 3 finished in 494.419674133
Experiment 4 finished in 360.866830653
Experiment 5 finished in 338.677103389
Experiment 6 finished in 460.544106614
Experiment 7 finished in 302.833362388
Experiment 8 finished in 337.142910896
Experiment 9 finished in 344.726443115
Experiment 10 finished in 415.215974100
