Experiment 1 finished in .007449411
Experiment 2 finished in .007331449
Experiment 3 finished in .007372725
Experiment 4 finished in .007368954
Experiment 5 finished in .007250363
Experiment 6 finished in .007349538
Experiment 7 finished in .007545862
Experiment 8 finished in .007512059
Experiment 9 finished in .007286541
Experiment 10 finished in .007780669
