Experiment 1 finished in 148.218408654
Experiment 2 finished in 158.513208214
Experiment 3 finished in 158.318739550
Experiment 4 finished in 160.994179304
Experiment 5 finished in 167.957626056
Experiment 6 finished in 168.793098697
Experiment 7 finished in 184.052275494
Experiment 8 finished in 168.903182776
Experiment 9 finished in 146.963993345
Experiment 10 finished in 149.273260731
