Experiment 1 finished in .007946331
Experiment 2 finished in .007860707
Experiment 3 finished in .007919093
Experiment 4 finished in .007715926
Experiment 5 finished in .007857983
Experiment 6 finished in .007826205
Experiment 7 finished in .008709417
Experiment 8 finished in .007870484
Experiment 9 finished in .007956459
Experiment 10 finished in .007951221
