../../tests/exhaustive/22.in
../../tests/exhaustive/23.in
../../tests/exhaustive/24.in
../../tests/exhaustive/26.in
../../tests/exhaustive/27.in
../../tests/exhaustive/28.in
../../tests/exhaustive/30.in
../../tests/exhaustive/31.in
../../tests/exhaustive/32.in
../../tests/exhaustive/38.in
../../tests/exhaustive/39.in
../../tests/exhaustive/40.in
../../tests/exhaustive/42.in
../../tests/exhaustive/43.in
../../tests/exhaustive/44.in
../../tests/exhaustive/46.in
../../tests/exhaustive/47.in
../../tests/exhaustive/48.in
../../tests/exhaustive/54.in
../../tests/exhaustive/55.in
../../tests/exhaustive/56.in
../../tests/exhaustive/58.in
../../tests/exhaustive/59.in
../../tests/exhaustive/60.in
../../tests/exhaustive/62.in
../../tests/exhaustive/63.in
../../tests/exhaustive/64.in
../../tests/exhaustive/82.in
../../tests/exhaustive/83.in
../../tests/exhaustive/84.in
../../tests/exhaustive/85.in
../../tests/exhaustive/89.in
../../tests/exhaustive/93.in
../../tests/exhaustive/98.in
../../tests/exhaustive/99.in
../../tests/exhaustive/100.in
../../tests/exhaustive/101.in
../../tests/exhaustive/105.in
../../tests/exhaustive/107.in
../../tests/exhaustive/108.in
../../tests/exhaustive/109.in
../../tests/exhaustive/111.in
../../tests/exhaustive/112.in
../../tests/exhaustive/114.in
../../tests/exhaustive/115.in
../../tests/exhaustive/116.in
../../tests/exhaustive/117.in
../../tests/exhaustive/121.in
../../tests/exhaustive/123.in
../../tests/exhaustive/124.in
../../tests/exhaustive/125.in
../../tests/exhaustive/127.in
../../tests/exhaustive/128.in
../../tests/exhaustive/146.in
../../tests/exhaustive/147.in
../../tests/exhaustive/148.in
../../tests/exhaustive/149.in
../../tests/exhaustive/153.in
../../tests/exhaustive/157.in
../../tests/exhaustive/162.in
../../tests/exhaustive/163.in
../../tests/exhaustive/164.in
../../tests/exhaustive/165.in
../../tests/exhaustive/167.in
../../tests/exhaustive/168.in
../../tests/exhaustive/169.in
../../tests/exhaustive/170.in
../../tests/exhaustive/173.in
../../tests/exhaustive/174.in
../../tests/exhaustive/178.in
../../tests/exhaustive/179.in
../../tests/exhaustive/180.in
../../tests/exhaustive/181.in
../../tests/exhaustive/183.in
../../tests/exhaustive/184.in
../../tests/exhaustive/185.in
../../tests/exhaustive/186.in
../../tests/exhaustive/189.in
../../tests/exhaustive/190.in
../../tests/exhaustive/192.in
../../tests/exhaustive/210.in
../../tests/exhaustive/211.in
../../tests/exhaustive/212.in
../../tests/exhaustive/213.in
../../tests/exhaustive/217.in
../../tests/exhaustive/221.in
../../tests/exhaustive/226.in
../../tests/exhaustive/227.in
../../tests/exhaustive/228.in
../../tests/exhaustive/229.in
../../tests/exhaustive/231.in
../../tests/exhaustive/232.in
../../tests/exhaustive/233.in
../../tests/exhaustive/234.in
../../tests/exhaustive/237.in
../../tests/exhaustive/238.in
../../tests/exhaustive/242.in
../../tests/exhaustive/243.in
../../tests/exhaustive/244.in
../../tests/exhaustive/245.in
../../tests/exhaustive/247.in
../../tests/exhaustive/248.in
../../tests/exhaustive/249.in
../../tests/exhaustive/250.in
../../tests/exhaustive/252.in
../../tests/exhaustive/253.in
../../tests/exhaustive/254.in
../../tests/exhaustive/255.in
