Experiment 1 finished in 260.575179015
Experiment 2 finished in 234.223475855
Experiment 3 finished in 258.456327969
Experiment 4 finished in 256.879185501
Experiment 5 finished in 230.923121207
Experiment 6 finished in 236.788193811
Experiment 7 finished in 244.406305413
Experiment 8 finished in 251.824642296
Experiment 9 finished in 239.427300754
Experiment 10 finished in 231.701501115
