Experiment 1 finished in 10800.015357167 (TO)
Experiment 2 finished in 4718.533668963 (exit code : 0)
Experiment 3 finished in 10800.341437460 (TO)
Experiment 4 finished in 2151.273502111 (exit code : 0)
Experiment 5 finished in 5309.071303925 (exit code : 0)
Experiment 6 finished in 10800.003644954 (TO)
Experiment 7 finished in 9935.243734468 (exit code : 0)
Experiment 8 finished in 6061.894888624 (exit code : 0)
Experiment 9 finished in 6640.664194871 (exit code : 0)
Experiment 10 finished in 10800.568460922 (TO)
