Experiment 1 finished in .486806880
Experiment 2 finished in .481229231
Experiment 3 finished in .476018960
Experiment 4 finished in .480747636
Experiment 5 finished in .483447027
Experiment 6 finished in .484969180
Experiment 7 finished in .481132825
Experiment 8 finished in .482444093
Experiment 9 finished in .478029302
Experiment 10 finished in .479412950
