Experiment 1 finished in 2036.448892651 (exit code : 0)
Experiment 2 finished in 2122.835521186 (exit code : 0)
Experiment 3 finished in 2175.522948933 (exit code : 0)
Experiment 4 finished in 2229.373399923 (exit code : 0)
Experiment 5 finished in 2134.669507566 (exit code : 0)
Experiment 6 finished in 1955.230493542 (exit code : 0)
Experiment 7 finished in 2249.884320107 (exit code : 0)
Experiment 8 finished in 2135.250134959 (exit code : 0)
Experiment 9 finished in 2239.414345917 (exit code : 0)
Experiment 10 finished in 2204.149058089 (exit code : 0)
