Experiment 1 finished in 1644.166943562
Experiment 2 finished in 1149.313553469
Experiment 3 finished in 1642.529263900
Experiment 4 finished in 1276.376346561
Experiment 5 finished in 1363.395704816
Experiment 6 finished in 1717.591507890
Experiment 7 finished in 1551.971043387
Experiment 8 finished in 1481.433408999
Experiment 9 finished in 1901.379722389
Experiment 10 finished in 1034.075654560
