../../tests/exhaustive/5.in
../../tests/exhaustive/15.in
../../tests/exhaustive/25.in
../../tests/exhaustive/35.in
../../tests/exhaustive/45.in
../../tests/exhaustive/55.in
../../tests/exhaustive/75.in
../../tests/exhaustive/85.in
../../tests/exhaustive/95.in
../../tests/exhaustive/105.in
../../tests/exhaustive/115.in
../../tests/exhaustive/125.in
