Experiment 1 finished in 10801.695959942 (TO)
Experiment 2 finished in 10800.221226977 (TO)
Experiment 3 finished in 10800.036380745 (TO)
Experiment 4 finished in 10800.006569690 (TO)
Experiment 5 finished in 10800.136098267 (TO)
Experiment 6 finished in 10800.046180754 (TO)
Experiment 7 finished in 10800.045990841 (TO)
Experiment 8 finished in 10800.049271404 (TO)
Experiment 9 finished in 10800.061715488 (TO)
Experiment 10 finished in 10800.173314039 (TO)
