Experiment 1 finished in 144.930801096
Experiment 2 finished in 160.195341090
Experiment 3 finished in 161.820998172
Experiment 4 finished in 162.685811252
Experiment 5 finished in 152.850883647
Experiment 6 finished in 151.505830710
Experiment 7 finished in 139.689392084
Experiment 8 finished in 165.375152699
Experiment 9 finished in 166.308405401
Experiment 10 finished in 151.373182794
