Experiment 1 finished in .007994522
Experiment 2 finished in .007765024
Experiment 3 finished in .007851697
Experiment 4 finished in .007818313
Experiment 5 finished in .007825996
Experiment 6 finished in .007860846
Experiment 7 finished in .008042433
Experiment 8 finished in .007841430
Experiment 9 finished in .007817545
Experiment 10 finished in .007926567
