Experiment 1 finished in 144.573997088
Experiment 2 finished in 137.552328830
Experiment 3 finished in 138.094244599
Experiment 4 finished in 150.042024133
Experiment 5 finished in 145.747712684
Experiment 6 finished in 129.907733732
Experiment 7 finished in 140.635859774
Experiment 8 finished in 140.194482277
Experiment 9 finished in 145.853124692
Experiment 10 finished in 143.382281927
