Experiment 1 finished in .007902681
Experiment 2 finished in .007841081
Experiment 3 finished in .007852465
Experiment 4 finished in .007782903
Experiment 5 finished in .007847157
Experiment 6 finished in .007959532
Experiment 7 finished in .007953665
Experiment 8 finished in .007811538
Experiment 9 finished in .007837938
Experiment 10 finished in .007874325
