Experiment 1 finished in 10800.030783931 (TO)
Experiment 2 finished in 10800.008750417 (TO)
Experiment 3 finished in 10800.011873476 (TO)
Experiment 4 finished in 10800.044410991 (TO)
Experiment 5 finished in 10800.014776265 (TO)
Experiment 6 finished in 10800.006026307 (TO)
Experiment 7 finished in 10800.038185567 (TO)
Experiment 8 finished in 10800.007471773 (TO)
Experiment 9 finished in 10800.005546588 (TO)
Experiment 10 finished in 10800.009802066 (TO)
