Experiment 1 finished in 185.127514265
Experiment 2 finished in 171.967202886
Experiment 3 finished in 171.167201713
Experiment 4 finished in 184.916238235
Experiment 5 finished in 162.058713266
Experiment 6 finished in 189.315805248
Experiment 7 finished in 172.665614815
Experiment 8 finished in 181.821806046
Experiment 9 finished in 183.030006474
Experiment 10 finished in 185.385946570
