Experiment 1 finished in .523757018
Experiment 2 finished in .494601011
Experiment 3 finished in .491990645
Experiment 4 finished in .492462982
Experiment 5 finished in .488273052
Experiment 6 finished in .489454985
Experiment 7 finished in .490846867
Experiment 8 finished in .497027242
Experiment 9 finished in .489405082
Experiment 10 finished in .504593061
