Experiment 1 finished in 209.044769276
Experiment 2 finished in 253.072606889
Experiment 3 finished in 225.424594920
Experiment 4 finished in 249.239523090
Experiment 5 finished in 252.188255392
Experiment 6 finished in 203.417300118
Experiment 7 finished in 238.338233950
Experiment 8 finished in 203.621083149
Experiment 9 finished in 252.301364455
Experiment 10 finished in 260.307347196
