Experiment 1 finished in 13.844025208
Experiment 2 finished in 25.147731217
Experiment 3 finished in 47.541830076
Experiment 4 finished in 34.922278805
Experiment 5 finished in 11.586459284
Experiment 6 finished in 10.908643970
Experiment 7 finished in 8.462627266
Experiment 8 finished in 7.661750842
Experiment 9 finished in 65.591500289
Experiment 10 finished in 49.357235793
