Experiment 1 finished in 1833.749978821 (exit code : 0)
Experiment 2 finished in 1765.416394283 (exit code : 0)
Experiment 3 finished in 1712.022680808 (exit code : 0)
Experiment 4 finished in 1886.287716761 (exit code : 0)
Experiment 5 finished in 2137.801792318 (exit code : 0)
Experiment 6 finished in 1700.473748272 (exit code : 0)
Experiment 7 finished in 1808.438763237 (exit code : 0)
Experiment 8 finished in 1676.579485940 (exit code : 0)
Experiment 9 finished in 1904.742078234 (exit code : 0)
Experiment 10 finished in 1294.876765536 (exit code : 0)
