Experiment 1 finished in 167.472210611
Experiment 2 finished in 154.795264751
Experiment 3 finished in 144.424600506
Experiment 4 finished in 163.510415610
Experiment 5 finished in 167.256555814
Experiment 6 finished in 169.611284093
Experiment 7 finished in 165.345300898
Experiment 8 finished in 191.017728796
Experiment 9 finished in 152.172488070
Experiment 10 finished in 167.161724132
