Experiment 1 finished in 13.837194678
Experiment 2 finished in 20.452838460
Experiment 3 finished in 17.047250894
Experiment 4 finished in 57.997370001
Experiment 5 finished in 30.754581575
Experiment 6 finished in 5.427817091
Experiment 7 finished in 54.451341330
Experiment 8 finished in 5.399130648
Experiment 9 finished in 291.759292152
Experiment 10 finished in 147.122258699
