Experiment 1 finished in .007696929
Experiment 2 finished in .007251341
Experiment 3 finished in .007487963
Experiment 4 finished in .007284166
Experiment 5 finished in .007293037
Experiment 6 finished in .007232135
Experiment 7 finished in .007438446
Experiment 8 finished in .007454439
Experiment 9 finished in .007584414
Experiment 10 finished in .007312452
