Experiment 1 finished in .612414540
Experiment 2 finished in .612750686
Experiment 3 finished in .609839561
Experiment 4 finished in .627740022
Experiment 5 finished in .609557822
Experiment 6 finished in .619721894
Experiment 7 finished in .612773314
Experiment 8 finished in .616758597
Experiment 9 finished in .613436876
Experiment 10 finished in .613235454
