Experiment 1 finished in 919.741675624
Experiment 2 finished in 11143.311171979
Experiment 3 finished in 1261.250275574
Experiment 4 finished in 14784.091832519
Experiment 5 finished in 1148.900532353
Experiment 6 finished in 1178.731460504
Experiment 7 finished in 4391.693059195
Experiment 8 finished in 1428.163139427
Experiment 9 finished in 1207.932578119
Experiment 10 finished in 1312.884959986
