Experiment 1 finished in .007860706
Experiment 2 finished in .007910224
Experiment 3 finished in .007881799
Experiment 4 finished in .007877957
Experiment 5 finished in .007846249
Experiment 6 finished in .007827741
Experiment 7 finished in .007897862
Experiment 8 finished in .007837450
Experiment 9 finished in .007756364
Experiment 10 finished in .007769982
