Experiment 1 finished in 8933.671908755 (exit code : 0)
Experiment 2 finished in 3598.268833246 (exit code : 0)
Experiment 3 finished in 3333.892995863 (exit code : 0)
Experiment 4 finished in 2543.311865840 (exit code : 0)
Experiment 5 finished in 5246.356729826 (exit code : 0)
Experiment 6 finished in 2900.984249579 (exit code : 0)
Experiment 7 finished in 3737.122250727 (exit code : 0)
Experiment 8 finished in 2361.723765323 (exit code : 0)
Experiment 9 finished in 10800.040399382 (TO)
Experiment 10 finished in 3348.474932810 (exit code : 0)
