Experiment 1 finished in 10800.119388224 (TO)
Experiment 2 finished in 10800.058481562 (TO)
Experiment 3 finished in 10800.026561601 (TO)
Experiment 4 finished in 10800.010236638 (TO)
Experiment 5 finished in 10800.029048735 (TO)
Experiment 6 finished in 10800.023439116 (TO)
Experiment 7 finished in 10800.003464395 (TO)
Experiment 8 finished in 10802.085461289 (TO)
Experiment 9 finished in 10800.226526153 (TO)
Experiment 10 finished in 10801.660124838 (TO)
