Experiment 1 finished in 612.998281328
Experiment 2 finished in 606.067016059
Experiment 3 finished in 587.770110989
Experiment 4 finished in 806.763689142
Experiment 5 finished in 730.449179157
Experiment 6 finished in 692.128943169
Experiment 7 finished in 543.548162798
Experiment 8 finished in 503.238471961
Experiment 9 finished in 571.229555061
Experiment 10 finished in 820.611065511
