Experiment 1 finished in 195.286618153
Experiment 2 finished in 214.045861664
Experiment 3 finished in 197.753359743
Experiment 4 finished in 198.025223331
Experiment 5 finished in 198.429365130
Experiment 6 finished in 195.396064191
Experiment 7 finished in 200.046183152
Experiment 8 finished in 181.079289822
Experiment 9 finished in 193.547826456
Experiment 10 finished in 195.277197475
