Experiment 1 finished in 213.314140618
Experiment 2 finished in 243.008865481
Experiment 3 finished in 207.135620130
Experiment 4 finished in 210.118991966
Experiment 5 finished in 232.228353545
Experiment 6 finished in 212.834996104
Experiment 7 finished in 230.928497770
Experiment 8 finished in 233.255622233
Experiment 9 finished in 220.420460473
Experiment 10 finished in 233.331315226
