Experiment 1 finished in .561796790
Experiment 2 finished in .563680410
Experiment 3 finished in .567485572
Experiment 4 finished in .562580829
Experiment 5 finished in .554557462
Experiment 6 finished in .576226139
Experiment 7 finished in .560875654
Experiment 8 finished in .571770964
Experiment 9 finished in .565109711
Experiment 10 finished in .564202193
