Experiment 1 finished in .007200287
Experiment 2 finished in .007315735
Experiment 3 finished in .007430903
Experiment 4 finished in .007566535
Experiment 5 finished in .007689176
Experiment 6 finished in .007552496
Experiment 7 finished in .007391233
Experiment 8 finished in .007365462
Experiment 9 finished in .007432439
Experiment 10 finished in .007521208
