Experiment 1 finished in .506988912
Experiment 2 finished in .522650191
Experiment 3 finished in .508245497
Experiment 4 finished in .504351077
Experiment 5 finished in .501987718
Experiment 6 finished in .503660696
Experiment 7 finished in .493100694
Experiment 8 finished in .516228914
Experiment 9 finished in .504325026
Experiment 10 finished in .508130887
