Experiment 1 finished in 1876.396479141 (exit code : 0)
Experiment 2 finished in 1949.838623993 (exit code : 0)
Experiment 3 finished in 1782.592690616 (exit code : 0)
Experiment 4 finished in 1837.442818410 (exit code : 0)
Experiment 5 finished in 1910.796635001 (exit code : 0)
Experiment 6 finished in 1972.555753994 (exit code : 0)
Experiment 7 finished in 1893.656098844 (exit code : 0)
Experiment 8 finished in 1921.667556893 (exit code : 0)
Experiment 9 finished in 1964.515783767 (exit code : 0)
Experiment 10 finished in 1954.194606529 (exit code : 0)
