Experiment 1 finished in 568.986678765
Experiment 2 finished in 492.142003866
Experiment 3 finished in 629.877566448
Experiment 4 finished in 788.250708665
Experiment 5 finished in 847.251140899
Experiment 6 finished in 890.733933691
Experiment 7 finished in 525.922659615
Experiment 8 finished in 526.209176485
Experiment 9 finished in 516.043131376
Experiment 10 finished in 846.374343846
