Experiment 1 finished in 125.649966932
Experiment 2 finished in 125.515847823
Experiment 3 finished in 143.505607120
Experiment 4 finished in 133.085937796
Experiment 5 finished in 143.900526522
Experiment 6 finished in 126.762927396
Experiment 7 finished in 130.156899934
Experiment 8 finished in 126.502579834
Experiment 9 finished in 134.809722520
Experiment 10 finished in 132.658205345
