../../tests/exhaustive/1.in
../../tests/exhaustive/2.in
../../tests/exhaustive/3.in
../../tests/exhaustive/4.in
../../tests/exhaustive/5.in
../../tests/exhaustive/6.in
../../tests/exhaustive/7.in
../../tests/exhaustive/8.in
../../tests/exhaustive/9.in
../../tests/exhaustive/20.in
../../tests/exhaustive/21.in
../../tests/exhaustive/22.in
../../tests/exhaustive/23.in
../../tests/exhaustive/24.in
../../tests/exhaustive/25.in
../../tests/exhaustive/26.in
../../tests/exhaustive/27.in
../../tests/exhaustive/28.in
../../tests/exhaustive/39.in
../../tests/exhaustive/40.in
../../tests/exhaustive/41.in
../../tests/exhaustive/42.in
../../tests/exhaustive/43.in
../../tests/exhaustive/44.in
../../tests/exhaustive/45.in
../../tests/exhaustive/46.in
../../tests/exhaustive/47.in
../../tests/exhaustive/48.in
../../tests/exhaustive/49.in
../../tests/exhaustive/58.in
../../tests/exhaustive/59.in
../../tests/exhaustive/60.in
../../tests/exhaustive/61.in
../../tests/exhaustive/62.in
../../tests/exhaustive/63.in
../../tests/exhaustive/64.in
../../tests/exhaustive/65.in
../../tests/exhaustive/66.in
../../tests/exhaustive/67.in
../../tests/exhaustive/68.in
../../tests/exhaustive/77.in
../../tests/exhaustive/78.in
../../tests/exhaustive/79.in
../../tests/exhaustive/80.in
../../tests/exhaustive/81.in
../../tests/exhaustive/82.in
../../tests/exhaustive/83.in
../../tests/exhaustive/84.in
../../tests/exhaustive/85.in
../../tests/exhaustive/86.in
../../tests/exhaustive/87.in
../../tests/exhaustive/96.in
../../tests/exhaustive/97.in
../../tests/exhaustive/98.in
../../tests/exhaustive/99.in
../../tests/exhaustive/100.in
../../tests/exhaustive/101.in
../../tests/exhaustive/102.in
../../tests/exhaustive/103.in
../../tests/exhaustive/104.in
../../tests/exhaustive/115.in
../../tests/exhaustive/116.in
../../tests/exhaustive/117.in
../../tests/exhaustive/118.in
../../tests/exhaustive/119.in
../../tests/exhaustive/120.in
../../tests/exhaustive/121.in
../../tests/exhaustive/122.in
../../tests/exhaustive/123.in
../../tests/exhaustive/124.in
../../tests/exhaustive/125.in
../../tests/exhaustive/134.in
../../tests/exhaustive/135.in
../../tests/exhaustive/136.in
../../tests/exhaustive/137.in
../../tests/exhaustive/138.in
../../tests/exhaustive/139.in
../../tests/exhaustive/140.in
../../tests/exhaustive/141.in
../../tests/exhaustive/142.in
../../tests/exhaustive/143.in
../../tests/exhaustive/144.in
../../tests/exhaustive/153.in
../../tests/exhaustive/154.in
../../tests/exhaustive/155.in
../../tests/exhaustive/156.in
../../tests/exhaustive/157.in
../../tests/exhaustive/158.in
../../tests/exhaustive/159.in
../../tests/exhaustive/160.in
../../tests/exhaustive/161.in
../../tests/exhaustive/162.in
../../tests/exhaustive/163.in
../../tests/exhaustive/172.in
../../tests/exhaustive/173.in
../../tests/exhaustive/174.in
../../tests/exhaustive/175.in
../../tests/exhaustive/176.in
../../tests/exhaustive/177.in
../../tests/exhaustive/178.in
../../tests/exhaustive/179.in
../../tests/exhaustive/180.in
../../tests/exhaustive/181.in
../../tests/exhaustive/182.in
../../tests/exhaustive/183.in
../../tests/exhaustive/184.in
../../tests/exhaustive/191.in
../../tests/exhaustive/192.in
../../tests/exhaustive/193.in
../../tests/exhaustive/194.in
../../tests/exhaustive/195.in
../../tests/exhaustive/196.in
../../tests/exhaustive/197.in
../../tests/exhaustive/198.in
../../tests/exhaustive/199.in
../../tests/exhaustive/200.in
../../tests/exhaustive/201.in
../../tests/exhaustive/202.in
../../tests/exhaustive/203.in
../../tests/exhaustive/210.in
../../tests/exhaustive/211.in
../../tests/exhaustive/212.in
../../tests/exhaustive/213.in
../../tests/exhaustive/214.in
../../tests/exhaustive/215.in
../../tests/exhaustive/216.in
../../tests/exhaustive/217.in
../../tests/exhaustive/218.in
../../tests/exhaustive/219.in
../../tests/exhaustive/220.in
../../tests/exhaustive/221.in
../../tests/exhaustive/222.in
../../tests/exhaustive/229.in
../../tests/exhaustive/230.in
../../tests/exhaustive/231.in
../../tests/exhaustive/232.in
../../tests/exhaustive/233.in
../../tests/exhaustive/234.in
../../tests/exhaustive/235.in
../../tests/exhaustive/236.in
../../tests/exhaustive/237.in
../../tests/exhaustive/238.in
../../tests/exhaustive/239.in
../../tests/exhaustive/240.in
../../tests/exhaustive/241.in
../../tests/exhaustive/248.in
../../tests/exhaustive/249.in
../../tests/exhaustive/250.in
../../tests/exhaustive/251.in
../../tests/exhaustive/252.in
../../tests/exhaustive/253.in
../../tests/exhaustive/254.in
../../tests/exhaustive/255.in
../../tests/exhaustive/256.in
../../tests/exhaustive/257.in
../../tests/exhaustive/258.in
../../tests/exhaustive/259.in
../../tests/exhaustive/260.in
../../tests/exhaustive/267.in
../../tests/exhaustive/268.in
../../tests/exhaustive/269.in
../../tests/exhaustive/270.in
../../tests/exhaustive/271.in
../../tests/exhaustive/272.in
../../tests/exhaustive/273.in
../../tests/exhaustive/274.in
../../tests/exhaustive/275.in
../../tests/exhaustive/276.in
../../tests/exhaustive/277.in
../../tests/exhaustive/278.in
../../tests/exhaustive/279.in
