Experiment 1 finished in 10800.032879213 (TO)
Experiment 2 finished in 10801.117558695 (TO)
Experiment 3 finished in 10800.026926800 (TO)
Experiment 4 finished in 10800.097306767 (TO)
Experiment 5 finished in 10800.035346350 (TO)
Experiment 6 finished in 10800.019964921 (TO)
Experiment 7 finished in 10800.011858442 (TO)
Experiment 8 finished in 10800.027616157 (TO)
Experiment 9 finished in 10800.572503810 (TO)
Experiment 10 finished in 10800.018707357 (TO)
