Experiment 1 finished in 10800.060535281 (TO)
Experiment 2 finished in 10800.064447481 (TO)
Experiment 3 finished in 10801.236631694 (TO)
Experiment 4 finished in 10800.174911742 (TO)
Experiment 5 finished in 10800.025786739 (TO)
Experiment 6 finished in 10800.045124756 (TO)
Experiment 7 finished in 10801.738457215 (TO)
Experiment 8 finished in 10801.216908951 (TO)
Experiment 9 finished in 10801.201863620 (TO)
Experiment 10 finished in 10800.062365050 (TO)
