Experiment 1 finished in .007343532
Experiment 2 finished in .007411766
Experiment 3 finished in .007204617
Experiment 4 finished in .007334243
Experiment 5 finished in .007419518
Experiment 6 finished in .007455906
Experiment 7 finished in .007680586
Experiment 8 finished in .007585043
Experiment 9 finished in .007442566
Experiment 10 finished in .007487056
