Experiment 1 finished in .007331659
Experiment 2 finished in .008348269
Experiment 3 finished in .007520440
Experiment 4 finished in .007421684
Experiment 5 finished in .007422243
Experiment 6 finished in .007603621
Experiment 7 finished in .006978332
Experiment 8 finished in .007231925
Experiment 9 finished in .007297715
Experiment 10 finished in .007274180
