Experiment 1 finished in 10800.003347887 (TO)
Experiment 2 finished in 10800.008765668 (TO)
Experiment 3 finished in 10800.004905595 (TO)
Experiment 4 finished in 10800.006503418 (TO)
Experiment 5 finished in 10800.026082642 (TO)
Experiment 6 finished in 10800.006189019 (TO)
Experiment 7 finished in 10800.006140408 (TO)
Experiment 8 finished in 10800.006631583 (TO)
Experiment 9 finished in 10800.004290769 (TO)
Experiment 10 finished in 10800.006424192 (TO)
