Experiment 1 finished in 10077.460791065 (exit code : 0)
Experiment 2 finished in 10800.007432740 (TO)
Experiment 3 finished in 10800.002804908 (TO)
Experiment 4 finished in 10800.005769454 (TO)
Experiment 5 finished in 10800.008400920 (TO)
Experiment 6 finished in 10800.002930101 (TO)
Experiment 7 finished in 10800.003910753 (TO)
Experiment 8 finished in 10800.006222083 (TO)
Experiment 9 finished in 7664.320756742 (exit code : 0)
Experiment 10 finished in 10578.615217635 (exit code : 0)
