Experiment 1 finished in .007444592
Experiment 2 finished in .007380477
Experiment 3 finished in .007402827
Experiment 4 finished in .007511989
Experiment 5 finished in .007498649
Experiment 6 finished in .007377125
Experiment 7 finished in .007494668
Experiment 8 finished in .007529240
Experiment 9 finished in .007446827
Experiment 10 finished in .007201893
