../../tests/blackbox/1.in
../../tests/blackbox/5.in
../../tests/blackbox/6.in
../../tests/blackbox/8.in
../../tests/whitebox/1.in
../../tests/whitebox/2.in
../../tests/whitebox/3.in
../../tests/whitebox/4.in
../../tests/whitebox/5.in
../../tests/whitebox/6.in
../../tests/whitebox/7.in
../../tests/whitebox/8.in
