Experiment 1 finished in 915.470517973 (exit code : 0)
Experiment 2 finished in 923.598000053 (exit code : 0)
Experiment 3 finished in 297.955905188 (exit code : 0)
Experiment 4 finished in 4437.647318673 (exit code : 0)
Experiment 5 finished in 324.660816052 (exit code : 0)
Experiment 6 finished in 30.136417802 (exit code : 0)
Experiment 7 finished in 921.607290946 (exit code : 0)
Experiment 8 finished in 350.911748294 (exit code : 0)
Experiment 9 finished in 959.999100532 (exit code : 0)
Experiment 10 finished in 620.352189001 (exit code : 0)
