Experiment 1 finished in 10800.047932051 (TO)
Experiment 2 finished in 10800.096665870 (TO)
Experiment 3 finished in 10800.039621613 (TO)
Experiment 4 finished in 10800.058456214 (TO)
Experiment 5 finished in 10800.039093761 (TO)
Experiment 6 finished in 10800.091292357 (TO)
Experiment 7 finished in 10800.044324799 (TO)
Experiment 8 finished in 10800.036685980 (TO)
Experiment 9 finished in 10800.043422075 (TO)
Experiment 10 finished in 10800.089621533 (TO)
