Experiment 1 finished in 6.829165758 (exit code : 0) [REPAIR FOUND]
Experiment 2 finished in 5.818647290 (exit code : 0) [REPAIR FOUND]
Experiment 3 finished in 7.122826055 (exit code : 0) [REPAIR FOUND]
Experiment 4 finished in 5.762563413 (exit code : 0) [REPAIR FOUND]
Experiment 5 finished in 5.806265667 (exit code : 0) [REPAIR FOUND]
Experiment 6 finished in 5.766725836 (exit code : 0) [REPAIR FOUND]
Experiment 7 finished in 5.859917308 (exit code : 0) [REPAIR FOUND]
Experiment 8 finished in 5.721506426 (exit code : 0) [REPAIR FOUND]
Experiment 9 finished in 572.458179292 (exit code : 0) [REPAIR FOUND]
Experiment 10 finished in 5.760458610 (exit code : 0) [REPAIR FOUND]
