Experiment 1 finished in 6.014376409
Experiment 2 finished in 629.353797730
Experiment 3 finished in 177.577384950
Experiment 4 finished in 46.814736079
Experiment 5 finished in 426.044758566
Experiment 6 finished in 371.994171475
Experiment 7 finished in 25.724820454
Experiment 8 finished in 3.024211459
Experiment 9 finished in 253.248458068
Experiment 10 finished in 93.772646860
