Experiment 1 finished in 10800.009232268 (TO)
Experiment 2 finished in 10800.003495911 (TO)
Experiment 3 finished in 10800.031422395 (TO)
Experiment 4 finished in 10800.006945817 (TO)
Experiment 5 finished in 10800.002844290 (TO)
Experiment 6 finished in 10800.003337436 (TO)
Experiment 7 finished in 10800.041133210 (TO)
Experiment 8 finished in 10800.006670610 (TO)
Experiment 9 finished in 10800.008949212 (TO)
Experiment 10 finished in 10800.004744072 (TO)
