Experiment 1 finished in 4.856220893
Experiment 2 finished in 56.984158951
Experiment 3 finished in 1.639210894
Experiment 4 finished in 37.594205032
Experiment 5 finished in 54.235808899
Experiment 6 finished in 105.297143166
Experiment 7 finished in 1.646823035
Experiment 8 finished in 73.882110010
Experiment 9 finished in 6.048798733
Experiment 10 finished in 4.226098026
