../../tests/exhaustive/10.in
../../tests/exhaustive/14.in
../../tests/exhaustive/15.in
../../tests/exhaustive/26.in
../../tests/exhaustive/30.in
../../tests/exhaustive/31.in
../../tests/exhaustive/38.in
../../tests/exhaustive/39.in
../../tests/exhaustive/40.in
../../tests/exhaustive/42.in
../../tests/exhaustive/46.in
../../tests/exhaustive/47.in
../../tests/exhaustive/54.in
../../tests/exhaustive/55.in
../../tests/exhaustive/56.in
../../tests/exhaustive/58.in
../../tests/exhaustive/59.in
../../tests/exhaustive/60.in
../../tests/exhaustive/62.in
../../tests/exhaustive/63.in
../../tests/exhaustive/74.in
../../tests/exhaustive/78.in
../../tests/exhaustive/79.in
../../tests/exhaustive/95.in
../../tests/exhaustive/111.in
../../tests/exhaustive/123.in
../../tests/exhaustive/124.in
../../tests/exhaustive/127.in
../../tests/exhaustive/130.in
../../tests/exhaustive/134.in
../../tests/exhaustive/138.in
../../tests/exhaustive/142.in
../../tests/exhaustive/143.in
../../tests/exhaustive/146.in
../../tests/exhaustive/159.in
../../tests/exhaustive/162.in
../../tests/exhaustive/178.in
../../tests/exhaustive/194.in
../../tests/exhaustive/195.in
../../tests/exhaustive/198.in
../../tests/exhaustive/199.in
../../tests/exhaustive/202.in
../../tests/exhaustive/203.in
../../tests/exhaustive/206.in
../../tests/exhaustive/207.in
../../tests/exhaustive/210.in
../../tests/exhaustive/211.in
../../tests/exhaustive/215.in
../../tests/exhaustive/219.in
../../tests/exhaustive/223.in
../../tests/exhaustive/226.in
../../tests/exhaustive/227.in
../../tests/exhaustive/231.in
../../tests/exhaustive/242.in
../../tests/exhaustive/243.in
../../tests/exhaustive/247.in
