../../tests/exhaustive/6.in
../../tests/exhaustive/7.in
../../tests/exhaustive/8.in
../../tests/exhaustive/9.in
../../tests/exhaustive/10.in
../../tests/exhaustive/11.in
../../tests/exhaustive/25.in
../../tests/exhaustive/26.in
../../tests/exhaustive/27.in
../../tests/exhaustive/28.in
../../tests/exhaustive/29.in
../../tests/exhaustive/30.in
../../tests/exhaustive/31.in
../../tests/exhaustive/32.in
../../tests/exhaustive/44.in
../../tests/exhaustive/45.in
../../tests/exhaustive/46.in
../../tests/exhaustive/47.in
../../tests/exhaustive/48.in
../../tests/exhaustive/49.in
../../tests/exhaustive/50.in
../../tests/exhaustive/51.in
../../tests/exhaustive/63.in
../../tests/exhaustive/64.in
../../tests/exhaustive/65.in
../../tests/exhaustive/66.in
../../tests/exhaustive/67.in
../../tests/exhaustive/68.in
../../tests/exhaustive/69.in
../../tests/exhaustive/70.in
../../tests/exhaustive/84.in
../../tests/exhaustive/85.in
../../tests/exhaustive/86.in
../../tests/exhaustive/87.in
../../tests/exhaustive/88.in
../../tests/exhaustive/89.in
../../tests/exhaustive/101.in
../../tests/exhaustive/102.in
../../tests/exhaustive/103.in
../../tests/exhaustive/104.in
../../tests/exhaustive/105.in
../../tests/exhaustive/106.in
../../tests/exhaustive/107.in
../../tests/exhaustive/108.in
../../tests/exhaustive/109.in
../../tests/exhaustive/110.in
../../tests/exhaustive/120.in
../../tests/exhaustive/121.in
../../tests/exhaustive/122.in
../../tests/exhaustive/123.in
../../tests/exhaustive/124.in
../../tests/exhaustive/125.in
../../tests/exhaustive/126.in
../../tests/exhaustive/127.in
../../tests/exhaustive/128.in
../../tests/exhaustive/129.in
../../tests/exhaustive/139.in
../../tests/exhaustive/140.in
../../tests/exhaustive/141.in
../../tests/exhaustive/142.in
../../tests/exhaustive/143.in
../../tests/exhaustive/144.in
../../tests/exhaustive/145.in
../../tests/exhaustive/146.in
../../tests/exhaustive/147.in
../../tests/exhaustive/148.in
../../tests/exhaustive/160.in
../../tests/exhaustive/161.in
../../tests/exhaustive/162.in
../../tests/exhaustive/163.in
../../tests/exhaustive/164.in
../../tests/exhaustive/165.in
../../tests/exhaustive/166.in
../../tests/exhaustive/167.in
../../tests/exhaustive/177.in
../../tests/exhaustive/178.in
../../tests/exhaustive/179.in
../../tests/exhaustive/180.in
../../tests/exhaustive/181.in
../../tests/exhaustive/182.in
../../tests/exhaustive/183.in
../../tests/exhaustive/184.in
../../tests/exhaustive/185.in
../../tests/exhaustive/186.in
../../tests/exhaustive/196.in
../../tests/exhaustive/197.in
../../tests/exhaustive/198.in
../../tests/exhaustive/199.in
../../tests/exhaustive/200.in
../../tests/exhaustive/201.in
../../tests/exhaustive/202.in
../../tests/exhaustive/203.in
../../tests/exhaustive/204.in
../../tests/exhaustive/205.in
../../tests/exhaustive/217.in
../../tests/exhaustive/218.in
../../tests/exhaustive/219.in
../../tests/exhaustive/220.in
../../tests/exhaustive/221.in
../../tests/exhaustive/222.in
../../tests/exhaustive/223.in
../../tests/exhaustive/224.in
../../tests/exhaustive/234.in
../../tests/exhaustive/235.in
../../tests/exhaustive/236.in
../../tests/exhaustive/237.in
../../tests/exhaustive/238.in
../../tests/exhaustive/239.in
../../tests/exhaustive/240.in
../../tests/exhaustive/241.in
../../tests/exhaustive/242.in
../../tests/exhaustive/243.in
../../tests/exhaustive/255.in
../../tests/exhaustive/256.in
../../tests/exhaustive/257.in
../../tests/exhaustive/258.in
../../tests/exhaustive/259.in
../../tests/exhaustive/260.in
../../tests/exhaustive/261.in
../../tests/exhaustive/262.in
../../tests/exhaustive/276.in
../../tests/exhaustive/277.in
../../tests/exhaustive/278.in
../../tests/exhaustive/279.in
../../tests/exhaustive/280.in
../../tests/exhaustive/281.in
