Experiment 1 finished in 27.643311277
Experiment 2 finished in 58.247919656
Experiment 3 finished in 413.474431850
Experiment 4 finished in 142.043900210
Experiment 5 finished in 16.982111483
Experiment 6 finished in 46.797976755
Experiment 7 finished in 115.805329857
Experiment 8 finished in 2.173352771
Experiment 9 finished in 5.104319132
Experiment 10 finished in 5.437242822
