Experiment 1 finished in 273.214739594
Experiment 2 finished in 267.951312114
Experiment 3 finished in 316.480326954
Experiment 4 finished in 271.769101307
Experiment 5 finished in 275.488460332
Experiment 6 finished in 266.840105799
Experiment 7 finished in 245.519790089
Experiment 8 finished in 375.342419218
Experiment 9 finished in 309.752423094
Experiment 10 finished in 313.690484180
