Experiment 1 finished in 155.006638290
Experiment 2 finished in 155.606673152
Experiment 3 finished in 165.662079091
Experiment 4 finished in 160.160441653
Experiment 5 finished in 156.671970400
Experiment 6 finished in 154.605276636
Experiment 7 finished in 169.896462683
Experiment 8 finished in 171.004690958
Experiment 9 finished in 149.741842255
Experiment 10 finished in 170.588530186
