Experiment 1 finished in 10800.027701734 (TO)
Experiment 2 finished in 10800.047919807 (TO)
Experiment 3 finished in 10801.705761552 (TO)
Experiment 4 finished in 10800.219804572 (TO)
Experiment 5 finished in 1013.087869618 (exit code : 0)
Experiment 6 finished in 10800.009632546 (TO)
Experiment 7 finished in 10800.023816434 (TO)
Experiment 8 finished in 10800.046824012 (TO)
Experiment 9 finished in 10800.107287204 (TO)
Experiment 10 finished in 10801.023357486 (TO)
