Experiment 1 finished in .007278369
Experiment 2 finished in .007758528
Experiment 3 finished in .007396402
Experiment 4 finished in .007263494
Experiment 5 finished in .007495716
Experiment 6 finished in .007465824
Experiment 7 finished in .007328865
Experiment 8 finished in .007489011
Experiment 9 finished in .007267545
Experiment 10 finished in .007349398
