Experiment 1 finished in 5831.020675408 (exit code : 0)
Experiment 2 finished in 5139.290237773 (exit code : 0)
Experiment 3 finished in 10800.005627214 (TO)
Experiment 4 finished in 10800.005506491 (TO)
Experiment 5 finished in 10800.004494151 (TO)
Experiment 6 finished in 10800.018703316 (TO)
Experiment 7 finished in 10092.438754751 (exit code : 0)
Experiment 8 finished in 10800.003866575 (TO)
Experiment 9 finished in 10800.007641453 (TO)
Experiment 10 finished in 10800.006847953 (TO)
