Experiment 1 finished in 4.768952463
Experiment 2 finished in 1.868504228
Experiment 3 finished in 55.233992606
Experiment 4 finished in 105.813712486
Experiment 5 finished in 30.901382153
Experiment 6 finished in 63.927257930
Experiment 7 finished in 5.239833711
Experiment 8 finished in 103.966103513
Experiment 9 finished in 171.609072708
Experiment 10 finished in 11.157441041
