Experiment 1 finished in 1636.190642448 (exit code : 0)
Experiment 2 finished in 1699.236863581 (exit code : 0)
Experiment 3 finished in 1607.730474537 (exit code : 0)
Experiment 4 finished in 1787.251652513 (exit code : 0)
Experiment 5 finished in 1618.481129097 (exit code : 0)
Experiment 6 finished in 1701.206515479 (exit code : 0)
Experiment 7 finished in 1566.558034660 (exit code : 0)
Experiment 8 finished in 1584.414619870 (exit code : 0)
Experiment 9 finished in 1785.646581348 (exit code : 0)
Experiment 10 finished in 1702.563537504 (exit code : 0)
