Experiment 1 finished in .007314967
Experiment 2 finished in .007301767
Experiment 3 finished in .007342205
Experiment 4 finished in .007603830
Experiment 5 finished in .007782205
Experiment 6 finished in .007492364
Experiment 7 finished in .007324745
Experiment 8 finished in .007218376
Experiment 9 finished in .007261468
Experiment 10 finished in .007321741
