Experiment 1 finished in 1493.787027041 (exit code : 0)
Experiment 2 finished in 1442.014320097 (exit code : 0)
Experiment 3 finished in 1570.418170999 (exit code : 0)
Experiment 4 finished in 1528.405239491 (exit code : 0)
Experiment 5 finished in 1552.123137025 (exit code : 0)
Experiment 6 finished in 1400.679630206 (exit code : 0)
Experiment 7 finished in 1527.955777277 (exit code : 0)
Experiment 8 finished in 1319.729212485 (exit code : 0)
Experiment 9 finished in 1516.104016800 (exit code : 0)
Experiment 10 finished in 1540.489123017 (exit code : 0)
