Experiment 1 finished in 1025.634759578 (exit code : 0)
Experiment 2 finished in 8610.969849965 (exit code : 0)
Experiment 3 finished in 1080.156291860 (exit code : 0)
Experiment 4 finished in 10800.007087849 (TO)
Experiment 5 finished in 10800.006906431 (TO)
Experiment 6 finished in 10800.006866198 (TO)
Experiment 7 finished in 10800.008172514 (TO)
Experiment 8 finished in 10800.008404281 (TO)
Experiment 9 finished in 1631.986979110 (exit code : 0)
Experiment 10 finished in 10800.003499711 (TO)
