Experiment 1 finished in 1714.157490446 (exit code : 0)
Experiment 2 finished in 1971.550851421 (exit code : 0)
Experiment 3 finished in 1626.108512524 (exit code : 0)
Experiment 4 finished in 1764.662828450 (exit code : 0)
Experiment 5 finished in 1638.618203911 (exit code : 0)
Experiment 6 finished in 1612.638905035 (exit code : 0)
Experiment 7 finished in 1895.011293186 (exit code : 0)
Experiment 8 finished in 1813.263888637 (exit code : 0)
Experiment 9 finished in 1722.489858258 (exit code : 0)
Experiment 10 finished in 2079.451302398 (exit code : 0)
