../../tests/exhaustive/1.in
../../tests/exhaustive/2.in
../../tests/exhaustive/3.in
../../tests/exhaustive/4.in
../../tests/exhaustive/5.in
../../tests/exhaustive/6.in
../../tests/exhaustive/8.in
../../tests/exhaustive/10.in
../../tests/exhaustive/12.in
../../tests/exhaustive/20.in
../../tests/exhaustive/21.in
../../tests/exhaustive/22.in
../../tests/exhaustive/23.in
../../tests/exhaustive/24.in
../../tests/exhaustive/25.in
../../tests/exhaustive/27.in
../../tests/exhaustive/29.in
../../tests/exhaustive/33.in
../../tests/exhaustive/39.in
../../tests/exhaustive/40.in
../../tests/exhaustive/41.in
../../tests/exhaustive/42.in
../../tests/exhaustive/43.in
../../tests/exhaustive/44.in
../../tests/exhaustive/46.in
../../tests/exhaustive/50.in
../../tests/exhaustive/52.in
../../tests/exhaustive/58.in
../../tests/exhaustive/59.in
../../tests/exhaustive/60.in
../../tests/exhaustive/61.in
../../tests/exhaustive/62.in
../../tests/exhaustive/63.in
../../tests/exhaustive/67.in
../../tests/exhaustive/69.in
../../tests/exhaustive/71.in
../../tests/exhaustive/77.in
../../tests/exhaustive/78.in
../../tests/exhaustive/79.in
../../tests/exhaustive/80.in
../../tests/exhaustive/81.in
../../tests/exhaustive/82.in
../../tests/exhaustive/83.in
../../tests/exhaustive/84.in
../../tests/exhaustive/86.in
../../tests/exhaustive/88.in
../../tests/exhaustive/90.in
../../tests/exhaustive/96.in
../../tests/exhaustive/97.in
../../tests/exhaustive/98.in
../../tests/exhaustive/99.in
../../tests/exhaustive/100.in
../../tests/exhaustive/101.in
../../tests/exhaustive/103.in
../../tests/exhaustive/105.in
../../tests/exhaustive/111.in
../../tests/exhaustive/115.in
../../tests/exhaustive/116.in
../../tests/exhaustive/117.in
../../tests/exhaustive/118.in
../../tests/exhaustive/119.in
../../tests/exhaustive/120.in
../../tests/exhaustive/122.in
../../tests/exhaustive/126.in
../../tests/exhaustive/130.in
../../tests/exhaustive/134.in
../../tests/exhaustive/135.in
../../tests/exhaustive/136.in
../../tests/exhaustive/137.in
../../tests/exhaustive/138.in
../../tests/exhaustive/139.in
../../tests/exhaustive/143.in
../../tests/exhaustive/145.in
../../tests/exhaustive/149.in
../../tests/exhaustive/153.in
../../tests/exhaustive/154.in
../../tests/exhaustive/155.in
../../tests/exhaustive/156.in
../../tests/exhaustive/157.in
../../tests/exhaustive/158.in
../../tests/exhaustive/159.in
../../tests/exhaustive/160.in
../../tests/exhaustive/162.in
../../tests/exhaustive/164.in
../../tests/exhaustive/168.in
../../tests/exhaustive/172.in
../../tests/exhaustive/173.in
../../tests/exhaustive/174.in
../../tests/exhaustive/175.in
../../tests/exhaustive/176.in
../../tests/exhaustive/177.in
../../tests/exhaustive/179.in
../../tests/exhaustive/185.in
../../tests/exhaustive/187.in
../../tests/exhaustive/191.in
../../tests/exhaustive/192.in
../../tests/exhaustive/193.in
../../tests/exhaustive/194.in
../../tests/exhaustive/195.in
../../tests/exhaustive/196.in
../../tests/exhaustive/200.in
../../tests/exhaustive/204.in
../../tests/exhaustive/206.in
../../tests/exhaustive/210.in
../../tests/exhaustive/211.in
../../tests/exhaustive/212.in
../../tests/exhaustive/213.in
../../tests/exhaustive/214.in
../../tests/exhaustive/215.in
../../tests/exhaustive/216.in
../../tests/exhaustive/217.in
../../tests/exhaustive/219.in
../../tests/exhaustive/223.in
../../tests/exhaustive/225.in
../../tests/exhaustive/229.in
../../tests/exhaustive/230.in
../../tests/exhaustive/231.in
../../tests/exhaustive/232.in
../../tests/exhaustive/233.in
../../tests/exhaustive/234.in
../../tests/exhaustive/240.in
../../tests/exhaustive/242.in
../../tests/exhaustive/244.in
../../tests/exhaustive/248.in
../../tests/exhaustive/249.in
../../tests/exhaustive/250.in
../../tests/exhaustive/251.in
../../tests/exhaustive/252.in
../../tests/exhaustive/253.in
../../tests/exhaustive/254.in
../../tests/exhaustive/255.in
../../tests/exhaustive/259.in
../../tests/exhaustive/261.in
../../tests/exhaustive/263.in
../../tests/exhaustive/267.in
../../tests/exhaustive/268.in
../../tests/exhaustive/269.in
../../tests/exhaustive/270.in
../../tests/exhaustive/271.in
../../tests/exhaustive/272.in
../../tests/exhaustive/273.in
../../tests/exhaustive/274.in
../../tests/exhaustive/275.in
../../tests/exhaustive/276.in
../../tests/exhaustive/278.in
../../tests/exhaustive/280.in
../../tests/exhaustive/282.in
