Experiment 1 finished in 10800.063792555 (TO)
Experiment 2 finished in 10800.120396647 (TO)
Experiment 3 finished in 10800.058889056 (TO)
Experiment 4 finished in 2346.796706231 (exit code : 0)
Experiment 5 finished in 3037.279567180 (exit code : 0)
Experiment 6 finished in 7700.146654182 (exit code : 0)
Experiment 7 finished in 10800.095733162 (TO)
Experiment 8 finished in 10800.026225792 (TO)
Experiment 9 finished in 7589.302615678 (exit code : 0)
Experiment 10 finished in 10800.072105907 (TO)
