Experiment 1 finished in .549920559
Experiment 2 finished in .549785905
Experiment 3 finished in .554985379
Experiment 4 finished in .553302064
Experiment 5 finished in .556226249
Experiment 6 finished in .561495425
Experiment 7 finished in .554924617
Experiment 8 finished in .562601711
Experiment 9 finished in .546162749
Experiment 10 finished in .553821125
