Experiment 1 finished in 201.986210382
Experiment 2 finished in 217.663187570
Experiment 3 finished in 213.090229161
Experiment 4 finished in 219.240536489
Experiment 5 finished in 241.381359690
Experiment 6 finished in 307.739626690
Experiment 7 finished in 186.168287519
Experiment 8 finished in 281.110750333
Experiment 9 finished in 302.225306324
Experiment 10 finished in 381.940462620
