Experiment 1 finished in 1859.444975230 (exit code : 0)
Experiment 2 finished in 1989.919070245 (exit code : 0)
Experiment 3 finished in 2038.772063144 (exit code : 0)
Experiment 4 finished in 1706.593250801 (exit code : 0)
Experiment 5 finished in 1946.600289989 (exit code : 0)
Experiment 6 finished in 1948.070646879 (exit code : 0)
Experiment 7 finished in 1846.966615555 (exit code : 0)
Experiment 8 finished in 1663.263662939 (exit code : 0)
Experiment 9 finished in 2127.678877724 (exit code : 0)
Experiment 10 finished in 2030.589596393 (exit code : 0)
