Experiment 1 finished in .628237432
Experiment 2 finished in .628966365
Experiment 3 finished in .625345584
Experiment 4 finished in .627943051
Experiment 5 finished in .627824460
Experiment 6 finished in .626105457
Experiment 7 finished in .638055579
Experiment 8 finished in .648306953
Experiment 9 finished in .624457132
Experiment 10 finished in .628861464
