../../tests/exhaustive/52.in
../../tests/exhaustive/77.in
../../tests/exhaustive/78.in
../../tests/exhaustive/83.in
../../tests/exhaustive/102.in
../../tests/exhaustive/103.in
../../tests/exhaustive/104.in
../../tests/exhaustive/108.in
../../tests/exhaustive/109.in
../../tests/exhaustive/114.in
