Experiment 1 finished in 588.683025349
Experiment 2 finished in 181.314083730
Experiment 3 finished in 90.117551892
Experiment 4 finished in 352.743428066
Experiment 5 finished in 22.815480796
Experiment 6 finished in 26.994117130
Experiment 7 finished in 87.515455843
Experiment 8 finished in 437.478618975
Experiment 9 finished in 699.543688500
Experiment 10 finished in 1036.345614996
