Experiment 1 finished in 10800.001648966 (TO)
Experiment 2 finished in 10800.003573937 (TO)
Experiment 3 finished in 10800.004774744 (TO)
Experiment 4 finished in 9397.273616286 (exit code : 0)
Experiment 5 finished in 10800.003595593 (TO)
Experiment 6 finished in 10800.002657149 (TO)
Experiment 7 finished in 10800.001355731 (TO)
Experiment 8 finished in 10800.002461548 (TO)
Experiment 9 finished in 10800.003039624 (TO)
Experiment 10 finished in 10800.005444199 (TO)
