Experiment 1 finished in 185.094758175
Experiment 2 finished in 175.405803408
Experiment 3 finished in 152.464434786
Experiment 4 finished in 177.025439133
Experiment 5 finished in 179.236422940
Experiment 6 finished in 174.231383607
Experiment 7 finished in 163.545291330
Experiment 8 finished in 178.570688855
Experiment 9 finished in 166.807439757
Experiment 10 finished in 162.053357726
