Experiment 1 finished in 24.115884779
Experiment 2 finished in 1507.264916967
Experiment 3 finished in .958498633
Experiment 4 finished in 155.822043366
Experiment 5 finished in 42.241838645
Experiment 6 finished in 69.257789977
Experiment 7 finished in 74.791528590
Experiment 8 finished in 46.076794962
Experiment 9 finished in 3.572925789
Experiment 10 finished in 1.851354840
