Experiment 1 finished in 10800.069844420 (TO)
Experiment 2 finished in 10800.127974107 (TO)
Experiment 3 finished in 10800.013254917 (TO)
Experiment 4 finished in 10800.032172834 (TO)
Experiment 5 finished in 10800.006696391 (TO)
Experiment 6 finished in 10800.027924697 (TO)
Experiment 7 finished in 10800.013287169 (TO)
Experiment 8 finished in 10803.240310210 (TO)
Experiment 9 finished in 10800.023012530 (TO)
Experiment 10 finished in 10800.005980551 (TO)
