Experiment 1 finished in 1766.093738777 (exit code : 0)
Experiment 2 finished in 1525.635288549 (exit code : 0)
Experiment 3 finished in 1741.799461713 (exit code : 0)
Experiment 4 finished in 1776.240071775 (exit code : 0)
Experiment 5 finished in 1706.445912457 (exit code : 0)
Experiment 6 finished in 1641.301134114 (exit code : 0)
Experiment 7 finished in 1675.894372354 (exit code : 0)
Experiment 8 finished in 1545.270207616 (exit code : 0)
Experiment 9 finished in 1605.325920442 (exit code : 0)
Experiment 10 finished in 1979.323605201 (exit code : 0)
