Experiment 1 finished in 10800.063704559 (TO)
Experiment 2 finished in 10800.048062111 (TO)
Experiment 3 finished in 10800.012172679 (TO)
Experiment 4 finished in 10800.044791137 (TO)
Experiment 5 finished in 10800.032881136 (TO)
Experiment 6 finished in 10800.013678858 (TO)
Experiment 7 finished in 10800.033984607 (TO)
Experiment 8 finished in 10800.019141135 (TO)
Experiment 9 finished in 10802.043482165 (TO)
Experiment 10 finished in 10800.029774264 (TO)
