Experiment 1 finished in 13.183675802 (exit code : 0)
Experiment 2 finished in 12.565514246 (exit code : 0)
Experiment 3 finished in 12.089815454 (exit code : 0)
Experiment 4 finished in 12.324922669 (exit code : 0)
Experiment 5 finished in 12.175221875 (exit code : 0)
Experiment 6 finished in 12.527637878 (exit code : 0)
Experiment 7 finished in 12.283194650 (exit code : 0)
Experiment 8 finished in 12.290901646 (exit code : 0)
Experiment 9 finished in 12.654654038 (exit code : 0)
Experiment 10 finished in 12.815894460 (exit code : 0)
