Experiment 1 finished in 10800.018456201 (TO)
Experiment 2 finished in 10800.542477997 (TO)
Experiment 3 finished in 10800.020796404 (TO)
Experiment 4 finished in 10800.095879628 (TO)
Experiment 5 finished in 10800.060113404 (TO)
Experiment 6 finished in 10801.556372951 (TO)
Experiment 7 finished in 10800.032789707 (TO)
Experiment 8 finished in 10800.003803834 (TO)
Experiment 9 finished in 10800.612605018 (TO)
Experiment 10 finished in 10800.036087617 (TO)
