Experiment 1 finished in 1798.446202902 (exit code : 0)
Experiment 2 finished in 2024.866640854 (exit code : 0)
Experiment 3 finished in 2030.742755737 (exit code : 0)
Experiment 4 finished in 1797.851940766 (exit code : 0)
Experiment 5 finished in 1615.273299885 (exit code : 0)
Experiment 6 finished in 1602.842928291 (exit code : 0)
Experiment 7 finished in 1780.473333763 (exit code : 0)
Experiment 8 finished in 1669.900314715 (exit code : 0)
Experiment 9 finished in 1717.859275230 (exit code : 0)
Experiment 10 finished in 1758.723169520 (exit code : 0)
