Experiment 1 finished in 10800.025236057 (TO)
Experiment 2 finished in 10800.016818204 (TO)
Experiment 3 finished in 10800.010660714 (TO)
Experiment 4 finished in 10800.004854256 (TO)
Experiment 5 finished in 10800.034946887 (TO)
Experiment 6 finished in 10800.013467426 (TO)
Experiment 7 finished in 10800.004217904 (TO)
Experiment 8 finished in 10800.007192218 (TO)
Experiment 9 finished in 10800.006743614 (TO)
Experiment 10 finished in 10800.043053982 (TO)
