Experiment 1 finished in .007208738
Experiment 2 finished in .007479862
Experiment 3 finished in .007590630
Experiment 4 finished in .007781995
Experiment 5 finished in .007512827
Experiment 6 finished in .007536783
Experiment 7 finished in .007469595
Experiment 8 finished in .007435722
Experiment 9 finished in .007287379
Experiment 10 finished in .007419798
