Experiment 1 finished in 266.806720750
Experiment 2 finished in 266.001844332
Experiment 3 finished in 256.364976902
Experiment 4 finished in 271.407452817
Experiment 5 finished in 238.335679528
Experiment 6 finished in 244.060165048
Experiment 7 finished in 232.530058550
Experiment 8 finished in 247.345320047
Experiment 9 finished in 254.714679985
Experiment 10 finished in 243.708284029
