Experiment 1 finished in 10801.087701114 (TO)
Experiment 2 finished in 10805.011589567 (TO)
Experiment 3 finished in 10800.023360654 (TO)
Experiment 4 finished in 10803.695784848 (TO)
Experiment 5 finished in 10800.048070076 (TO)
Experiment 6 finished in 10800.044025380 (TO)
Experiment 7 finished in 10800.025203667 (TO)
Experiment 8 finished in 10800.050887500 (TO)
Experiment 9 finished in 10800.051601091 (TO)
Experiment 10 finished in 10800.116209641 (TO)
