Experiment 1 finished in 12.468411250 (exit code : 0)
Experiment 2 finished in 11.930244987 (exit code : 0)
Experiment 3 finished in 11.970991658 (exit code : 0)
Experiment 4 finished in 12.826520171 (exit code : 0)
Experiment 5 finished in 12.240158211 (exit code : 0)
Experiment 6 finished in 11.966297054 (exit code : 0)
Experiment 7 finished in 12.676893866 (exit code : 0)
Experiment 8 finished in 11.970881250 (exit code : 0)
Experiment 9 finished in 11.932163196 (exit code : 0)
Experiment 10 finished in 11.941127149 (exit code : 0)
