Experiment 1 finished in .705777061
Experiment 2 finished in .704714698
Experiment 3 finished in .697308042
Experiment 4 finished in .694472474
Experiment 5 finished in .830367418
Experiment 6 finished in .701922635
Experiment 7 finished in .705405599
Experiment 8 finished in .707681913
Experiment 9 finished in .702342104
Experiment 10 finished in .697517277
