Experiment 1 finished in .700315767
Experiment 2 finished in .704872201
Experiment 3 finished in .694311733
Experiment 4 finished in .698989033
Experiment 5 finished in .698165862
Experiment 6 finished in .707258605
Experiment 7 finished in .705763911
Experiment 8 finished in .696066807
Experiment 9 finished in .698170561
Experiment 10 finished in .702804165
