Experiment 1 finished in .471281927
Experiment 2 finished in .474030266
Experiment 3 finished in .472780693
Experiment 4 finished in .472689323
Experiment 5 finished in .477572703
Experiment 6 finished in .472508923
Experiment 7 finished in .472167303
Experiment 8 finished in .488169831
Experiment 9 finished in .474852187
Experiment 10 finished in .473858469
