Experiment 1 finished in .007423360
Experiment 2 finished in .007492084
Experiment 3 finished in .007474275
Experiment 4 finished in .007618077
Experiment 5 finished in .007329842
Experiment 6 finished in .007494389
Experiment 7 finished in .007399056
Experiment 8 finished in .007260351
Experiment 9 finished in .007436769
Experiment 10 finished in .007269988
