Experiment 1 finished in .007397240
Experiment 2 finished in .007208948
Experiment 3 finished in .007376985
Experiment 4 finished in .007486636
Experiment 5 finished in .007449621
Experiment 6 finished in .007474554
Experiment 7 finished in .007578059
Experiment 8 finished in .007279417
Experiment 9 finished in .007331729
Experiment 10 finished in .007517436
