Experiment 1 finished in .473051184
Experiment 2 finished in .488202158
Experiment 3 finished in .472440769
Experiment 4 finished in .472060513
Experiment 5 finished in .489428893
Experiment 6 finished in .470234754
Experiment 7 finished in .472545852
Experiment 8 finished in .472345537
Experiment 9 finished in .473601844
Experiment 10 finished in .472041314
