Experiment 1 finished in 2473.834184055 (exit code : 0)
Experiment 2 finished in 2277.865476916 (exit code : 0)
Experiment 3 finished in 2375.948419634 (exit code : 0)
Experiment 4 finished in 2354.306651675 (exit code : 0)
Experiment 5 finished in 2377.610140815 (exit code : 0)
Experiment 6 finished in 2359.894729987 (exit code : 0)
Experiment 7 finished in 2235.069787232 (exit code : 0)
Experiment 8 finished in 2413.894872422 (exit code : 0)
Experiment 9 finished in 2417.079243849 (exit code : 0)
Experiment 10 finished in 2321.665189125 (exit code : 0)
