Experiment 1 finished in 174.334656148
Experiment 2 finished in 317.122755913
Experiment 3 finished in 199.359758388
Experiment 4 finished in 193.038139482
Experiment 5 finished in 81.061840033
Experiment 6 finished in 255.935613783
Experiment 7 finished in 54.634826139
Experiment 8 finished in 165.858031544
Experiment 9 finished in 227.047079395
Experiment 10 finished in 224.768785749
