Experiment 1 finished in 1751.783427938 (exit code : 0)
Experiment 2 finished in 10801.512553124 (TO)
Experiment 3 finished in 3546.089693679 (exit code : 0)
Experiment 4 finished in 10800.004382790 (TO)
Experiment 5 finished in 2486.259106312 (exit code : 0)
Experiment 6 finished in 3907.610749976 (exit code : 0)
Experiment 7 finished in 2728.147366419 (exit code : 0)
Experiment 8 finished in 2631.402993082 (exit code : 0)
Experiment 9 finished in 3004.351007638 (exit code : 0)
Experiment 10 finished in 10801.051718337 (TO)
