Experiment 1 finished in .007756363
Experiment 2 finished in .007709640
Experiment 3 finished in .007796382
Experiment 4 finished in .007813284
Experiment 5 finished in .007702236
Experiment 6 finished in .007879564
Experiment 7 finished in .007991868
Experiment 8 finished in .007788560
Experiment 9 finished in .007922167
Experiment 10 finished in .007952408
