Experiment 1 finished in 157.737193470
Experiment 2 finished in 167.517101515
Experiment 3 finished in 171.054181615
Experiment 4 finished in 171.871956138
Experiment 5 finished in 180.885429569
Experiment 6 finished in 161.923887952
Experiment 7 finished in 159.213218877
Experiment 8 finished in 166.604316797
Experiment 9 finished in 171.150094649
Experiment 10 finished in 157.791665132
