Experiment 1 finished in 2.777545106
Experiment 2 finished in 20.028204634
Experiment 3 finished in 10.225476368
Experiment 4 finished in 1.280636246
Experiment 5 finished in 1.289152622
Experiment 6 finished in 9.583144058
Experiment 7 finished in 1.894005585
Experiment 8 finished in 9.582471067
Experiment 9 finished in 22.315329554
Experiment 10 finished in 4.262714483
