Experiment 1 finished in .474973652
Experiment 2 finished in .470960611
Experiment 3 finished in .470519940
Experiment 4 finished in .469484599
Experiment 5 finished in .473980224
Experiment 6 finished in .474346394
Experiment 7 finished in .473291050
Experiment 8 finished in .475923592
Experiment 9 finished in .473904887
Experiment 10 finished in .474362573
