Experiment 1 finished in 2458.164758966 (exit code : 0)
Experiment 2 finished in 2324.543012190 (exit code : 0)
Experiment 3 finished in 2370.227108745 (exit code : 0)
Experiment 4 finished in 2365.236005043 (exit code : 0)
Experiment 5 finished in 2375.089563974 (exit code : 0)
Experiment 6 finished in 2431.554700288 (exit code : 0)
Experiment 7 finished in 2268.789382260 (exit code : 0)
Experiment 8 finished in 2506.762803162 (exit code : 0)
Experiment 9 finished in 2255.744558315 (exit code : 0)
Experiment 10 finished in 2254.301380489 (exit code : 0)
