Experiment 1 finished in 189.808756216
Experiment 2 finished in 196.272063150
Experiment 3 finished in 173.498484354
Experiment 4 finished in 188.634462407
Experiment 5 finished in 190.717149569
Experiment 6 finished in 183.474205040
Experiment 7 finished in 174.786187736
Experiment 8 finished in 181.159813436
Experiment 9 finished in 191.647182568
Experiment 10 finished in 172.063317003
