../../tests/exhaustive/6.in
../../tests/exhaustive/7.in
../../tests/exhaustive/10.in
../../tests/exhaustive/11.in
../../tests/exhaustive/12.in
../../tests/exhaustive/13.in
../../tests/exhaustive/14.in
../../tests/exhaustive/15.in
../../tests/exhaustive/16.in
../../tests/exhaustive/17.in
../../tests/exhaustive/18.in
../../tests/exhaustive/19.in
../../tests/exhaustive/25.in
../../tests/exhaustive/26.in
../../tests/exhaustive/29.in
../../tests/exhaustive/30.in
../../tests/exhaustive/31.in
../../tests/exhaustive/32.in
../../tests/exhaustive/33.in
../../tests/exhaustive/34.in
../../tests/exhaustive/35.in
../../tests/exhaustive/36.in
../../tests/exhaustive/37.in
../../tests/exhaustive/38.in
../../tests/exhaustive/44.in
../../tests/exhaustive/45.in
../../tests/exhaustive/50.in
../../tests/exhaustive/51.in
../../tests/exhaustive/52.in
../../tests/exhaustive/53.in
../../tests/exhaustive/54.in
../../tests/exhaustive/55.in
../../tests/exhaustive/56.in
../../tests/exhaustive/57.in
../../tests/exhaustive/63.in
../../tests/exhaustive/64.in
../../tests/exhaustive/65.in
../../tests/exhaustive/66.in
../../tests/exhaustive/69.in
../../tests/exhaustive/70.in
../../tests/exhaustive/71.in
../../tests/exhaustive/72.in
../../tests/exhaustive/73.in
../../tests/exhaustive/74.in
../../tests/exhaustive/75.in
../../tests/exhaustive/76.in
../../tests/exhaustive/84.in
../../tests/exhaustive/85.in
../../tests/exhaustive/88.in
../../tests/exhaustive/89.in
../../tests/exhaustive/90.in
../../tests/exhaustive/91.in
../../tests/exhaustive/92.in
../../tests/exhaustive/93.in
../../tests/exhaustive/94.in
../../tests/exhaustive/95.in
../../tests/exhaustive/101.in
../../tests/exhaustive/102.in
../../tests/exhaustive/105.in
../../tests/exhaustive/106.in
../../tests/exhaustive/107.in
../../tests/exhaustive/108.in
../../tests/exhaustive/109.in
../../tests/exhaustive/110.in
../../tests/exhaustive/111.in
../../tests/exhaustive/112.in
../../tests/exhaustive/113.in
../../tests/exhaustive/114.in
../../tests/exhaustive/120.in
../../tests/exhaustive/121.in
../../tests/exhaustive/126.in
../../tests/exhaustive/127.in
../../tests/exhaustive/128.in
../../tests/exhaustive/129.in
../../tests/exhaustive/130.in
../../tests/exhaustive/131.in
../../tests/exhaustive/132.in
../../tests/exhaustive/133.in
../../tests/exhaustive/139.in
../../tests/exhaustive/140.in
../../tests/exhaustive/141.in
../../tests/exhaustive/142.in
../../tests/exhaustive/145.in
../../tests/exhaustive/146.in
../../tests/exhaustive/147.in
../../tests/exhaustive/148.in
../../tests/exhaustive/149.in
../../tests/exhaustive/150.in
../../tests/exhaustive/151.in
../../tests/exhaustive/152.in
../../tests/exhaustive/160.in
../../tests/exhaustive/161.in
../../tests/exhaustive/164.in
../../tests/exhaustive/165.in
../../tests/exhaustive/166.in
../../tests/exhaustive/167.in
../../tests/exhaustive/168.in
../../tests/exhaustive/169.in
../../tests/exhaustive/170.in
../../tests/exhaustive/171.in
../../tests/exhaustive/177.in
../../tests/exhaustive/178.in
../../tests/exhaustive/185.in
../../tests/exhaustive/186.in
../../tests/exhaustive/187.in
../../tests/exhaustive/188.in
../../tests/exhaustive/189.in
../../tests/exhaustive/190.in
../../tests/exhaustive/196.in
../../tests/exhaustive/197.in
../../tests/exhaustive/198.in
../../tests/exhaustive/199.in
../../tests/exhaustive/204.in
../../tests/exhaustive/205.in
../../tests/exhaustive/206.in
../../tests/exhaustive/207.in
../../tests/exhaustive/208.in
../../tests/exhaustive/209.in
../../tests/exhaustive/217.in
../../tests/exhaustive/218.in
../../tests/exhaustive/223.in
../../tests/exhaustive/224.in
../../tests/exhaustive/225.in
../../tests/exhaustive/226.in
../../tests/exhaustive/227.in
../../tests/exhaustive/228.in
../../tests/exhaustive/234.in
../../tests/exhaustive/235.in
../../tests/exhaustive/236.in
../../tests/exhaustive/237.in
../../tests/exhaustive/238.in
../../tests/exhaustive/239.in
../../tests/exhaustive/242.in
../../tests/exhaustive/243.in
../../tests/exhaustive/244.in
../../tests/exhaustive/245.in
../../tests/exhaustive/246.in
../../tests/exhaustive/247.in
../../tests/exhaustive/255.in
../../tests/exhaustive/256.in
../../tests/exhaustive/257.in
../../tests/exhaustive/258.in
../../tests/exhaustive/261.in
../../tests/exhaustive/262.in
../../tests/exhaustive/263.in
../../tests/exhaustive/264.in
../../tests/exhaustive/265.in
../../tests/exhaustive/266.in
../../tests/exhaustive/276.in
../../tests/exhaustive/277.in
../../tests/exhaustive/280.in
../../tests/exhaustive/281.in
../../tests/exhaustive/282.in
../../tests/exhaustive/283.in
../../tests/exhaustive/284.in
../../tests/exhaustive/285.in
