Experiment 1 finished in .631116778
Experiment 2 finished in .631516271
Experiment 3 finished in .629711572
Experiment 4 finished in .626966670
Experiment 5 finished in .630045972
Experiment 6 finished in .627592587
Experiment 7 finished in .627882917
Experiment 8 finished in .650143569
Experiment 9 finished in .633764042
Experiment 10 finished in .629514130
