Experiment 1 finished in 10800.044502061 (TO)
Experiment 2 finished in 10800.035971380 (TO)
Experiment 3 finished in 10800.004170351 (TO)
Experiment 4 finished in 10800.030802604 (TO)
Experiment 5 finished in 10800.012347007 (TO)
Experiment 6 finished in 10800.014762911 (TO)
Experiment 7 finished in 10802.867365142 (TO)
Experiment 8 finished in 10800.123744088 (TO)
Experiment 9 finished in 10800.501584837 (TO)
Experiment 10 finished in 10800.090671768 (TO)
