Experiment 1 finished in 10800.005381148 (TO)
Experiment 2 finished in 10800.015234100 (TO)
Experiment 3 finished in 10800.004458010 (TO)
Experiment 4 finished in 10800.005743123 (TO)
Experiment 5 finished in 10800.006387904 (TO)
Experiment 6 finished in 10800.004441180 (TO)
Experiment 7 finished in 10800.005079706 (TO)
Experiment 8 finished in 10800.005664599 (TO)
Experiment 9 finished in 10800.005177717 (TO)
Experiment 10 finished in 10800.002775335 (TO)
