Experiment 1 finished in 251.634366660
Experiment 2 finished in 236.207084826
Experiment 3 finished in 251.091961701
Experiment 4 finished in 247.760830532
Experiment 5 finished in 252.287963696
Experiment 6 finished in 246.754217992
Experiment 7 finished in 245.977553675
Experiment 8 finished in 248.190745841
Experiment 9 finished in 225.925330606
Experiment 10 finished in 251.642515210
