Experiment 1 finished in 2290.833020348 (exit code : 0)
Experiment 2 finished in 2492.510726746 (exit code : 0)
Experiment 3 finished in 2360.439109633 (exit code : 0)
Experiment 4 finished in 2499.689848158 (exit code : 0)
Experiment 5 finished in 2521.771430514 (exit code : 0)
Experiment 6 finished in 2349.553210740 (exit code : 0)
Experiment 7 finished in 2631.744098893 (exit code : 0)
Experiment 8 finished in 2502.741347147 (exit code : 0)
Experiment 9 finished in 2533.375228759 (exit code : 0)
Experiment 10 finished in 2617.868753237 (exit code : 0)
