Experiment 1 finished in 10800.024519123 (TO)
Experiment 2 finished in 4666.684480226 (exit code : 0)
Experiment 3 finished in 9216.111092104 (exit code : 0)
Experiment 4 finished in 10800.005863436 (TO)
Experiment 5 finished in 3224.287099407 (exit code : 0)
Experiment 6 finished in 10800.006442940 (TO)
Experiment 7 finished in 10800.004349315 (TO)
Experiment 8 finished in 10800.007688387 (TO)
Experiment 9 finished in 9904.781635476 (exit code : 0)
Experiment 10 finished in 10800.005198702 (TO)
