Experiment 1 finished in 305.925639768
Experiment 2 finished in 362.137672494
Experiment 3 finished in 429.935791016
Experiment 4 finished in 378.544102227
Experiment 5 finished in 359.413949043
Experiment 6 finished in 285.317502310
Experiment 7 finished in 298.691320737
Experiment 8 finished in 274.641839745
Experiment 9 finished in 476.110785499
Experiment 10 finished in 240.636245989
