Experiment 1 finished in 146.387030319
Experiment 2 finished in 144.595880209
Experiment 3 finished in 161.559517052
Experiment 4 finished in 155.885889282
Experiment 5 finished in 143.798064257
Experiment 6 finished in 166.080006523
Experiment 7 finished in 151.835060677
Experiment 8 finished in 141.056130277
Experiment 9 finished in 129.660432871
Experiment 10 finished in 136.076617451
