Experiment 1 finished in .483905145
Experiment 2 finished in .481744836
Experiment 3 finished in .483247697
Experiment 4 finished in .485484113
Experiment 5 finished in .479134607
Experiment 6 finished in .478971161
Experiment 7 finished in .486043877
Experiment 8 finished in .487103809
Experiment 9 finished in .491950336
Experiment 10 finished in .489748884
