Experiment 1 finished in .007729475
Experiment 2 finished in .007556059
Experiment 3 finished in .007250154
Experiment 4 finished in .007505144
Experiment 5 finished in .007286611
Experiment 6 finished in .007554312
Experiment 7 finished in .007744630
Experiment 8 finished in .007340808
Experiment 9 finished in .007291151
Experiment 10 finished in .007495576
