Experiment 1 finished in .510240933
Experiment 2 finished in .519771683
Experiment 3 finished in .505920411
Experiment 4 finished in .511419364
Experiment 5 finished in .507957402
Experiment 6 finished in .505992976
Experiment 7 finished in .504377966
Experiment 8 finished in .505170804
Experiment 9 finished in .505723179
Experiment 10 finished in .502546867
