Experiment 1 finished in 368.650084953
Experiment 2 finished in 280.292714518
Experiment 3 finished in 304.326828632
Experiment 4 finished in 466.995092315
Experiment 5 finished in 267.427263351
Experiment 6 finished in 253.990495941
Experiment 7 finished in 348.540158688
Experiment 8 finished in 275.423270065
Experiment 9 finished in 527.959404233
Experiment 10 finished in 429.290587099
