../../tests/exhaustive/12.in
../../tests/exhaustive/13.in
../../tests/exhaustive/14.in
../../tests/exhaustive/15.in
../../tests/exhaustive/16.in
../../tests/exhaustive/17.in
../../tests/exhaustive/18.in
../../tests/exhaustive/19.in
../../tests/exhaustive/33.in
../../tests/exhaustive/34.in
../../tests/exhaustive/35.in
../../tests/exhaustive/36.in
../../tests/exhaustive/37.in
../../tests/exhaustive/38.in
../../tests/exhaustive/52.in
../../tests/exhaustive/53.in
../../tests/exhaustive/54.in
../../tests/exhaustive/55.in
../../tests/exhaustive/56.in
../../tests/exhaustive/57.in
../../tests/exhaustive/71.in
../../tests/exhaustive/72.in
../../tests/exhaustive/73.in
../../tests/exhaustive/74.in
../../tests/exhaustive/75.in
../../tests/exhaustive/76.in
../../tests/exhaustive/90.in
../../tests/exhaustive/91.in
../../tests/exhaustive/92.in
../../tests/exhaustive/93.in
../../tests/exhaustive/94.in
../../tests/exhaustive/95.in
../../tests/exhaustive/111.in
../../tests/exhaustive/112.in
../../tests/exhaustive/113.in
../../tests/exhaustive/114.in
../../tests/exhaustive/130.in
../../tests/exhaustive/131.in
../../tests/exhaustive/132.in
../../tests/exhaustive/133.in
../../tests/exhaustive/149.in
../../tests/exhaustive/150.in
../../tests/exhaustive/151.in
../../tests/exhaustive/152.in
../../tests/exhaustive/168.in
../../tests/exhaustive/169.in
../../tests/exhaustive/170.in
../../tests/exhaustive/171.in
../../tests/exhaustive/187.in
../../tests/exhaustive/188.in
../../tests/exhaustive/189.in
../../tests/exhaustive/190.in
../../tests/exhaustive/206.in
../../tests/exhaustive/207.in
../../tests/exhaustive/208.in
../../tests/exhaustive/209.in
../../tests/exhaustive/225.in
../../tests/exhaustive/226.in
../../tests/exhaustive/227.in
../../tests/exhaustive/228.in
../../tests/exhaustive/244.in
../../tests/exhaustive/245.in
../../tests/exhaustive/246.in
../../tests/exhaustive/247.in
../../tests/exhaustive/263.in
../../tests/exhaustive/264.in
../../tests/exhaustive/265.in
../../tests/exhaustive/266.in
../../tests/exhaustive/282.in
../../tests/exhaustive/283.in
../../tests/exhaustive/284.in
../../tests/exhaustive/285.in
