Experiment 1 finished in 1715.248921191 (exit code : 0)
Experiment 2 finished in 1718.310287887 (exit code : 0)
Experiment 3 finished in 1928.610594168 (exit code : 0)
Experiment 4 finished in 1700.384756647 (exit code : 0)
Experiment 5 finished in 1743.316306310 (exit code : 0)
Experiment 6 finished in 2049.542983760 (exit code : 0)
Experiment 7 finished in 1627.782641070 (exit code : 0)
Experiment 8 finished in 2149.506993977 (exit code : 0)
Experiment 9 finished in 1720.755589148 (exit code : 0)
Experiment 10 finished in 1749.744936977 (exit code : 0)
