../../tests/blackbox/1.in
../../tests/blackbox/2.in
../../tests/blackbox/3.in
../../tests/blackbox/4.in
../../tests/blackbox/5.in
../../tests/blackbox/6.in
../../tests/blackbox/7.in
../../tests/blackbox/8.in
