Experiment 1 finished in .008137138
Experiment 2 finished in .007837799
Experiment 3 finished in .007872509
Experiment 4 finished in .007812865
Experiment 5 finished in .008001296
Experiment 6 finished in .007950033
Experiment 7 finished in .007885710
Experiment 8 finished in .007793869
Experiment 9 finished in .007838497
Experiment 10 finished in .007767678
