Experiment 1 finished in 593.396345039
Experiment 2 finished in .950356607
Experiment 3 finished in 16.633028684
Experiment 4 finished in 60.143959788
Experiment 5 finished in 13.971169309
Experiment 6 finished in 97.303709922
Experiment 7 finished in 21.838033035
Experiment 8 finished in 111.419197165
Experiment 9 finished in 123.476633659
Experiment 10 finished in 66.469787186
