Experiment 1 finished in .007894719
Experiment 2 finished in .007922027
Experiment 3 finished in .007728427
Experiment 4 finished in .007841500
Experiment 5 finished in .007776198
Experiment 6 finished in .007748611
Experiment 7 finished in .007929988
Experiment 8 finished in .007849113
Experiment 9 finished in .007943119
Experiment 10 finished in .007798128
