Experiment 1 finished in .007891576
Experiment 2 finished in .007870275
Experiment 3 finished in .008039151
Experiment 4 finished in .008009398
Experiment 5 finished in .007690992
Experiment 6 finished in .007739601
Experiment 7 finished in .007890040
Experiment 8 finished in .007834516
Experiment 9 finished in .007846040
Experiment 10 finished in .007623385
