Experiment 1 finished in 10.710138489
Experiment 2 finished in 4.130016673
Experiment 3 finished in 4.780265214
Experiment 4 finished in 1.824000803
Experiment 5 finished in 23.344558202
Experiment 6 finished in 11.538658513
Experiment 7 finished in 21.396727895
Experiment 8 finished in 2.116978493
Experiment 9 finished in 6.415456672
Experiment 10 finished in 24.934678635
