Experiment 1 finished in 27.141558225
Experiment 2 finished in 27.966415213
Experiment 3 finished in 8.191851632
Experiment 4 finished in 41.365968537
Experiment 5 finished in 6.108283742
Experiment 6 finished in 114.504220966
Experiment 7 finished in 51.042482708
Experiment 8 finished in 6.312662176
Experiment 9 finished in 3.933410037
Experiment 10 finished in 1.934191492
