../../tests/exhaustive/1.in
../../tests/exhaustive/2.in
../../tests/exhaustive/15.in
../../tests/exhaustive/28.in
../../tests/exhaustive/41.in
../../tests/exhaustive/42.in
../../tests/exhaustive/55.in
../../tests/exhaustive/68.in
../../tests/exhaustive/81.in
../../tests/exhaustive/82.in
../../tests/exhaustive/95.in
../../tests/exhaustive/108.in
