Experiment 1 finished in .574126221
Experiment 2 finished in .568547648
Experiment 3 finished in .572031123
Experiment 4 finished in .569693325
Experiment 5 finished in .569324773
Experiment 6 finished in .564892086
Experiment 7 finished in .566819286
Experiment 8 finished in .568018530
Experiment 9 finished in .568235667
Experiment 10 finished in .565562283
