Experiment 1 finished in 1.260102839
Experiment 2 finished in 14.640888622
Experiment 3 finished in 135.855825455
Experiment 4 finished in 22.113032950
Experiment 5 finished in 2.810123550
Experiment 6 finished in 10.959534310
Experiment 7 finished in 4.955073896
Experiment 8 finished in 24.685705844
Experiment 9 finished in 89.141508221
Experiment 10 finished in 37.780639215
