Experiment 1 finished in 10800.007569600 (TO)
Experiment 2 finished in 10800.043128055 (TO)
Experiment 3 finished in 10800.006292392 (TO)
Experiment 4 finished in 10800.008654724 (TO)
Experiment 5 finished in 10800.014025057 (TO)
Experiment 6 finished in 10800.004681219 (TO)
Experiment 7 finished in 10800.009720005 (TO)
Experiment 8 finished in 10803.457523859 (TO)
Experiment 9 finished in 10800.010318638 (TO)
Experiment 10 finished in 10800.003217836 (TO)
