Experiment 1 finished in .489937234
Experiment 2 finished in .114812135
Experiment 3 finished in .492574724
Experiment 4 finished in .492271130
Experiment 5 finished in .490759989
Experiment 6 finished in .492034693
Experiment 7 finished in .503499584
Experiment 8 finished in .495237894
Experiment 9 finished in .494342613
Experiment 10 finished in .494661593
