Experiment 1 finished in 11.142715723 (exit code : 0)
Experiment 2 finished in 11.169646170 (exit code : 0)
Experiment 3 finished in 10.994681390 (exit code : 0)
Experiment 4 finished in 10.839949828 (exit code : 0)
Experiment 5 finished in 8.677272082 (exit code : 0)
Experiment 6 finished in 10.985847786 (exit code : 0)
Experiment 7 finished in 10.600444968 (exit code : 0)
Experiment 8 finished in 11.042818511 (exit code : 0)
Experiment 9 finished in 7.331151787 (exit code : 0)
Experiment 10 finished in 10.784401412 (exit code : 0)
