Experiment 1 finished in .527336681
Experiment 2 finished in .503308277
Experiment 3 finished in .500229742
Experiment 4 finished in .505798467
Experiment 5 finished in .509378113
Experiment 6 finished in .504157966
Experiment 7 finished in .503073121
Experiment 8 finished in .500333946
Experiment 9 finished in .502356899
Experiment 10 finished in .524816808
