../../tests/blackbox/1.in
../../tests/blackbox/2.in
../../tests/blackbox/4.in
../../tests/blackbox/6.in
../../tests/blackbox/8.in
../../tests/whitebox/1.in
../../tests/whitebox/2.in
../../tests/whitebox/4.in
../../tests/whitebox/6.in
../../tests/whitebox/8.in
