Experiment 1 finished in 226.027026837
Experiment 2 finished in 296.064237785
Experiment 3 finished in 330.234643254
Experiment 4 finished in 128.535677271
Experiment 5 finished in 262.272950149
Experiment 6 finished in 76.752875839
Experiment 7 finished in 110.010345453
Experiment 8 finished in 229.811667887
Experiment 9 finished in 57.381146305
Experiment 10 finished in 172.454167954
