Experiment 1 finished in 592.828674950 (exit code : 0)
Experiment 2 finished in 676.842095209 (exit code : 0)
Experiment 3 finished in 677.758289546 (exit code : 0)
Experiment 4 finished in 673.552643908 (exit code : 0)
Experiment 5 finished in 766.784528259 (exit code : 0)
Experiment 6 finished in 743.151125610 (exit code : 0)
Experiment 7 finished in 752.018015112 (exit code : 0)
Experiment 8 finished in 776.875447754 (exit code : 0)
Experiment 9 finished in 747.988612343 (exit code : 0)
Experiment 10 finished in 647.823645551 (exit code : 0)
