Experiment 1 finished in .504399896
Experiment 2 finished in .501396790
Experiment 3 finished in .495999246
Experiment 4 finished in .500236797
Experiment 5 finished in .498830124
Experiment 6 finished in .503166988
Experiment 7 finished in .502020124
Experiment 8 finished in .502739490
Experiment 9 finished in .496251863
Experiment 10 finished in .499819425
