Experiment 1 finished in 10801.593322876 (TO)
Experiment 2 finished in 10800.029217848 (TO)
Experiment 3 finished in 10800.047512522 (TO)
Experiment 4 finished in 10800.018746158 (TO)
Experiment 5 finished in 10800.516405373 (TO)
Experiment 6 finished in 10800.030775540 (TO)
Experiment 7 finished in 10800.138788913 (TO)
Experiment 8 finished in 10802.184142430 (TO)
Experiment 9 finished in 10803.687795140 (TO)
Experiment 10 finished in 10800.025331587 (TO)
