Experiment 1 finished in .563042618
Experiment 2 finished in .563914028
Experiment 3 finished in .566508423
Experiment 4 finished in .562670575
Experiment 5 finished in .565679895
Experiment 6 finished in .565771876
Experiment 7 finished in .564825457
Experiment 8 finished in .571557110
Experiment 9 finished in .566269007
Experiment 10 finished in .569182924
