Experiment 1 finished in 10801.443308476 (TO)
Experiment 2 finished in 10800.092826456 (TO)
Experiment 3 finished in 10800.024585396 (TO)
Experiment 4 finished in 10800.413469784 (TO)
Experiment 5 finished in 10800.188823455 (TO)
Experiment 6 finished in 10800.108843677 (TO)
Experiment 7 finished in 10801.325420095 (TO)
Experiment 8 finished in 10800.428878924 (TO)
Experiment 9 finished in 10800.072097717 (TO)
Experiment 10 finished in 10800.476777246 (TO)
