Experiment 1 finished in 4.656980542
Experiment 2 finished in 166.595233169
Experiment 3 finished in 190.190634094
Experiment 4 finished in 8.759598410
Experiment 5 finished in 4.948867032
Experiment 6 finished in 6.621704828
Experiment 7 finished in 231.987827508
Experiment 8 finished in 3.108224587
Experiment 9 finished in 4.633356239
Experiment 10 finished in 34.407604138
