Experiment 1 finished in 1452.442030223 (exit code : 0)
Experiment 2 finished in 1768.549190031 (exit code : 0)
Experiment 3 finished in 1661.094491829 (exit code : 0)
Experiment 4 finished in 1571.844341055 (exit code : 0)
Experiment 5 finished in 1613.986319329 (exit code : 0)
Experiment 6 finished in 1733.619121155 (exit code : 0)
Experiment 7 finished in 1705.643735721 (exit code : 0)
Experiment 8 finished in 1816.012447239 (exit code : 0)
Experiment 9 finished in 1642.769921942 (exit code : 0)
Experiment 10 finished in 1680.602210407 (exit code : 0)
