Experiment 1 finished in 145.564861639
Experiment 2 finished in 6.378242163
Experiment 3 finished in 236.110432415
Experiment 4 finished in 199.529401754
Experiment 5 finished in 144.918733384
Experiment 6 finished in 5.599945496
Experiment 7 finished in 19.042466644
Experiment 8 finished in 97.117950895
Experiment 9 finished in 411.022717844
Experiment 10 finished in 317.141859738
