Experiment 1 finished in 7.521797919
Experiment 2 finished in 11.522929557
Experiment 3 finished in 3.629854956
Experiment 4 finished in 11.646641937
Experiment 5 finished in 13.180798271
Experiment 6 finished in 11.926354252
Experiment 7 finished in 1.867983911
Experiment 8 finished in 1.278463134
Experiment 9 finished in 33.816530371
Experiment 10 finished in 15.223667270
