Experiment 1 finished in 10800.695898007 (TO)
Experiment 2 finished in 10803.821629088 (TO)
Experiment 3 finished in 10800.041666741 (TO)
Experiment 4 finished in 10800.047158962 (TO)
Experiment 5 finished in 10800.047233350 (TO)
Experiment 6 finished in 10800.021455501 (TO)
Experiment 7 finished in 10800.815581239 (TO)
Experiment 8 finished in 10800.024753922 (TO)
Experiment 9 finished in 10805.836203526 (TO)
Experiment 10 finished in 10800.549927443 (TO)
