Experiment 1 finished in 1897.049742411 (exit code : 0)
Experiment 2 finished in 1866.097382736 (exit code : 0)
Experiment 3 finished in 1878.202060423 (exit code : 0)
Experiment 4 finished in 1978.432704974 (exit code : 0)
Experiment 5 finished in 1920.821738949 (exit code : 0)
Experiment 6 finished in 2044.800284942 (exit code : 0)
Experiment 7 finished in 2012.784697475 (exit code : 0)
Experiment 8 finished in 2015.447519429 (exit code : 0)
Experiment 9 finished in 1937.993083750 (exit code : 0)
Experiment 10 finished in 1964.683015498 (exit code : 0)
