Experiment 1 finished in .007327817
Experiment 2 finished in .007317062
Experiment 3 finished in .007283049
Experiment 4 finished in .007213697
Experiment 5 finished in .007240376
Experiment 6 finished in .007254204
Experiment 7 finished in .007487824
Experiment 8 finished in .007217258
Experiment 9 finished in .007221169
Experiment 10 finished in .007416306
