../../tests/exhaustive/6.in
../../tests/exhaustive/7.in
../../tests/exhaustive/25.in
../../tests/exhaustive/26.in
../../tests/exhaustive/44.in
../../tests/exhaustive/45.in
../../tests/exhaustive/63.in
../../tests/exhaustive/64.in
../../tests/exhaustive/65.in
../../tests/exhaustive/66.in
../../tests/exhaustive/84.in
../../tests/exhaustive/85.in
../../tests/exhaustive/101.in
../../tests/exhaustive/102.in
../../tests/exhaustive/120.in
../../tests/exhaustive/121.in
../../tests/exhaustive/139.in
../../tests/exhaustive/140.in
../../tests/exhaustive/141.in
../../tests/exhaustive/142.in
../../tests/exhaustive/160.in
../../tests/exhaustive/161.in
../../tests/exhaustive/177.in
../../tests/exhaustive/178.in
../../tests/exhaustive/196.in
../../tests/exhaustive/197.in
../../tests/exhaustive/198.in
../../tests/exhaustive/199.in
../../tests/exhaustive/217.in
../../tests/exhaustive/218.in
../../tests/exhaustive/234.in
../../tests/exhaustive/235.in
../../tests/exhaustive/236.in
../../tests/exhaustive/237.in
../../tests/exhaustive/238.in
../../tests/exhaustive/239.in
../../tests/exhaustive/255.in
../../tests/exhaustive/256.in
../../tests/exhaustive/257.in
../../tests/exhaustive/258.in
../../tests/exhaustive/276.in
../../tests/exhaustive/277.in
