Experiment 1 finished in 423.299337323
Experiment 2 finished in 443.295165359
Experiment 3 finished in 430.955370043
Experiment 4 finished in 961.792935195
Experiment 5 finished in 409.618955078
Experiment 6 finished in 787.113767546
Experiment 7 finished in 745.738238589
Experiment 8 finished in 576.417450427
Experiment 9 finished in 493.438234681
Experiment 10 finished in 649.931434609
