Experiment 1 finished in 10800.042315521 (TO)
Experiment 2 finished in 10805.054759569 (TO)
Experiment 3 finished in 10800.394709494 (TO)
Experiment 4 finished in 5206.784331057 (exit code : 0)
Experiment 5 finished in 9044.846971190 (exit code : 0)
Experiment 6 finished in 10800.334726223 (TO)
Experiment 7 finished in 8040.119522347 (exit code : 0)
Experiment 8 finished in 4114.739587014 (exit code : 0)
Experiment 9 finished in 2991.022967986 (exit code : 0)
Experiment 10 finished in 10800.036154953 (TO)
