Experiment 1 finished in .692587757
Experiment 2 finished in .690509304
Experiment 3 finished in .679522946
Experiment 4 finished in .684622051
Experiment 5 finished in .682518501
Experiment 6 finished in .686697697
Experiment 7 finished in .678862832
Experiment 8 finished in .685361461
Experiment 9 finished in .682762796
Experiment 10 finished in .681584591
