Experiment 1 finished in 7367.684977213 (exit code : 0)
Experiment 2 finished in 3639.388585767 (exit code : 0)
Experiment 3 finished in 3928.625898147 (exit code : 0)
Experiment 4 finished in 9461.173766332 (exit code : 0)
Experiment 5 finished in 10800.012031937 (TO)
Experiment 6 finished in 7448.688044069 (exit code : 0)
Experiment 7 finished in 10800.032875120 (TO)
Experiment 8 finished in 8070.202112553 (exit code : 0)
Experiment 9 finished in 3431.341248048 (exit code : 0)
Experiment 10 finished in 9743.410633922 (exit code : 0)
