Experiment 1 finished in 310.146890195
Experiment 2 finished in 358.306738178
Experiment 3 finished in 84.654142404
Experiment 4 finished in 117.266010576
Experiment 5 finished in 314.211497364
Experiment 6 finished in 225.406991146
Experiment 7 finished in 217.697478714
Experiment 8 finished in 308.273681878
Experiment 9 finished in 225.436673622
Experiment 10 finished in 184.799949565
