Experiment 1 finished in 10801.802095567 (TO)
Experiment 2 finished in 10800.609008560 (TO)
Experiment 3 finished in 10800.145885864 (TO)
Experiment 4 finished in 10800.089472612 (TO)
Experiment 5 finished in 9117.045317228 (exit code : 0)
Experiment 6 finished in 10800.029399896 (TO)
Experiment 7 finished in 10800.317530835 (TO)
Experiment 8 finished in 10800.634266412 (TO)
Experiment 9 finished in 10800.064962700 (TO)
Experiment 10 finished in 10800.067899948 (TO)
