Experiment 1 finished in 10800.004168248 (TO)
Experiment 2 finished in 10800.002703067 (TO)
Experiment 3 finished in 10800.004274386 (TO)
Experiment 4 finished in 10683.635487732 (exit code : 0)
Experiment 5 finished in 10536.450180680 (exit code : 0)
Experiment 6 finished in 1809.722663130 (exit code : 0)
Experiment 7 finished in 10800.004457053 (TO)
Experiment 8 finished in 10800.002910132 (TO)
Experiment 9 finished in 10176.163189844 (exit code : 0)
Experiment 10 finished in 5739.986380043 (exit code : 0)
