Experiment 1 finished in 4902.208517991 (exit code : 0)
Experiment 2 finished in 2278.818180092 (exit code : 0)
Experiment 3 finished in 4146.560843839 (exit code : 0)
Experiment 4 finished in 2565.360161958 (exit code : 0)
Experiment 5 finished in 2987.666326877 (exit code : 0)
Experiment 6 finished in 1758.247699028 (exit code : 0)
Experiment 7 finished in 1806.012176107 (exit code : 0)
Experiment 8 finished in 2171.979561281 (exit code : 0)
Experiment 9 finished in 2479.241031957 (exit code : 0)
Experiment 10 finished in 2250.328879804 (exit code : 0)
