Experiment 1 finished in .008065062
Experiment 2 finished in .007941373
Experiment 3 finished in .008059405
Experiment 4 finished in .008021481
Experiment 5 finished in .008036777
Experiment 6 finished in .007829907
Experiment 7 finished in .008225767
Experiment 8 finished in .008013659
Experiment 9 finished in .008001925
Experiment 10 finished in .008114439
