Experiment 1 finished in 25.578066108
Experiment 2 finished in 37.974253989
Experiment 3 finished in 22.137754808
Experiment 4 finished in 51.244110373
Experiment 5 finished in 15.570538405
Experiment 6 finished in 38.976110650
Experiment 7 finished in 32.307053502
Experiment 8 finished in 199.874769206
Experiment 9 finished in 20.399386892
Experiment 10 finished in 53.826051903
