Experiment 1 finished in .008045227
Experiment 2 finished in .007758738
Experiment 3 finished in .007901424
Experiment 4 finished in .007796243
Experiment 5 finished in .007731081
Experiment 6 finished in .007756852
Experiment 7 finished in .007978878
Experiment 8 finished in .007843246
Experiment 9 finished in .008151036
Experiment 10 finished in .007753011
