Experiment 1 finished in 10800.011817128 (TO)
Experiment 2 finished in 8278.214770571 (exit code : 0)
Experiment 3 finished in 10800.007610565 (TO)
Experiment 4 finished in 4419.261302726 (exit code : 0)
Experiment 5 finished in 10800.493411601 (TO)
Experiment 6 finished in 7578.274534173 (exit code : 0)
Experiment 7 finished in 10800.980169140 (TO)
Experiment 8 finished in 10800.006459874 (TO)
Experiment 9 finished in 10800.005511832 (TO)
Experiment 10 finished in 8971.333213192 (exit code : 0)
