Experiment 1 finished in 1121.502017820 (exit code : 0)
Experiment 2 finished in 1094.159074545 (exit code : 0)
Experiment 3 finished in 1222.042274345 (exit code : 0)
Experiment 4 finished in 1072.463546795 (exit code : 0)
Experiment 5 finished in 1148.691083359 (exit code : 0)
Experiment 6 finished in 1113.956437202 (exit code : 0)
Experiment 7 finished in 1063.152209411 (exit code : 0)
Experiment 8 finished in 1187.838017433 (exit code : 0)
Experiment 9 finished in 1128.580066733 (exit code : 0)
Experiment 10 finished in 1187.167540850 (exit code : 0)
