Experiment 1 finished in 9.751344097 (exit code : 0) [REPAIR FOUND]
Experiment 2 finished in 6.649844009 (exit code : 0) [REPAIR FOUND]
Experiment 3 finished in 9.882714014 (exit code : 0) [REPAIR FOUND]
Experiment 4 finished in 9.594960060 (exit code : 0) [REPAIR FOUND]
Experiment 5 finished in 7.878609334 (exit code : 0) [REPAIR FOUND]
Experiment 6 finished in 7.025948832 (exit code : 0) [REPAIR FOUND]
Experiment 7 finished in 6.608532227 (exit code : 0) [REPAIR FOUND]
Experiment 8 finished in 6.948706613 (exit code : 0) [REPAIR FOUND]
Experiment 9 finished in 5.905170425 (exit code : 0) [REPAIR FOUND]
Experiment 10 finished in 6.687043006 (exit code : 0) [REPAIR FOUND]
