Experiment 1 finished in 1880.695917117 (exit code : 0)
Experiment 2 finished in 1803.796683514 (exit code : 0)
Experiment 3 finished in 1935.275691569 (exit code : 0)
Experiment 4 finished in 1928.134033892 (exit code : 0)
Experiment 5 finished in 1773.775656021 (exit code : 0)
Experiment 6 finished in 2025.912212248 (exit code : 0)
Experiment 7 finished in 1829.030821731 (exit code : 0)
Experiment 8 finished in 1761.831500618 (exit code : 0)
Experiment 9 finished in 1859.930558206 (exit code : 0)
Experiment 10 finished in 1841.906925368 (exit code : 0)
