Experiment 1 finished in 2600.006851672 (exit code : 0)
Experiment 2 finished in 2566.090554922 (exit code : 0)
Experiment 3 finished in 2700.892794743 (exit code : 0)
Experiment 4 finished in 2396.917783613 (exit code : 0)
Experiment 5 finished in 2546.514707671 (exit code : 0)
Experiment 6 finished in 2564.363036539 (exit code : 0)
Experiment 7 finished in 2484.080835745 (exit code : 0)
Experiment 8 finished in 2503.079097655 (exit code : 0)
Experiment 9 finished in 2766.609288286 (exit code : 0)
Experiment 10 finished in 2363.749278668 (exit code : 0)
