Experiment 1 finished in .483445695
Experiment 2 finished in .481898082
Experiment 3 finished in .482107466
Experiment 4 finished in .480941605
Experiment 5 finished in .482914133
Experiment 6 finished in .487163836
Experiment 7 finished in .487896750
Experiment 8 finished in .484053734
Experiment 9 finished in .483647676
Experiment 10 finished in .482013040
