Experiment 1 finished in 152.350158620
Experiment 2 finished in 150.857747188
Experiment 3 finished in 154.437008430
Experiment 4 finished in 143.979653972
Experiment 5 finished in 151.682026023
Experiment 6 finished in 156.758383053
Experiment 7 finished in 144.993555266
Experiment 8 finished in 152.269681879
Experiment 9 finished in 151.566874011
Experiment 10 finished in 147.250674762
