Experiment 1 finished in .007794147
Experiment 2 finished in .007476021
Experiment 3 finished in .007680795
Experiment 4 finished in .007259792
Experiment 5 finished in .007915881
Experiment 6 finished in .007185760
Experiment 7 finished in .007134008
Experiment 8 finished in .007367767
Experiment 9 finished in .007474903
Experiment 10 finished in .007368815
