Experiment 1 finished in .008047881
Experiment 2 finished in .007785417
Experiment 3 finished in .007803157
Experiment 4 finished in .007877678
Experiment 5 finished in .007764326
Experiment 6 finished in .007860288
Experiment 7 finished in .007823900
Experiment 8 finished in .007752173
Experiment 9 finished in .007700560
Experiment 10 finished in .007825436
