Experiment 1 finished in .474563392
Experiment 2 finished in .469391688
Experiment 3 finished in .469744125
Experiment 4 finished in .473368355
Experiment 5 finished in .470340843
Experiment 6 finished in .468303043
Experiment 7 finished in .469564178
Experiment 8 finished in .468001721
Experiment 9 finished in .469081374
Experiment 10 finished in .469722743
