Experiment 1 finished in .546454266
Experiment 2 finished in .546415365
Experiment 3 finished in .547211346
Experiment 4 finished in .548527016
Experiment 5 finished in .548997606
Experiment 6 finished in .550389683
Experiment 7 finished in .546846984
Experiment 8 finished in .541255910
Experiment 9 finished in .546781752
Experiment 10 finished in .557796141
