../../tests/exhaustive/12.in
../../tests/exhaustive/33.in
../../tests/exhaustive/52.in
../../tests/exhaustive/71.in
../../tests/exhaustive/90.in
../../tests/exhaustive/111.in
../../tests/exhaustive/130.in
../../tests/exhaustive/149.in
../../tests/exhaustive/168.in
../../tests/exhaustive/187.in
../../tests/exhaustive/206.in
../../tests/exhaustive/225.in
../../tests/exhaustive/244.in
../../tests/exhaustive/263.in
../../tests/exhaustive/282.in
