Experiment 1 finished in .007850579
Experiment 2 finished in .007842827
Experiment 3 finished in .007835284
Experiment 4 finished in .007850091
Experiment 5 finished in .007857493
Experiment 6 finished in .007940744
Experiment 7 finished in .007933761
Experiment 8 finished in .007688129
Experiment 9 finished in .008134065
Experiment 10 finished in .007857633
