../../tests/exhaustive/6.in
../../tests/exhaustive/10.in
../../tests/exhaustive/11.in
../../tests/exhaustive/14.in
../../tests/exhaustive/15.in
../../tests/exhaustive/16.in
../../tests/exhaustive/22.in
../../tests/exhaustive/23.in
../../tests/exhaustive/24.in
../../tests/exhaustive/26.in
../../tests/exhaustive/27.in
../../tests/exhaustive/30.in
../../tests/exhaustive/31.in
../../tests/exhaustive/32.in
../../tests/exhaustive/38.in
../../tests/exhaustive/39.in
../../tests/exhaustive/40.in
../../tests/exhaustive/42.in
../../tests/exhaustive/43.in
../../tests/exhaustive/44.in
../../tests/exhaustive/46.in
../../tests/exhaustive/47.in
../../tests/exhaustive/48.in
../../tests/exhaustive/54.in
../../tests/exhaustive/55.in
../../tests/exhaustive/56.in
../../tests/exhaustive/58.in
../../tests/exhaustive/59.in
../../tests/exhaustive/60.in
../../tests/exhaustive/62.in
../../tests/exhaustive/63.in
../../tests/exhaustive/64.in
../../tests/exhaustive/70.in
../../tests/exhaustive/74.in
../../tests/exhaustive/75.in
../../tests/exhaustive/78.in
../../tests/exhaustive/79.in
../../tests/exhaustive/80.in
../../tests/exhaustive/91.in
../../tests/exhaustive/95.in
../../tests/exhaustive/96.in
../../tests/exhaustive/107.in
../../tests/exhaustive/108.in
../../tests/exhaustive/111.in
../../tests/exhaustive/112.in
../../tests/exhaustive/123.in
../../tests/exhaustive/124.in
../../tests/exhaustive/127.in
../../tests/exhaustive/128.in
../../tests/exhaustive/134.in
../../tests/exhaustive/138.in
../../tests/exhaustive/139.in
../../tests/exhaustive/142.in
../../tests/exhaustive/143.in
../../tests/exhaustive/144.in
../../tests/exhaustive/155.in
../../tests/exhaustive/159.in
../../tests/exhaustive/160.in
../../tests/exhaustive/176.in
../../tests/exhaustive/192.in
../../tests/exhaustive/198.in
../../tests/exhaustive/202.in
../../tests/exhaustive/203.in
../../tests/exhaustive/206.in
../../tests/exhaustive/207.in
../../tests/exhaustive/208.in
../../tests/exhaustive/219.in
../../tests/exhaustive/223.in
../../tests/exhaustive/224.in
../../tests/exhaustive/240.in
