Experiment 1 finished in 10800.005955314 (TO)
Experiment 2 finished in 10800.007848553 (TO)
Experiment 3 finished in 10800.023709784 (TO)
Experiment 4 finished in 10800.133856723 (TO)
Experiment 5 finished in 10800.017469063 (TO)
Experiment 6 finished in 10800.019933124 (TO)
Experiment 7 finished in 10800.005292768 (TO)
Experiment 8 finished in 10800.835000679 (TO)
Experiment 9 finished in 10800.005043415 (TO)
Experiment 10 finished in 10800.003556140 (TO)
