Experiment 1 finished in 386.116157358
Experiment 2 finished in 428.615708405
Experiment 3 finished in 300.463575000
Experiment 4 finished in 337.193614332
Experiment 5 finished in 579.206827008
Experiment 6 finished in 304.542211263
Experiment 7 finished in 489.992983773
Experiment 8 finished in 353.034756296
Experiment 9 finished in 333.781457295
Experiment 10 finished in 332.930122391
